Lat-186_PtenX036-011-28_17678_21900_24556.tiff.jp2 13416 18536 7132.015625 5602.433593749999 anatominen keskipiste
Lat-186_Ptenx036-14-37_3855_4284_4156.tiff.jp2 10584 18312 5981.800781249998 7430.30859375 anatominen keskipiste
Lat-186_PTENX036-15-43_19599_20556_9932.tiff.jp2 19864 18488 10918.8955078125 8178.8662109375 anatominen keskipiste
Lat-186_PTENX036-20-37_18114_46028_7452.tiff.jp2 13896 18264 7071.949218750002 7500.01171875 anatominen keskipiste
LAT-186_PTENX036-033-37_6716_3964.tiff.jp2 18616 16168 10773.7373046875 6883.2841796875 anatominen keskipiste
LAT-186_PTENX036-032-37_28079_4076_5340.tiff.jp2 10632 17896 5144.6630859375 10925.0361328125 anatominen keskipiste
