Lat-186_PtenX036-011-28_17678_21900_24556.tiff.jp2 6708 9268 3141.992188 2801.216797 anatominen keskipiste
Lat-186_Ptenx036-14-37_3855_4284_4156.tiff.jp2 5292 9156 2301.099609 3715.154297 anatominen keskipiste
Lat-186_PTENX036-15-43_19599_20556_9932.tiff.jp2 9932 9244 4472.552246 4089.433105 anatominen keskipiste
Lat-186_PTENX036-20-37_18114_46028_7452.tiff.jp2 6948 9132 3412.025391 3750.005859 anatominen keskipiste
LAT-186_PTENX036-033-37_6716_3964.tiff.jp2 9308 8084 3921.131348 3441.64209 anatominen keskipiste
LAT-186_PTENX036-032-37_28079_4076_5340.tiff.jp2 5316 8948 2743.668457 5462.518066 anatominen keskipiste
