PTENX036-33_matching_masks/LAT-186_PTENX036-033-31_30412_5660_A.png
PTENX036-33_matching_masks/LAT-186_PTENX036-033-28_32092_5212_A.png
PTENX036-33_matching_masks/LAT-186_PTENX036-033-46_10124_3964_B.png
PTENX036-33_matching_masks/LAT-186_PTENX036-033-46_10124_3964_A.png
PTENX036-33_matching_masks/LAT-186_PTENX036-033-43_33820_9276_B.png
PTENX036-33_matching_masks/LAT-186_PTENX036-033-43_33820_9276_A.png
PTENX036-33_matching_masks/LAT-186_PTENX036-033-49_65228_4060_B.png
PTENX036-33_matching_masks/LAT-186_PTENX036-033-49_65228_4060_A.png
PTENX036-33_matching_masks/LAT-186_PTENX036-033-22_4412_3948_A.png
PTENX036-33_matching_masks/LAT-186_PTENX036-033-25_7244_3948_A.png
PTENX036-33_matching_masks/LAT-186_PTENX036-033-19_58108_9148_A.png
PTENX036-33_matching_masks/LAT-186_PTENX036-033-37_6716_3964_A.png
PTENX036-33_matching_masks/LAT-186_PTENX036-033-16_6524_4268_A.png
PTENX036-33_matching_masks/LAT-186_PTENX036-033-34_54236_6700_A.png
PTENX036-33_matching_masks/LAT-186_PTENX036-033-40_4236_9884_A.png
PTENX036-33_matching_masks/LAT-186_PTENX036-033-40_4236_9884_B.png
