stack_eval_4316792.log:INFO:root:/bmt-data/bii/projects/3D-histology/output_GRID_SEARCH/PTENX036-40/54/full_res_subsampled6 : 0.06382637301467632
stack_eval_4316783.log:INFO:root:/bmt-data/bii/projects/3D-histology/output_GRID_SEARCH/PTENX036-40/45/full_res_subsampled6 : 0.06390567800942293
stack_eval_4316790.log:INFO:root:/bmt-data/bii/projects/3D-histology/output_GRID_SEARCH/PTENX036-40/52/full_res_subsampled6 : 0.06436123434106376
stack_eval_4316751.log:INFO:root:/bmt-data/bii/projects/3D-histology/output_GRID_SEARCH/PTENX036-40/13/full_res_subsampled6 : 0.06436397817739024
stack_eval_4316804.log:INFO:root:/bmt-data/bii/projects/3D-histology/output_GRID_SEARCH/PTENX036-40/66/full_res_subsampled6 : 0.06451602488326387
stack_eval_4316774.log:INFO:root:/bmt-data/bii/projects/3D-histology/output_GRID_SEARCH/PTENX036-40/36/full_res_subsampled6 : 0.06479981994093353
stack_eval_4316788.log:INFO:root:/bmt-data/bii/projects/3D-histology/output_GRID_SEARCH/PTENX036-40/50/full_res_subsampled6 : 0.06515917141871898
stack_eval_4316800.log:INFO:root:/bmt-data/bii/projects/3D-histology/output_GRID_SEARCH/PTENX036-40/62/full_res_subsampled6 : 0.06516373754671569
stack_eval_4316789.log:INFO:root:/bmt-data/bii/projects/3D-histology/output_GRID_SEARCH/PTENX036-40/51/full_res_subsampled6 : 0.06519484422843394
stack_eval_4316799.log:INFO:root:/bmt-data/bii/projects/3D-histology/output_GRID_SEARCH/PTENX036-40/61/full_res_subsampled6 : 0.0653381825867407
stack_eval_4316795.log:INFO:root:/bmt-data/bii/projects/3D-histology/output_GRID_SEARCH/PTENX036-40/57/full_res_subsampled6 : 0.06550955435226942
stack_eval_4316793.log:INFO:root:/bmt-data/bii/projects/3D-histology/output_GRID_SEARCH/PTENX036-40/55/full_res_subsampled6 : 0.0655626694667523
stack_eval_4316752.log:INFO:root:/bmt-data/bii/projects/3D-histology/output_GRID_SEARCH/PTENX036-40/14/full_res_subsampled6 : 0.0656556301181919
stack_eval_4316780.log:INFO:root:/bmt-data/bii/projects/3D-histology/output_GRID_SEARCH/PTENX036-40/42/full_res_subsampled6 : 0.06575532377751273
stack_eval_4316740.log:INFO:root:/bmt-data/bii/projects/3D-histology/output_GRID_SEARCH/PTENX036-40/2/full_res_subsampled6 : 0.0658785558154765
stack_eval_4316743.log:INFO:root:/bmt-data/bii/projects/3D-histology/output_GRID_SEARCH/PTENX036-40/5/full_res_subsampled6 : 0.06589882597764095
stack_eval_4316808.log:INFO:root:/bmt-data/bii/projects/3D-histology/output_GRID_SEARCH/PTENX036-40/70/full_res_subsampled6 : 0.06591097015314133
stack_eval_4316797.log:INFO:root:/bmt-data/bii/projects/3D-histology/output_GRID_SEARCH/PTENX036-40/59/full_res_subsampled6 : 0.06599828955850869
stack_eval_4316779.log:INFO:root:/bmt-data/bii/projects/3D-histology/output_GRID_SEARCH/PTENX036-40/41/full_res_subsampled6 : 0.06610381929283142
stack_eval_4316761.log:INFO:root:/bmt-data/bii/projects/3D-histology/output_GRID_SEARCH/PTENX036-40/23/full_res_subsampled6 : 0.06616727360073915
stack_eval_4316801.log:INFO:root:/bmt-data/bii/projects/3D-histology/output_GRID_SEARCH/PTENX036-40/63/full_res_subsampled6 : 0.06646397472526257
stack_eval_4316749.log:INFO:root:/bmt-data/bii/projects/3D-histology/output_GRID_SEARCH/PTENX036-40/11/full_res_subsampled6 : 0.06648448256523654
stack_eval_4316791.log:INFO:root:/bmt-data/bii/projects/3D-histology/output_GRID_SEARCH/PTENX036-40/53/full_res_subsampled6 : 0.0667090946486666
stack_eval_4316742.log:INFO:root:/bmt-data/bii/projects/3D-histology/output_GRID_SEARCH/PTENX036-40/4/full_res_subsampled6 : 0.066834353520326
stack_eval_4316746.log:INFO:root:/bmt-data/bii/projects/3D-histology/output_GRID_SEARCH/PTENX036-40/8/full_res_subsampled6 : 0.0671492884827753
stack_eval_4316809.log:INFO:root:/bmt-data/bii/projects/3D-histology/output_GRID_SEARCH/PTENX036-40/71/full_res_subsampled6 : 0.06720810719308519
stack_eval_4316770.log:INFO:root:/bmt-data/bii/projects/3D-histology/output_GRID_SEARCH/PTENX036-40/32/full_res_subsampled6 : 0.06726683645019865
stack_eval_4316758.log:INFO:root:/bmt-data/bii/projects/3D-histology/output_GRID_SEARCH/PTENX036-40/20/full_res_subsampled6 : 0.06735154325279939
stack_eval_4316802.log:INFO:root:/bmt-data/bii/projects/3D-histology/output_GRID_SEARCH/PTENX036-40/64/full_res_subsampled6 : 0.06747401426026654
stack_eval_4316776.log:INFO:root:/bmt-data/bii/projects/3D-histology/output_GRID_SEARCH/PTENX036-40/38/full_res_subsampled6 : 0.06751893639839011
stack_eval_4316785.log:INFO:root:/bmt-data/bii/projects/3D-histology/output_GRID_SEARCH/PTENX036-40/47/full_res_subsampled6 : 0.06754977174328732
stack_eval_4316803.log:INFO:root:/bmt-data/bii/projects/3D-histology/output_GRID_SEARCH/PTENX036-40/65/full_res_subsampled6 : 0.06760499687115194
stack_eval_4316806.log:INFO:root:/bmt-data/bii/projects/3D-histology/output_GRID_SEARCH/PTENX036-40/68/full_res_subsampled6 : 0.06768789266955001
stack_eval_4316739.log:INFO:root:/bmt-data/bii/projects/3D-histology/output_GRID_SEARCH/PTENX036-40/1/full_res_subsampled6 : 0.06779653410874621
stack_eval_4316768.log:INFO:root:/bmt-data/bii/projects/3D-histology/output_GRID_SEARCH/PTENX036-40/30/full_res_subsampled6 : 0.06780517015618591
stack_eval_4316796.log:INFO:root:/bmt-data/bii/projects/3D-histology/output_GRID_SEARCH/PTENX036-40/58/full_res_subsampled6 : 0.06782199566606874
stack_eval_4316777.log:INFO:root:/bmt-data/bii/projects/3D-histology/output_GRID_SEARCH/PTENX036-40/39/full_res_subsampled6 : 0.06782290783556645
stack_eval_4316738.log:INFO:root:/bmt-data/bii/projects/3D-histology/output_GRID_SEARCH/PTENX036-40/0/full_res_subsampled6 : 0.06784483768759918
stack_eval_4316794.log:INFO:root:/bmt-data/bii/projects/3D-histology/output_GRID_SEARCH/PTENX036-40/56/full_res_subsampled6 : 0.06785798565684922
stack_eval_4316769.log:INFO:root:/bmt-data/bii/projects/3D-histology/output_GRID_SEARCH/PTENX036-40/31/full_res_subsampled6 : 0.06799068482987336
stack_eval_4316775.log:INFO:root:/bmt-data/bii/projects/3D-histology/output_GRID_SEARCH/PTENX036-40/37/full_res_subsampled6 : 0.06810452300265948
stack_eval_4316750.log:INFO:root:/bmt-data/bii/projects/3D-histology/output_GRID_SEARCH/PTENX036-40/12/full_res_subsampled6 : 0.06815143665403318
stack_eval_4316786.log:INFO:root:/bmt-data/bii/projects/3D-histology/output_GRID_SEARCH/PTENX036-40/48/full_res_subsampled6 : 0.06825635155456806
stack_eval_4316798.log:INFO:root:/bmt-data/bii/projects/3D-histology/output_GRID_SEARCH/PTENX036-40/60/full_res_subsampled6 : 0.0683109586150465
stack_eval_4316787.log:INFO:root:/bmt-data/bii/projects/3D-histology/output_GRID_SEARCH/PTENX036-40/49/full_res_subsampled6 : 0.06831699913833522
stack_eval_4316747.log:INFO:root:/bmt-data/bii/projects/3D-histology/output_GRID_SEARCH/PTENX036-40/9/full_res_subsampled6 : 0.06838660813493826
stack_eval_4316781.log:INFO:root:/bmt-data/bii/projects/3D-histology/output_GRID_SEARCH/PTENX036-40/43/full_res_subsampled6 : 0.06842386697571866
stack_eval_4316745.log:INFO:root:/bmt-data/bii/projects/3D-histology/output_GRID_SEARCH/PTENX036-40/7/full_res_subsampled6 : 0.06849587097288841
stack_eval_4316784.log:INFO:root:/bmt-data/bii/projects/3D-histology/output_GRID_SEARCH/PTENX036-40/46/full_res_subsampled6 : 0.06855041057765475
stack_eval_4316741.log:INFO:root:/bmt-data/bii/projects/3D-histology/output_GRID_SEARCH/PTENX036-40/3/full_res_subsampled6 : 0.06870284501556659
stack_eval_4316759.log:INFO:root:/bmt-data/bii/projects/3D-histology/output_GRID_SEARCH/PTENX036-40/21/full_res_subsampled6 : 0.06876922291053753
stack_eval_4316778.log:INFO:root:/bmt-data/bii/projects/3D-histology/output_GRID_SEARCH/PTENX036-40/40/full_res_subsampled6 : 0.06881332081117883
stack_eval_4316807.log:INFO:root:/bmt-data/bii/projects/3D-histology/output_GRID_SEARCH/PTENX036-40/69/full_res_subsampled6 : 0.06885064182530344
stack_eval_4316782.log:INFO:root:/bmt-data/bii/projects/3D-histology/output_GRID_SEARCH/PTENX036-40/44/full_res_subsampled6 : 0.06896437785179596
stack_eval_4316805.log:INFO:root:/bmt-data/bii/projects/3D-histology/output_GRID_SEARCH/PTENX036-40/67/full_res_subsampled6 : 0.06924563305672156
stack_eval_4316762.log:INFO:root:/bmt-data/bii/projects/3D-histology/output_GRID_SEARCH/PTENX036-40/24/full_res_subsampled6 : 0.06951711215180874
stack_eval_4316748.log:INFO:root:/bmt-data/bii/projects/3D-histology/output_GRID_SEARCH/PTENX036-40/10/full_res_subsampled6 : 0.06996832664687441
stack_eval_4316771.log:INFO:root:/bmt-data/bii/projects/3D-histology/output_GRID_SEARCH/PTENX036-40/33/full_res_subsampled6 : 0.06997578957122125
stack_eval_4316760.log:INFO:root:/bmt-data/bii/projects/3D-histology/output_GRID_SEARCH/PTENX036-40/22/full_res_subsampled6 : 0.07035558463138143
stack_eval_4316757.log:INFO:root:/bmt-data/bii/projects/3D-histology/output_GRID_SEARCH/PTENX036-40/19/full_res_subsampled6 : 0.07035917902231036
stack_eval_4316767.log:INFO:root:/bmt-data/bii/projects/3D-histology/output_GRID_SEARCH/PTENX036-40/29/full_res_subsampled6 : 0.0703690535048477
stack_eval_4316766.log:INFO:root:/bmt-data/bii/projects/3D-histology/output_GRID_SEARCH/PTENX036-40/28/full_res_subsampled6 : 0.07043486943866627
stack_eval_4316753.log:INFO:root:/bmt-data/bii/projects/3D-histology/output_GRID_SEARCH/PTENX036-40/15/full_res_subsampled6 : 0.07049639727882678
stack_eval_4316772.log:INFO:root:/bmt-data/bii/projects/3D-histology/output_GRID_SEARCH/PTENX036-40/34/full_res_subsampled6 : 0.07056032664404523
stack_eval_4316765.log:INFO:root:/bmt-data/bii/projects/3D-histology/output_GRID_SEARCH/PTENX036-40/27/full_res_subsampled6 : 0.07094725050625232
stack_eval_4316755.log:INFO:root:/bmt-data/bii/projects/3D-histology/output_GRID_SEARCH/PTENX036-40/17/full_res_subsampled6 : 0.07114166880311545
stack_eval_4316756.log:INFO:root:/bmt-data/bii/projects/3D-histology/output_GRID_SEARCH/PTENX036-40/18/full_res_subsampled6 : 0.07343951854589305
stack_eval_4316754.log:INFO:root:/bmt-data/bii/projects/3D-histology/output_GRID_SEARCH/PTENX036-40/16/full_res_subsampled6 : 0.07358398795013836
stack_eval_4316744.log:INFO:root:/bmt-data/bii/projects/3D-histology/output_GRID_SEARCH/PTENX036-40/6/full_res_subsampled6 : 0.07397586764559522
stack_eval_4316773.log:INFO:root:/bmt-data/bii/projects/3D-histology/output_GRID_SEARCH/PTENX036-40/35/full_res_subsampled6 : 0.07411522622554012
stack_eval_4316764.log:INFO:root:/bmt-data/bii/projects/3D-histology/output_GRID_SEARCH/PTENX036-40/26/full_res_subsampled6 : 0.07580258716606589
stack_eval_4316763.log:INFO:root:/bmt-data/bii/projects/3D-histology/output_GRID_SEARCH/PTENX036-40/25/full_res_subsampled6 : 0.0782463478573883
