stack_eval_4316208.log:INFO:root:/bmt-data/bii/projects/3D-histology/output_GRID_SEARCH/PTENX036-14/51/full_res_subsampled6 : 0.10180537961535754
stack_eval_4316217.log:INFO:root:/bmt-data/bii/projects/3D-histology/output_GRID_SEARCH/PTENX036-14/60/full_res_subsampled6 : 0.10238631904381247
stack_eval_4316199.log:INFO:root:/bmt-data/bii/projects/3D-histology/output_GRID_SEARCH/PTENX036-14/42/full_res_subsampled6 : 0.10259550508970929
stack_eval_4316169.log:INFO:root:/bmt-data/bii/projects/3D-histology/output_GRID_SEARCH/PTENX036-14/12/full_res_subsampled6 : 0.10268241920889386
stack_eval_4316160.log:INFO:root:/bmt-data/bii/projects/3D-histology/output_GRID_SEARCH/PTENX036-14/3/full_res_subsampled6 : 0.10268833944599721
stack_eval_4316205.log:INFO:root:/bmt-data/bii/projects/3D-histology/output_GRID_SEARCH/PTENX036-14/48/full_res_subsampled6 : 0.10291003104155003
stack_eval_4316218.log:INFO:root:/bmt-data/bii/projects/3D-histology/output_GRID_SEARCH/PTENX036-14/61/full_res_subsampled6 : 0.10297465247532998
stack_eval_4316179.log:INFO:root:/bmt-data/bii/projects/3D-histology/output_GRID_SEARCH/PTENX036-14/22/full_res_subsampled6 : 0.10325166736553795
stack_eval_4316200.log:INFO:root:/bmt-data/bii/projects/3D-histology/output_GRID_SEARCH/PTENX036-14/43/full_res_subsampled6 : 0.10329057728595606
stack_eval_4316161.log:INFO:root:/bmt-data/bii/projects/3D-histology/output_GRID_SEARCH/PTENX036-14/4/full_res_subsampled6 : 0.10332359954219653
stack_eval_4316170.log:INFO:root:/bmt-data/bii/projects/3D-histology/output_GRID_SEARCH/PTENX036-14/13/full_res_subsampled6 : 0.1033416171351473
stack_eval_4316196.log:INFO:root:/bmt-data/bii/projects/3D-histology/output_GRID_SEARCH/PTENX036-14/39/full_res_subsampled6 : 0.10351602266937118
stack_eval_4316215.log:INFO:root:/bmt-data/bii/projects/3D-histology/output_GRID_SEARCH/PTENX036-14/58/full_res_subsampled6 : 0.10368862673323495
stack_eval_4316197.log:INFO:root:/bmt-data/bii/projects/3D-histology/output_GRID_SEARCH/PTENX036-14/40/full_res_subsampled6 : 0.10377675916820726
stack_eval_4316188.log:INFO:root:/bmt-data/bii/projects/3D-histology/output_GRID_SEARCH/PTENX036-14/31/full_res_subsampled6 : 0.10393348302577422
stack_eval_4316209.log:INFO:root:/bmt-data/bii/projects/3D-histology/output_GRID_SEARCH/PTENX036-14/52/full_res_subsampled6 : 0.10406751807687413
stack_eval_4316166.log:INFO:root:/bmt-data/bii/projects/3D-histology/output_GRID_SEARCH/PTENX036-14/9/full_res_subsampled6 : 0.10414029697522763
stack_eval_4316211.log:INFO:root:/bmt-data/bii/projects/3D-histology/output_GRID_SEARCH/PTENX036-14/54/full_res_subsampled6 : 0.1042069463197038
stack_eval_4316224.log:INFO:root:/bmt-data/bii/projects/3D-histology/output_GRID_SEARCH/PTENX036-14/67/full_res_subsampled6 : 0.10423597725219799
stack_eval_4316227.log:INFO:root:/bmt-data/bii/projects/3D-histology/output_GRID_SEARCH/PTENX036-14/70/full_res_subsampled6 : 0.10424499311921752
stack_eval_4316206.log:INFO:root:/bmt-data/bii/projects/3D-histology/output_GRID_SEARCH/PTENX036-14/49/full_res_subsampled6 : 0.10433249070578178
stack_eval_4316223.log:INFO:root:/bmt-data/bii/projects/3D-histology/output_GRID_SEARCH/PTENX036-14/66/full_res_subsampled6 : 0.10457760192290605
stack_eval_4316175.log:INFO:root:/bmt-data/bii/projects/3D-histology/output_GRID_SEARCH/PTENX036-14/18/full_res_subsampled6 : 0.1046568855749698
stack_eval_4316202.log:INFO:root:/bmt-data/bii/projects/3D-histology/output_GRID_SEARCH/PTENX036-14/45/full_res_subsampled6 : 0.10469617746753293
stack_eval_4316220.log:INFO:root:/bmt-data/bii/projects/3D-histology/output_GRID_SEARCH/PTENX036-14/63/full_res_subsampled6 : 0.10476191708909222
stack_eval_4316193.log:INFO:root:/bmt-data/bii/projects/3D-histology/output_GRID_SEARCH/PTENX036-14/36/full_res_subsampled6 : 0.10503655159504578
stack_eval_4316157.log:INFO:root:/bmt-data/bii/projects/3D-histology/output_GRID_SEARCH/PTENX036-14/0/full_res_subsampled6 : 0.10514614584362873
stack_eval_4316214.log:INFO:root:/bmt-data/bii/projects/3D-histology/output_GRID_SEARCH/PTENX036-14/57/full_res_subsampled6 : 0.10552358330081595
stack_eval_4316190.log:INFO:root:/bmt-data/bii/projects/3D-histology/output_GRID_SEARCH/PTENX036-14/33/full_res_subsampled6 : 0.10566208176117
stack_eval_4316226.log:INFO:root:/bmt-data/bii/projects/3D-histology/output_GRID_SEARCH/PTENX036-14/69/full_res_subsampled6 : 0.10570249182327454
stack_eval_4316164.log:INFO:root:/bmt-data/bii/projects/3D-histology/output_GRID_SEARCH/PTENX036-14/7/full_res_subsampled6 : 0.10583085778598014
stack_eval_4316172.log:INFO:root:/bmt-data/bii/projects/3D-histology/output_GRID_SEARCH/PTENX036-14/15/full_res_subsampled6 : 0.10603542043241196
stack_eval_4316178.log:INFO:root:/bmt-data/bii/projects/3D-histology/output_GRID_SEARCH/PTENX036-14/21/full_res_subsampled6 : 0.1061807893775996
stack_eval_4316171.log:INFO:root:/bmt-data/bii/projects/3D-histology/output_GRID_SEARCH/PTENX036-14/14/full_res_subsampled6 : 0.10620529482276823
stack_eval_4316221.log:INFO:root:/bmt-data/bii/projects/3D-histology/output_GRID_SEARCH/PTENX036-14/64/full_res_subsampled6 : 0.10625040877282664
stack_eval_4316194.log:INFO:root:/bmt-data/bii/projects/3D-histology/output_GRID_SEARCH/PTENX036-14/37/full_res_subsampled6 : 0.10625147013359115
stack_eval_4316212.log:INFO:root:/bmt-data/bii/projects/3D-histology/output_GRID_SEARCH/PTENX036-14/55/full_res_subsampled6 : 0.10646665295471017
stack_eval_4316180.log:INFO:root:/bmt-data/bii/projects/3D-histology/output_GRID_SEARCH/PTENX036-14/23/full_res_subsampled6 : 0.10688067912139405
stack_eval_4316176.log:INFO:root:/bmt-data/bii/projects/3D-histology/output_GRID_SEARCH/PTENX036-14/19/full_res_subsampled6 : 0.1068929031799219
stack_eval_4316181.log:INFO:root:/bmt-data/bii/projects/3D-histology/output_GRID_SEARCH/PTENX036-14/24/full_res_subsampled6 : 0.1068989564924986
stack_eval_4316219.log:INFO:root:/bmt-data/bii/projects/3D-histology/output_GRID_SEARCH/PTENX036-14/62/full_res_subsampled6 : 0.10699847108357015
stack_eval_4316173.log:INFO:root:/bmt-data/bii/projects/3D-histology/output_GRID_SEARCH/PTENX036-14/16/full_res_subsampled6 : 0.10712524377390015
stack_eval_4316207.log:INFO:root:/bmt-data/bii/projects/3D-histology/output_GRID_SEARCH/PTENX036-14/50/full_res_subsampled6 : 0.10718514044294124
stack_eval_4316201.log:INFO:root:/bmt-data/bii/projects/3D-histology/output_GRID_SEARCH/PTENX036-14/44/full_res_subsampled6 : 0.10720769853505321
stack_eval_4316162.log:INFO:root:/bmt-data/bii/projects/3D-histology/output_GRID_SEARCH/PTENX036-14/5/full_res_subsampled6 : 0.10729189097102312
stack_eval_4316210.log:INFO:root:/bmt-data/bii/projects/3D-histology/output_GRID_SEARCH/PTENX036-14/53/full_res_subsampled6 : 0.10733450419415878
stack_eval_4316184.log:INFO:root:/bmt-data/bii/projects/3D-histology/output_GRID_SEARCH/PTENX036-14/27/full_res_subsampled6 : 0.10735282998276464
stack_eval_4316228.log:INFO:root:/bmt-data/bii/projects/3D-histology/output_GRID_SEARCH/PTENX036-14/71/full_res_subsampled6 : 0.10737778404924356
stack_eval_4316198.log:INFO:root:/bmt-data/bii/projects/3D-histology/output_GRID_SEARCH/PTENX036-14/41/full_res_subsampled6 : 0.10748659045430739
stack_eval_4316182.log:INFO:root:/bmt-data/bii/projects/3D-histology/output_GRID_SEARCH/PTENX036-14/25/full_res_subsampled6 : 0.10778685357058987
stack_eval_4316165.log:INFO:root:/bmt-data/bii/projects/3D-histology/output_GRID_SEARCH/PTENX036-14/8/full_res_subsampled6 : 0.10841369012108693
stack_eval_4316174.log:INFO:root:/bmt-data/bii/projects/3D-histology/output_GRID_SEARCH/PTENX036-14/17/full_res_subsampled6 : 0.10843510820963653
stack_eval_4316163.log:INFO:root:/bmt-data/bii/projects/3D-histology/output_GRID_SEARCH/PTENX036-14/6/full_res_subsampled6 : 0.10911215401304993
stack_eval_4316204.log:INFO:root:/bmt-data/bii/projects/3D-histology/output_GRID_SEARCH/PTENX036-14/47/full_res_subsampled6 : 0.10931064809499524
stack_eval_4316191.log:INFO:root:/bmt-data/bii/projects/3D-histology/output_GRID_SEARCH/PTENX036-14/34/full_res_subsampled6 : 0.10946111777808853
stack_eval_4316195.log:INFO:root:/bmt-data/bii/projects/3D-histology/output_GRID_SEARCH/PTENX036-14/38/full_res_subsampled6 : 0.10951499198907177
stack_eval_4316189.log:INFO:root:/bmt-data/bii/projects/3D-histology/output_GRID_SEARCH/PTENX036-14/32/full_res_subsampled6 : 0.10963785231234473
stack_eval_4316213.log:INFO:root:/bmt-data/bii/projects/3D-histology/output_GRID_SEARCH/PTENX036-14/56/full_res_subsampled6 : 0.10964919936223008
stack_eval_4316203.log:INFO:root:/bmt-data/bii/projects/3D-histology/output_GRID_SEARCH/PTENX036-14/46/full_res_subsampled6 : 0.10968133014134196
stack_eval_4316187.log:INFO:root:/bmt-data/bii/projects/3D-histology/output_GRID_SEARCH/PTENX036-14/30/full_res_subsampled6 : 0.10969843045729731
stack_eval_4316222.log:INFO:root:/bmt-data/bii/projects/3D-histology/output_GRID_SEARCH/PTENX036-14/65/full_res_subsampled6 : 0.11004962634330927
stack_eval_4316186.log:INFO:root:/bmt-data/bii/projects/3D-histology/output_GRID_SEARCH/PTENX036-14/29/full_res_subsampled6 : 0.1104032676250287
stack_eval_4316192.log:INFO:root:/bmt-data/bii/projects/3D-histology/output_GRID_SEARCH/PTENX036-14/35/full_res_subsampled6 : 0.11056906157416962
stack_eval_4316167.log:INFO:root:/bmt-data/bii/projects/3D-histology/output_GRID_SEARCH/PTENX036-14/10/full_res_subsampled6 : 0.11061371495408057
stack_eval_4316168.log:INFO:root:/bmt-data/bii/projects/3D-histology/output_GRID_SEARCH/PTENX036-14/11/full_res_subsampled6 : 0.11093938276410178
stack_eval_4316177.log:INFO:root:/bmt-data/bii/projects/3D-histology/output_GRID_SEARCH/PTENX036-14/20/full_res_subsampled6 : 0.11136457101939548
stack_eval_4316216.log:INFO:root:/bmt-data/bii/projects/3D-histology/output_GRID_SEARCH/PTENX036-14/59/full_res_subsampled6 : 0.11177958264915487
stack_eval_4316159.log:INFO:root:/bmt-data/bii/projects/3D-histology/output_GRID_SEARCH/PTENX036-14/2/full_res_subsampled6 : 0.11244096675195571
stack_eval_4316158.log:INFO:root:/bmt-data/bii/projects/3D-histology/output_GRID_SEARCH/PTENX036-14/1/full_res_subsampled6 : 0.11248711577126323
stack_eval_4316185.log:INFO:root:/bmt-data/bii/projects/3D-histology/output_GRID_SEARCH/PTENX036-14/28/full_res_subsampled6 : 0.11268290082078876
stack_eval_4316225.log:INFO:root:/bmt-data/bii/projects/3D-histology/output_GRID_SEARCH/PTENX036-14/68/full_res_subsampled6 : 0.11390091603891127
stack_eval_4316183.log:INFO:root:/bmt-data/bii/projects/3D-histology/output_GRID_SEARCH/PTENX036-14/26/full_res_subsampled6 : 0.11421072650438102
