stack_eval_4317641.log:INFO:root:/bmt-data/bii/projects/3D-histology/output_GRID_SEARCH/UTU186-xhiMyc-355/39/full_res_subsampled6 : 0.07071014346733734
stack_eval_4317644.log:INFO:root:/bmt-data/bii/projects/3D-histology/output_GRID_SEARCH/UTU186-xhiMyc-355/42/full_res_subsampled6 : 0.07074941405241161
stack_eval_4317645.log:INFO:root:/bmt-data/bii/projects/3D-histology/output_GRID_SEARCH/UTU186-xhiMyc-355/43/full_res_subsampled6 : 0.07093741550794005
stack_eval_4317655.log:INFO:root:/bmt-data/bii/projects/3D-histology/output_GRID_SEARCH/UTU186-xhiMyc-355/53/full_res_subsampled6 : 0.07169933935131537
stack_eval_4317614.log:INFO:root:/bmt-data/bii/projects/3D-histology/output_GRID_SEARCH/UTU186-xhiMyc-355/12/full_res_subsampled6 : 0.0719362654671488
stack_eval_4317654.log:INFO:root:/bmt-data/bii/projects/3D-histology/output_GRID_SEARCH/UTU186-xhiMyc-355/52/full_res_subsampled6 : 0.07196778541558939
stack_eval_4317642.log:INFO:root:/bmt-data/bii/projects/3D-histology/output_GRID_SEARCH/UTU186-xhiMyc-355/40/full_res_subsampled6 : 0.07212922474690536
stack_eval_4317605.log:INFO:root:/bmt-data/bii/projects/3D-histology/output_GRID_SEARCH/UTU186-xhiMyc-355/3/full_res_subsampled6 : 0.07220423336455706
stack_eval_4317606.log:INFO:root:/bmt-data/bii/projects/3D-histology/output_GRID_SEARCH/UTU186-xhiMyc-355/4/full_res_subsampled6 : 0.07228839203524126
stack_eval_4317646.log:INFO:root:/bmt-data/bii/projects/3D-histology/output_GRID_SEARCH/UTU186-xhiMyc-355/44/full_res_subsampled6 : 0.07232703687117771
stack_eval_4317639.log:INFO:root:/bmt-data/bii/projects/3D-histology/output_GRID_SEARCH/UTU186-xhiMyc-355/37/full_res_subsampled6 : 0.07240161132956599
stack_eval_4317651.log:INFO:root:/bmt-data/bii/projects/3D-histology/output_GRID_SEARCH/UTU186-xhiMyc-355/49/full_res_subsampled6 : 0.07271901169614131
stack_eval_4317650.log:INFO:root:/bmt-data/bii/projects/3D-histology/output_GRID_SEARCH/UTU186-xhiMyc-355/48/full_res_subsampled6 : 0.07275692192521403
stack_eval_4317638.log:INFO:root:/bmt-data/bii/projects/3D-histology/output_GRID_SEARCH/UTU186-xhiMyc-355/36/full_res_subsampled6 : 0.07307690055399686
stack_eval_4317647.log:INFO:root:/bmt-data/bii/projects/3D-histology/output_GRID_SEARCH/UTU186-xhiMyc-355/45/full_res_subsampled6 : 0.0731659856672581
stack_eval_4317670.log:INFO:root:/bmt-data/bii/projects/3D-histology/output_GRID_SEARCH/UTU186-xhiMyc-355/68/full_res_subsampled6 : 0.07341595354540285
stack_eval_4317648.log:INFO:root:/bmt-data/bii/projects/3D-histology/output_GRID_SEARCH/UTU186-xhiMyc-355/46/full_res_subsampled6 : 0.07344880875148088
stack_eval_4317608.log:INFO:root:/bmt-data/bii/projects/3D-histology/output_GRID_SEARCH/UTU186-xhiMyc-355/6/full_res_subsampled6 : 0.07373957265382201
stack_eval_4317649.log:INFO:root:/bmt-data/bii/projects/3D-histology/output_GRID_SEARCH/UTU186-xhiMyc-355/47/full_res_subsampled6 : 0.07389634720820107
stack_eval_4317603.log:INFO:root:/bmt-data/bii/projects/3D-histology/output_GRID_SEARCH/UTU186-xhiMyc-355/1/full_res_subsampled6 : 0.07393182983066154
stack_eval_4317615.log:INFO:root:/bmt-data/bii/projects/3D-histology/output_GRID_SEARCH/UTU186-xhiMyc-355/13/full_res_subsampled6 : 0.07427241727748068
stack_eval_4317609.log:INFO:root:/bmt-data/bii/projects/3D-histology/output_GRID_SEARCH/UTU186-xhiMyc-355/7/full_res_subsampled6 : 0.07429275783080116
stack_eval_4317658.log:INFO:root:/bmt-data/bii/projects/3D-histology/output_GRID_SEARCH/UTU186-xhiMyc-355/56/full_res_subsampled6 : 0.07433972594481567
stack_eval_4317640.log:INFO:root:/bmt-data/bii/projects/3D-histology/output_GRID_SEARCH/UTU186-xhiMyc-355/38/full_res_subsampled6 : 0.07439667658884803
stack_eval_4317602.log:INFO:root:/bmt-data/bii/projects/3D-histology/output_GRID_SEARCH/UTU186-xhiMyc-355/0/full_res_subsampled6 : 0.07441566584233508
stack_eval_4317618.log:INFO:root:/bmt-data/bii/projects/3D-histology/output_GRID_SEARCH/UTU186-xhiMyc-355/16/full_res_subsampled6 : 0.07446574604221254
stack_eval_4317673.log:INFO:root:/bmt-data/bii/projects/3D-histology/output_GRID_SEARCH/UTU186-xhiMyc-355/71/full_res_subsampled6 : 0.07452433837687113
stack_eval_4317643.log:INFO:root:/bmt-data/bii/projects/3D-histology/output_GRID_SEARCH/UTU186-xhiMyc-355/41/full_res_subsampled6 : 0.07482227209976866
stack_eval_4317617.log:INFO:root:/bmt-data/bii/projects/3D-histology/output_GRID_SEARCH/UTU186-xhiMyc-355/15/full_res_subsampled6 : 0.07502552484523274
stack_eval_4317653.log:INFO:root:/bmt-data/bii/projects/3D-histology/output_GRID_SEARCH/UTU186-xhiMyc-355/51/full_res_subsampled6 : 0.0751551539586042
stack_eval_4317661.log:INFO:root:/bmt-data/bii/projects/3D-histology/output_GRID_SEARCH/UTU186-xhiMyc-355/59/full_res_subsampled6 : 0.07516942726931222
stack_eval_4317610.log:INFO:root:/bmt-data/bii/projects/3D-histology/output_GRID_SEARCH/UTU186-xhiMyc-355/8/full_res_subsampled6 : 0.0752795637618923
stack_eval_4317660.log:INFO:root:/bmt-data/bii/projects/3D-histology/output_GRID_SEARCH/UTU186-xhiMyc-355/58/full_res_subsampled6 : 0.07530615759544151
stack_eval_4317657.log:INFO:root:/bmt-data/bii/projects/3D-histology/output_GRID_SEARCH/UTU186-xhiMyc-355/55/full_res_subsampled6 : 0.07539473717334522
stack_eval_4317607.log:INFO:root:/bmt-data/bii/projects/3D-histology/output_GRID_SEARCH/UTU186-xhiMyc-355/5/full_res_subsampled6 : 0.07552652842886307
stack_eval_4317652.log:INFO:root:/bmt-data/bii/projects/3D-histology/output_GRID_SEARCH/UTU186-xhiMyc-355/50/full_res_subsampled6 : 0.07571904792012507
stack_eval_4317656.log:INFO:root:/bmt-data/bii/projects/3D-histology/output_GRID_SEARCH/UTU186-xhiMyc-355/54/full_res_subsampled6 : 0.07572048721432986
stack_eval_4317667.log:INFO:root:/bmt-data/bii/projects/3D-histology/output_GRID_SEARCH/UTU186-xhiMyc-355/65/full_res_subsampled6 : 0.075797959858627
stack_eval_4317604.log:INFO:root:/bmt-data/bii/projects/3D-histology/output_GRID_SEARCH/UTU186-xhiMyc-355/2/full_res_subsampled6 : 0.07587672547020465
stack_eval_4317672.log:INFO:root:/bmt-data/bii/projects/3D-histology/output_GRID_SEARCH/UTU186-xhiMyc-355/70/full_res_subsampled6 : 0.07609980930502216
stack_eval_4317664.log:INFO:root:/bmt-data/bii/projects/3D-histology/output_GRID_SEARCH/UTU186-xhiMyc-355/62/full_res_subsampled6 : 0.07610380286946951
stack_eval_4317619.log:INFO:root:/bmt-data/bii/projects/3D-histology/output_GRID_SEARCH/UTU186-xhiMyc-355/17/full_res_subsampled6 : 0.07623586866167874
stack_eval_4317666.log:INFO:root:/bmt-data/bii/projects/3D-histology/output_GRID_SEARCH/UTU186-xhiMyc-355/64/full_res_subsampled6 : 0.07664808793749527
stack_eval_4317624.log:INFO:root:/bmt-data/bii/projects/3D-histology/output_GRID_SEARCH/UTU186-xhiMyc-355/22/full_res_subsampled6 : 0.0766895425283707
stack_eval_4317616.log:INFO:root:/bmt-data/bii/projects/3D-histology/output_GRID_SEARCH/UTU186-xhiMyc-355/14/full_res_subsampled6 : 0.07691234818745248
stack_eval_4317663.log:INFO:root:/bmt-data/bii/projects/3D-histology/output_GRID_SEARCH/UTU186-xhiMyc-355/61/full_res_subsampled6 : 0.07707910954498474
stack_eval_4317659.log:INFO:root:/bmt-data/bii/projects/3D-histology/output_GRID_SEARCH/UTU186-xhiMyc-355/57/full_res_subsampled6 : 0.07823146945763819
stack_eval_4317623.log:INFO:root:/bmt-data/bii/projects/3D-histology/output_GRID_SEARCH/UTU186-xhiMyc-355/21/full_res_subsampled6 : 0.07859424630968456
stack_eval_4317671.log:INFO:root:/bmt-data/bii/projects/3D-histology/output_GRID_SEARCH/UTU186-xhiMyc-355/69/full_res_subsampled6 : 0.07895891136869455
stack_eval_4317669.log:INFO:root:/bmt-data/bii/projects/3D-histology/output_GRID_SEARCH/UTU186-xhiMyc-355/67/full_res_subsampled6 : 0.07957482521493979
stack_eval_4317622.log:INFO:root:/bmt-data/bii/projects/3D-histology/output_GRID_SEARCH/UTU186-xhiMyc-355/20/full_res_subsampled6 : 0.07958208253680553
stack_eval_4317611.log:INFO:root:/bmt-data/bii/projects/3D-histology/output_GRID_SEARCH/UTU186-xhiMyc-355/9/full_res_subsampled6 : 0.07993384202753205
stack_eval_4317665.log:INFO:root:/bmt-data/bii/projects/3D-histology/output_GRID_SEARCH/UTU186-xhiMyc-355/63/full_res_subsampled6 : 0.08021467491524051
stack_eval_4317627.log:INFO:root:/bmt-data/bii/projects/3D-histology/output_GRID_SEARCH/UTU186-xhiMyc-355/25/full_res_subsampled6 : 0.08114335665894822
stack_eval_4317634.log:INFO:root:/bmt-data/bii/projects/3D-histology/output_GRID_SEARCH/UTU186-xhiMyc-355/32/full_res_subsampled6 : 0.08186848246662436
stack_eval_4317621.log:INFO:root:/bmt-data/bii/projects/3D-histology/output_GRID_SEARCH/UTU186-xhiMyc-355/19/full_res_subsampled6 : 0.0818904502346662
stack_eval_4317625.log:INFO:root:/bmt-data/bii/projects/3D-histology/output_GRID_SEARCH/UTU186-xhiMyc-355/23/full_res_subsampled6 : 0.08220675558376322
stack_eval_4317613.log:INFO:root:/bmt-data/bii/projects/3D-histology/output_GRID_SEARCH/UTU186-xhiMyc-355/11/full_res_subsampled6 : 0.08268447061240061
stack_eval_4317630.log:INFO:root:/bmt-data/bii/projects/3D-histology/output_GRID_SEARCH/UTU186-xhiMyc-355/28/full_res_subsampled6 : 0.08282253833227358
stack_eval_4317632.log:INFO:root:/bmt-data/bii/projects/3D-histology/output_GRID_SEARCH/UTU186-xhiMyc-355/30/full_res_subsampled6 : 0.08286792371045817
stack_eval_4317668.log:INFO:root:/bmt-data/bii/projects/3D-histology/output_GRID_SEARCH/UTU186-xhiMyc-355/66/full_res_subsampled6 : 0.0833362570756077
stack_eval_4317662.log:INFO:root:/bmt-data/bii/projects/3D-histology/output_GRID_SEARCH/UTU186-xhiMyc-355/60/full_res_subsampled6 : 0.08345864764777682
stack_eval_4317612.log:INFO:root:/bmt-data/bii/projects/3D-histology/output_GRID_SEARCH/UTU186-xhiMyc-355/10/full_res_subsampled6 : 0.08361563311601873
stack_eval_4317628.log:INFO:root:/bmt-data/bii/projects/3D-histology/output_GRID_SEARCH/UTU186-xhiMyc-355/26/full_res_subsampled6 : 0.08390236375774454
stack_eval_4317631.log:INFO:root:/bmt-data/bii/projects/3D-histology/output_GRID_SEARCH/UTU186-xhiMyc-355/29/full_res_subsampled6 : 0.08557930491605972
stack_eval_4317636.log:INFO:root:/bmt-data/bii/projects/3D-histology/output_GRID_SEARCH/UTU186-xhiMyc-355/34/full_res_subsampled6 : 0.08713988488798372
stack_eval_4317633.log:INFO:root:/bmt-data/bii/projects/3D-histology/output_GRID_SEARCH/UTU186-xhiMyc-355/31/full_res_subsampled6 : 0.08798953463279906
stack_eval_4317626.log:INFO:root:/bmt-data/bii/projects/3D-histology/output_GRID_SEARCH/UTU186-xhiMyc-355/24/full_res_subsampled6 : 0.08918541517421218
stack_eval_4317620.log:INFO:root:/bmt-data/bii/projects/3D-histology/output_GRID_SEARCH/UTU186-xhiMyc-355/18/full_res_subsampled6 : 0.09000428187483411
stack_eval_4317635.log:INFO:root:/bmt-data/bii/projects/3D-histology/output_GRID_SEARCH/UTU186-xhiMyc-355/33/full_res_subsampled6 : 0.09079794672820203
stack_eval_4317629.log:INFO:root:/bmt-data/bii/projects/3D-histology/output_GRID_SEARCH/UTU186-xhiMyc-355/27/full_res_subsampled6 : 0.09125893096527664
stack_eval_4317637.log:INFO:root:/bmt-data/bii/projects/3D-histology/output_GRID_SEARCH/UTU186-xhiMyc-355/35/full_res_subsampled6 : 0.09168073715028562
