stack_eval_4317497.log:INFO:root:/bmt-data/bii/projects/3D-histology/output_GRID_SEARCH/UTU186-xhiMyc-211/39/full_res_subsampled6 : 0.12381899707688965
stack_eval_4317498.log:INFO:root:/bmt-data/bii/projects/3D-histology/output_GRID_SEARCH/UTU186-xhiMyc-211/40/full_res_subsampled6 : 0.12463048401677826
stack_eval_4317468.log:INFO:root:/bmt-data/bii/projects/3D-histology/output_GRID_SEARCH/UTU186-xhiMyc-211/10/full_res_subsampled6 : 0.12466686828820994
stack_eval_4317506.log:INFO:root:/bmt-data/bii/projects/3D-histology/output_GRID_SEARCH/UTU186-xhiMyc-211/48/full_res_subsampled6 : 0.1247044371620298
stack_eval_4317500.log:INFO:root:/bmt-data/bii/projects/3D-histology/output_GRID_SEARCH/UTU186-xhiMyc-211/42/full_res_subsampled6 : 0.12496268923886285
stack_eval_4317461.log:INFO:root:/bmt-data/bii/projects/3D-histology/output_GRID_SEARCH/UTU186-xhiMyc-211/3/full_res_subsampled6 : 0.1252322135083649
stack_eval_4317507.log:INFO:root:/bmt-data/bii/projects/3D-histology/output_GRID_SEARCH/UTU186-xhiMyc-211/49/full_res_subsampled6 : 0.12540148836775358
stack_eval_4317509.log:INFO:root:/bmt-data/bii/projects/3D-histology/output_GRID_SEARCH/UTU186-xhiMyc-211/51/full_res_subsampled6 : 0.1258910165909912
stack_eval_4317510.log:INFO:root:/bmt-data/bii/projects/3D-histology/output_GRID_SEARCH/UTU186-xhiMyc-211/52/full_res_subsampled6 : 0.12595376814642523
stack_eval_4317462.log:INFO:root:/bmt-data/bii/projects/3D-histology/output_GRID_SEARCH/UTU186-xhiMyc-211/4/full_res_subsampled6 : 0.1260543258306612
stack_eval_4317501.log:INFO:root:/bmt-data/bii/projects/3D-histology/output_GRID_SEARCH/UTU186-xhiMyc-211/43/full_res_subsampled6 : 0.12616772083876637
stack_eval_4317458.log:INFO:root:/bmt-data/bii/projects/3D-histology/output_GRID_SEARCH/UTU186-xhiMyc-211/0/full_res_subsampled6 : 0.12627549660633614
stack_eval_4317465.log:INFO:root:/bmt-data/bii/projects/3D-histology/output_GRID_SEARCH/UTU186-xhiMyc-211/7/full_res_subsampled6 : 0.12672399636406853
stack_eval_4317518.log:INFO:root:/bmt-data/bii/projects/3D-histology/output_GRID_SEARCH/UTU186-xhiMyc-211/60/full_res_subsampled6 : 0.1271025953525526
stack_eval_4317516.log:INFO:root:/bmt-data/bii/projects/3D-histology/output_GRID_SEARCH/UTU186-xhiMyc-211/58/full_res_subsampled6 : 0.12715254275027932
stack_eval_4317517.log:INFO:root:/bmt-data/bii/projects/3D-histology/output_GRID_SEARCH/UTU186-xhiMyc-211/59/full_res_subsampled6 : 0.1272251570617233
stack_eval_4317503.log:INFO:root:/bmt-data/bii/projects/3D-histology/output_GRID_SEARCH/UTU186-xhiMyc-211/45/full_res_subsampled6 : 0.12723332267602133
stack_eval_4317470.log:INFO:root:/bmt-data/bii/projects/3D-histology/output_GRID_SEARCH/UTU186-xhiMyc-211/12/full_res_subsampled6 : 0.1273788569537196
stack_eval_4317515.log:INFO:root:/bmt-data/bii/projects/3D-histology/output_GRID_SEARCH/UTU186-xhiMyc-211/57/full_res_subsampled6 : 0.1274778333519825
stack_eval_4317467.log:INFO:root:/bmt-data/bii/projects/3D-histology/output_GRID_SEARCH/UTU186-xhiMyc-211/9/full_res_subsampled6 : 0.12770307985775622
stack_eval_4317494.log:INFO:root:/bmt-data/bii/projects/3D-histology/output_GRID_SEARCH/UTU186-xhiMyc-211/36/full_res_subsampled6 : 0.1279217312650978
stack_eval_4317508.log:INFO:root:/bmt-data/bii/projects/3D-histology/output_GRID_SEARCH/UTU186-xhiMyc-211/50/full_res_subsampled6 : 0.12817582204946942
stack_eval_4317459.log:INFO:root:/bmt-data/bii/projects/3D-histology/output_GRID_SEARCH/UTU186-xhiMyc-211/1/full_res_subsampled6 : 0.12841981497080254
stack_eval_4317502.log:INFO:root:/bmt-data/bii/projects/3D-histology/output_GRID_SEARCH/UTU186-xhiMyc-211/44/full_res_subsampled6 : 0.12859218618866003
stack_eval_4317513.log:INFO:root:/bmt-data/bii/projects/3D-histology/output_GRID_SEARCH/UTU186-xhiMyc-211/55/full_res_subsampled6 : 0.12861938279600887
stack_eval_4317519.log:INFO:root:/bmt-data/bii/projects/3D-histology/output_GRID_SEARCH/UTU186-xhiMyc-211/61/full_res_subsampled6 : 0.12872741245982736
stack_eval_4317526.log:INFO:root:/bmt-data/bii/projects/3D-histology/output_GRID_SEARCH/UTU186-xhiMyc-211/68/full_res_subsampled6 : 0.12894527072382786
stack_eval_4317480.log:INFO:root:/bmt-data/bii/projects/3D-histology/output_GRID_SEARCH/UTU186-xhiMyc-211/22/full_res_subsampled6 : 0.1290205048614505
stack_eval_4317522.log:INFO:root:/bmt-data/bii/projects/3D-histology/output_GRID_SEARCH/UTU186-xhiMyc-211/64/full_res_subsampled6 : 0.1290830742152795
stack_eval_4317477.log:INFO:root:/bmt-data/bii/projects/3D-histology/output_GRID_SEARCH/UTU186-xhiMyc-211/19/full_res_subsampled6 : 0.1290856541305288
stack_eval_4317512.log:INFO:root:/bmt-data/bii/projects/3D-histology/output_GRID_SEARCH/UTU186-xhiMyc-211/54/full_res_subsampled6 : 0.1291651075979085
stack_eval_4317523.log:INFO:root:/bmt-data/bii/projects/3D-histology/output_GRID_SEARCH/UTU186-xhiMyc-211/65/full_res_subsampled6 : 0.1291861635403305
stack_eval_4317511.log:INFO:root:/bmt-data/bii/projects/3D-histology/output_GRID_SEARCH/UTU186-xhiMyc-211/53/full_res_subsampled6 : 0.12929961967292994
stack_eval_4317463.log:INFO:root:/bmt-data/bii/projects/3D-histology/output_GRID_SEARCH/UTU186-xhiMyc-211/5/full_res_subsampled6 : 0.12931283219672116
stack_eval_4317525.log:INFO:root:/bmt-data/bii/projects/3D-histology/output_GRID_SEARCH/UTU186-xhiMyc-211/67/full_res_subsampled6 : 0.12940066865360644
stack_eval_4317499.log:INFO:root:/bmt-data/bii/projects/3D-histology/output_GRID_SEARCH/UTU186-xhiMyc-211/41/full_res_subsampled6 : 0.12942378823001588
stack_eval_4317466.log:INFO:root:/bmt-data/bii/projects/3D-histology/output_GRID_SEARCH/UTU186-xhiMyc-211/8/full_res_subsampled6 : 0.12944691881280318
stack_eval_4317478.log:INFO:root:/bmt-data/bii/projects/3D-histology/output_GRID_SEARCH/UTU186-xhiMyc-211/20/full_res_subsampled6 : 0.12951418384431818
stack_eval_4317504.log:INFO:root:/bmt-data/bii/projects/3D-histology/output_GRID_SEARCH/UTU186-xhiMyc-211/46/full_res_subsampled6 : 0.1297873081801642
stack_eval_4317460.log:INFO:root:/bmt-data/bii/projects/3D-histology/output_GRID_SEARCH/UTU186-xhiMyc-211/2/full_res_subsampled6 : 0.12982977821063355
stack_eval_4317472.log:INFO:root:/bmt-data/bii/projects/3D-histology/output_GRID_SEARCH/UTU186-xhiMyc-211/14/full_res_subsampled6 : 0.1300566292068726
stack_eval_4317471.log:INFO:root:/bmt-data/bii/projects/3D-histology/output_GRID_SEARCH/UTU186-xhiMyc-211/13/full_res_subsampled6 : 0.13011095859365182
stack_eval_4317490.log:INFO:root:/bmt-data/bii/projects/3D-histology/output_GRID_SEARCH/UTU186-xhiMyc-211/32/full_res_subsampled6 : 0.1301797575376588
stack_eval_4317495.log:INFO:root:/bmt-data/bii/projects/3D-histology/output_GRID_SEARCH/UTU186-xhiMyc-211/37/full_res_subsampled6 : 0.13019822242307663
stack_eval_4317505.log:INFO:root:/bmt-data/bii/projects/3D-histology/output_GRID_SEARCH/UTU186-xhiMyc-211/47/full_res_subsampled6 : 0.13034222036157236
stack_eval_4317486.log:INFO:root:/bmt-data/bii/projects/3D-histology/output_GRID_SEARCH/UTU186-xhiMyc-211/28/full_res_subsampled6 : 0.1304186442996029
stack_eval_4317469.log:INFO:root:/bmt-data/bii/projects/3D-histology/output_GRID_SEARCH/UTU186-xhiMyc-211/11/full_res_subsampled6 : 0.13048078816866376
stack_eval_4317464.log:INFO:root:/bmt-data/bii/projects/3D-histology/output_GRID_SEARCH/UTU186-xhiMyc-211/6/full_res_subsampled6 : 0.13048829006347984
stack_eval_4317496.log:INFO:root:/bmt-data/bii/projects/3D-histology/output_GRID_SEARCH/UTU186-xhiMyc-211/38/full_res_subsampled6 : 0.13063676049521963
stack_eval_4317475.log:INFO:root:/bmt-data/bii/projects/3D-histology/output_GRID_SEARCH/UTU186-xhiMyc-211/17/full_res_subsampled6 : 0.13070991003143298
stack_eval_4317481.log:INFO:root:/bmt-data/bii/projects/3D-histology/output_GRID_SEARCH/UTU186-xhiMyc-211/23/full_res_subsampled6 : 0.13082606080428283
stack_eval_4317484.log:INFO:root:/bmt-data/bii/projects/3D-histology/output_GRID_SEARCH/UTU186-xhiMyc-211/26/full_res_subsampled6 : 0.1308326477762979
stack_eval_4317528.log:INFO:root:/bmt-data/bii/projects/3D-histology/output_GRID_SEARCH/UTU186-xhiMyc-211/70/full_res_subsampled6 : 0.1311696476562092
stack_eval_4317527.log:INFO:root:/bmt-data/bii/projects/3D-histology/output_GRID_SEARCH/UTU186-xhiMyc-211/69/full_res_subsampled6 : 0.131287683835459
stack_eval_4317529.log:INFO:root:/bmt-data/bii/projects/3D-histology/output_GRID_SEARCH/UTU186-xhiMyc-211/71/full_res_subsampled6 : 0.13130985572366596
stack_eval_4317474.log:INFO:root:/bmt-data/bii/projects/3D-histology/output_GRID_SEARCH/UTU186-xhiMyc-211/16/full_res_subsampled6 : 0.13134592268888262
stack_eval_4317479.log:INFO:root:/bmt-data/bii/projects/3D-histology/output_GRID_SEARCH/UTU186-xhiMyc-211/21/full_res_subsampled6 : 0.13136341647798752
stack_eval_4317476.log:INFO:root:/bmt-data/bii/projects/3D-histology/output_GRID_SEARCH/UTU186-xhiMyc-211/18/full_res_subsampled6 : 0.1316533693748111
stack_eval_4317520.log:INFO:root:/bmt-data/bii/projects/3D-histology/output_GRID_SEARCH/UTU186-xhiMyc-211/62/full_res_subsampled6 : 0.13167726295649199
stack_eval_4317524.log:INFO:root:/bmt-data/bii/projects/3D-histology/output_GRID_SEARCH/UTU186-xhiMyc-211/66/full_res_subsampled6 : 0.13174038316101902
stack_eval_4317492.log:INFO:root:/bmt-data/bii/projects/3D-histology/output_GRID_SEARCH/UTU186-xhiMyc-211/34/full_res_subsampled6 : 0.13196819688999203
stack_eval_4317491.log:INFO:root:/bmt-data/bii/projects/3D-histology/output_GRID_SEARCH/UTU186-xhiMyc-211/33/full_res_subsampled6 : 0.1325445524132599
stack_eval_4317483.log:INFO:root:/bmt-data/bii/projects/3D-histology/output_GRID_SEARCH/UTU186-xhiMyc-211/25/full_res_subsampled6 : 0.13266307821716483
stack_eval_4317521.log:INFO:root:/bmt-data/bii/projects/3D-histology/output_GRID_SEARCH/UTU186-xhiMyc-211/63/full_res_subsampled6 : 0.13300519890743243
stack_eval_4317482.log:INFO:root:/bmt-data/bii/projects/3D-histology/output_GRID_SEARCH/UTU186-xhiMyc-211/24/full_res_subsampled6 : 0.13309638729960033
stack_eval_4317493.log:INFO:root:/bmt-data/bii/projects/3D-histology/output_GRID_SEARCH/UTU186-xhiMyc-211/35/full_res_subsampled6 : 0.13338364230254807
stack_eval_4317487.log:INFO:root:/bmt-data/bii/projects/3D-histology/output_GRID_SEARCH/UTU186-xhiMyc-211/29/full_res_subsampled6 : 0.1334447543398349
stack_eval_4317488.log:INFO:root:/bmt-data/bii/projects/3D-histology/output_GRID_SEARCH/UTU186-xhiMyc-211/30/full_res_subsampled6 : 0.13407693958620404
stack_eval_4317489.log:INFO:root:/bmt-data/bii/projects/3D-histology/output_GRID_SEARCH/UTU186-xhiMyc-211/31/full_res_subsampled6 : 0.13423831093828947
stack_eval_4317473.log:INFO:root:/bmt-data/bii/projects/3D-histology/output_GRID_SEARCH/UTU186-xhiMyc-211/15/full_res_subsampled6 : 0.1355171609547925
stack_eval_4317485.log:INFO:root:/bmt-data/bii/projects/3D-histology/output_GRID_SEARCH/UTU186-xhiMyc-211/27/full_res_subsampled6 : 0.1355845637634352
stack_eval_4317514.log:INFO:root:/bmt-data/bii/projects/3D-histology/output_GRID_SEARCH/UTU186-xhiMyc-211/56/full_res_subsampled6 : inf
