stack_eval_4317101.log:INFO:root:/bmt-data/bii/projects/3D-histology/output_GRID_SEARCH/UTU186-xhiMyc-007/3/full_res_subsampled6 : 0.10403660805030723
stack_eval_4317135.log:INFO:root:/bmt-data/bii/projects/3D-histology/output_GRID_SEARCH/UTU186-xhiMyc-007/37/full_res_subsampled6 : 0.10417333343897221
stack_eval_4317140.log:INFO:root:/bmt-data/bii/projects/3D-histology/output_GRID_SEARCH/UTU186-xhiMyc-007/42/full_res_subsampled6 : 0.10443083808015438
stack_eval_4317112.log:INFO:root:/bmt-data/bii/projects/3D-histology/output_GRID_SEARCH/UTU186-xhiMyc-007/14/full_res_subsampled6 : 0.10484222778378119
stack_eval_4317164.log:INFO:root:/bmt-data/bii/projects/3D-histology/output_GRID_SEARCH/UTU186-xhiMyc-007/66/full_res_subsampled6 : 0.10491279016145555
stack_eval_4317139.log:INFO:root:/bmt-data/bii/projects/3D-histology/output_GRID_SEARCH/UTU186-xhiMyc-007/41/full_res_subsampled6 : 0.10496744995489038
stack_eval_4317115.log:INFO:root:/bmt-data/bii/projects/3D-histology/output_GRID_SEARCH/UTU186-xhiMyc-007/17/full_res_subsampled6 : 0.10523104875857775
stack_eval_4317102.log:INFO:root:/bmt-data/bii/projects/3D-histology/output_GRID_SEARCH/UTU186-xhiMyc-007/4/full_res_subsampled6 : 0.10526295685426684
stack_eval_4317134.log:INFO:root:/bmt-data/bii/projects/3D-histology/output_GRID_SEARCH/UTU186-xhiMyc-007/36/full_res_subsampled6 : 0.10534205623447622
stack_eval_4317145.log:INFO:root:/bmt-data/bii/projects/3D-histology/output_GRID_SEARCH/UTU186-xhiMyc-007/47/full_res_subsampled6 : 0.10543322223188523
stack_eval_4317151.log:INFO:root:/bmt-data/bii/projects/3D-histology/output_GRID_SEARCH/UTU186-xhiMyc-007/53/full_res_subsampled6 : 0.10612958316281511
stack_eval_4317137.log:INFO:root:/bmt-data/bii/projects/3D-histology/output_GRID_SEARCH/UTU186-xhiMyc-007/39/full_res_subsampled6 : 0.10659206502634774
stack_eval_4317104.log:INFO:root:/bmt-data/bii/projects/3D-histology/output_GRID_SEARCH/UTU186-xhiMyc-007/6/full_res_subsampled6 : 0.10662743922909795
stack_eval_4317106.log:INFO:root:/bmt-data/bii/projects/3D-histology/output_GRID_SEARCH/UTU186-xhiMyc-007/8/full_res_subsampled6 : 0.10684343734460523
stack_eval_4317141.log:INFO:root:/bmt-data/bii/projects/3D-histology/output_GRID_SEARCH/UTU186-xhiMyc-007/43/full_res_subsampled6 : 0.1070861135638832
stack_eval_4317103.log:INFO:root:/bmt-data/bii/projects/3D-histology/output_GRID_SEARCH/UTU186-xhiMyc-007/5/full_res_subsampled6 : 0.1073191058758189
stack_eval_4317136.log:INFO:root:/bmt-data/bii/projects/3D-histology/output_GRID_SEARCH/UTU186-xhiMyc-007/38/full_res_subsampled6 : 0.10738174889811512
stack_eval_4317109.log:INFO:root:/bmt-data/bii/projects/3D-histology/output_GRID_SEARCH/UTU186-xhiMyc-007/11/full_res_subsampled6 : 0.10741687872640111
stack_eval_4317138.log:INFO:root:/bmt-data/bii/projects/3D-histology/output_GRID_SEARCH/UTU186-xhiMyc-007/40/full_res_subsampled6 : 0.10745559079935298
stack_eval_4317142.log:INFO:root:/bmt-data/bii/projects/3D-histology/output_GRID_SEARCH/UTU186-xhiMyc-007/44/full_res_subsampled6 : 0.10757997277228233
stack_eval_4317143.log:INFO:root:/bmt-data/bii/projects/3D-histology/output_GRID_SEARCH/UTU186-xhiMyc-007/45/full_res_subsampled6 : 0.10764528374607435
stack_eval_4317144.log:INFO:root:/bmt-data/bii/projects/3D-histology/output_GRID_SEARCH/UTU186-xhiMyc-007/46/full_res_subsampled6 : 0.10765821053435487
stack_eval_4317150.log:INFO:root:/bmt-data/bii/projects/3D-histology/output_GRID_SEARCH/UTU186-xhiMyc-007/52/full_res_subsampled6 : 0.10771653665040526
stack_eval_4317099.log:INFO:root:/bmt-data/bii/projects/3D-histology/output_GRID_SEARCH/UTU186-xhiMyc-007/1/full_res_subsampled6 : 0.10775339366771686
stack_eval_4317146.log:INFO:root:/bmt-data/bii/projects/3D-histology/output_GRID_SEARCH/UTU186-xhiMyc-007/48/full_res_subsampled6 : 0.10850352030318593
stack_eval_4317100.log:INFO:root:/bmt-data/bii/projects/3D-histology/output_GRID_SEARCH/UTU186-xhiMyc-007/2/full_res_subsampled6 : 0.10855309571615945
stack_eval_4317147.log:INFO:root:/bmt-data/bii/projects/3D-histology/output_GRID_SEARCH/UTU186-xhiMyc-007/49/full_res_subsampled6 : 0.10864852408890381
stack_eval_4317114.log:INFO:root:/bmt-data/bii/projects/3D-histology/output_GRID_SEARCH/UTU186-xhiMyc-007/16/full_res_subsampled6 : 0.10872657619623033
stack_eval_4317169.log:INFO:root:/bmt-data/bii/projects/3D-histology/output_GRID_SEARCH/UTU186-xhiMyc-007/71/full_res_subsampled6 : 0.10893341646541356
stack_eval_4317110.log:INFO:root:/bmt-data/bii/projects/3D-histology/output_GRID_SEARCH/UTU186-xhiMyc-007/12/full_res_subsampled6 : 0.10924936694566541
stack_eval_4317111.log:INFO:root:/bmt-data/bii/projects/3D-histology/output_GRID_SEARCH/UTU186-xhiMyc-007/13/full_res_subsampled6 : 0.10943962539654384
stack_eval_4317108.log:INFO:root:/bmt-data/bii/projects/3D-histology/output_GRID_SEARCH/UTU186-xhiMyc-007/10/full_res_subsampled6 : 0.10949385936191279
stack_eval_4317130.log:INFO:root:/bmt-data/bii/projects/3D-histology/output_GRID_SEARCH/UTU186-xhiMyc-007/32/full_res_subsampled6 : 0.10963027892343455
stack_eval_4317098.log:INFO:root:/bmt-data/bii/projects/3D-histology/output_GRID_SEARCH/UTU186-xhiMyc-007/0/full_res_subsampled6 : 0.10969410763860982
stack_eval_4317117.log:INFO:root:/bmt-data/bii/projects/3D-histology/output_GRID_SEARCH/UTU186-xhiMyc-007/19/full_res_subsampled6 : 0.10989023742641069
stack_eval_4317155.log:INFO:root:/bmt-data/bii/projects/3D-histology/output_GRID_SEARCH/UTU186-xhiMyc-007/57/full_res_subsampled6 : 0.11012965913846617
stack_eval_4317124.log:INFO:root:/bmt-data/bii/projects/3D-histology/output_GRID_SEARCH/UTU186-xhiMyc-007/26/full_res_subsampled6 : 0.11030658646813693
stack_eval_4317105.log:INFO:root:/bmt-data/bii/projects/3D-histology/output_GRID_SEARCH/UTU186-xhiMyc-007/7/full_res_subsampled6 : 0.11051694382614922
stack_eval_4317153.log:INFO:root:/bmt-data/bii/projects/3D-histology/output_GRID_SEARCH/UTU186-xhiMyc-007/55/full_res_subsampled6 : 0.11058091593590919
stack_eval_4317154.log:INFO:root:/bmt-data/bii/projects/3D-histology/output_GRID_SEARCH/UTU186-xhiMyc-007/56/full_res_subsampled6 : 0.11098196001067456
stack_eval_4317157.log:INFO:root:/bmt-data/bii/projects/3D-histology/output_GRID_SEARCH/UTU186-xhiMyc-007/59/full_res_subsampled6 : 0.11107566913376105
stack_eval_4317165.log:INFO:root:/bmt-data/bii/projects/3D-histology/output_GRID_SEARCH/UTU186-xhiMyc-007/67/full_res_subsampled6 : 0.11145403014776481
stack_eval_4317149.log:INFO:root:/bmt-data/bii/projects/3D-histology/output_GRID_SEARCH/UTU186-xhiMyc-007/51/full_res_subsampled6 : 0.1114561867621064
stack_eval_4317113.log:INFO:root:/bmt-data/bii/projects/3D-histology/output_GRID_SEARCH/UTU186-xhiMyc-007/15/full_res_subsampled6 : 0.11187354180646572
stack_eval_4317121.log:INFO:root:/bmt-data/bii/projects/3D-histology/output_GRID_SEARCH/UTU186-xhiMyc-007/23/full_res_subsampled6 : 0.11196044151947422
stack_eval_4317160.log:INFO:root:/bmt-data/bii/projects/3D-histology/output_GRID_SEARCH/UTU186-xhiMyc-007/62/full_res_subsampled6 : 0.11230577507104224
stack_eval_4317156.log:INFO:root:/bmt-data/bii/projects/3D-histology/output_GRID_SEARCH/UTU186-xhiMyc-007/58/full_res_subsampled6 : 0.11241029043628592
stack_eval_4317148.log:INFO:root:/bmt-data/bii/projects/3D-histology/output_GRID_SEARCH/UTU186-xhiMyc-007/50/full_res_subsampled6 : 0.11262526387101646
stack_eval_4317161.log:INFO:root:/bmt-data/bii/projects/3D-histology/output_GRID_SEARCH/UTU186-xhiMyc-007/63/full_res_subsampled6 : 0.11297762618129796
stack_eval_4317163.log:INFO:root:/bmt-data/bii/projects/3D-histology/output_GRID_SEARCH/UTU186-xhiMyc-007/65/full_res_subsampled6 : 0.11364237309523033
stack_eval_4317120.log:INFO:root:/bmt-data/bii/projects/3D-histology/output_GRID_SEARCH/UTU186-xhiMyc-007/22/full_res_subsampled6 : 0.11368291542512947
stack_eval_4317159.log:INFO:root:/bmt-data/bii/projects/3D-histology/output_GRID_SEARCH/UTU186-xhiMyc-007/61/full_res_subsampled6 : 0.11402228581964677
stack_eval_4317168.log:INFO:root:/bmt-data/bii/projects/3D-histology/output_GRID_SEARCH/UTU186-xhiMyc-007/70/full_res_subsampled6 : 0.11509577456565974
stack_eval_4317118.log:INFO:root:/bmt-data/bii/projects/3D-histology/output_GRID_SEARCH/UTU186-xhiMyc-007/20/full_res_subsampled6 : 0.11519928594455095
stack_eval_4317119.log:INFO:root:/bmt-data/bii/projects/3D-histology/output_GRID_SEARCH/UTU186-xhiMyc-007/21/full_res_subsampled6 : 0.11548190046104441
stack_eval_4317158.log:INFO:root:/bmt-data/bii/projects/3D-histology/output_GRID_SEARCH/UTU186-xhiMyc-007/60/full_res_subsampled6 : 0.11571815170033632
stack_eval_4317162.log:INFO:root:/bmt-data/bii/projects/3D-histology/output_GRID_SEARCH/UTU186-xhiMyc-007/64/full_res_subsampled6 : 0.11581991440640017
stack_eval_4317128.log:INFO:root:/bmt-data/bii/projects/3D-histology/output_GRID_SEARCH/UTU186-xhiMyc-007/30/full_res_subsampled6 : 0.11636156977539958
stack_eval_4317167.log:INFO:root:/bmt-data/bii/projects/3D-histology/output_GRID_SEARCH/UTU186-xhiMyc-007/69/full_res_subsampled6 : 0.11664279561749753
stack_eval_4317166.log:INFO:root:/bmt-data/bii/projects/3D-histology/output_GRID_SEARCH/UTU186-xhiMyc-007/68/full_res_subsampled6 : 0.11705006301943666
stack_eval_4317152.log:INFO:root:/bmt-data/bii/projects/3D-histology/output_GRID_SEARCH/UTU186-xhiMyc-007/54/full_res_subsampled6 : 0.11723324854357678
stack_eval_4317107.log:INFO:root:/bmt-data/bii/projects/3D-histology/output_GRID_SEARCH/UTU186-xhiMyc-007/9/full_res_subsampled6 : 0.11757832588666799
stack_eval_4317122.log:INFO:root:/bmt-data/bii/projects/3D-histology/output_GRID_SEARCH/UTU186-xhiMyc-007/24/full_res_subsampled6 : 0.11771290589575975
stack_eval_4317116.log:INFO:root:/bmt-data/bii/projects/3D-histology/output_GRID_SEARCH/UTU186-xhiMyc-007/18/full_res_subsampled6 : 0.1179424885188539
stack_eval_4317125.log:INFO:root:/bmt-data/bii/projects/3D-histology/output_GRID_SEARCH/UTU186-xhiMyc-007/27/full_res_subsampled6 : 0.12000400176921998
stack_eval_4317127.log:INFO:root:/bmt-data/bii/projects/3D-histology/output_GRID_SEARCH/UTU186-xhiMyc-007/29/full_res_subsampled6 : 0.12135757257936831
stack_eval_4317123.log:INFO:root:/bmt-data/bii/projects/3D-histology/output_GRID_SEARCH/UTU186-xhiMyc-007/25/full_res_subsampled6 : 0.12165279681769035
stack_eval_4317131.log:INFO:root:/bmt-data/bii/projects/3D-histology/output_GRID_SEARCH/UTU186-xhiMyc-007/33/full_res_subsampled6 : 0.12167969312765997
stack_eval_4317133.log:INFO:root:/bmt-data/bii/projects/3D-histology/output_GRID_SEARCH/UTU186-xhiMyc-007/35/full_res_subsampled6 : 0.12313182969046776
stack_eval_4317129.log:INFO:root:/bmt-data/bii/projects/3D-histology/output_GRID_SEARCH/UTU186-xhiMyc-007/31/full_res_subsampled6 : 0.12323909600742727
stack_eval_4317132.log:INFO:root:/bmt-data/bii/projects/3D-histology/output_GRID_SEARCH/UTU186-xhiMyc-007/34/full_res_subsampled6 : 0.12498236943174064
stack_eval_4317126.log:INFO:root:/bmt-data/bii/projects/3D-histology/output_GRID_SEARCH/UTU186-xhiMyc-007/28/full_res_subsampled6 : 0.12579976187776976
