stack_eval_4317024.log:INFO:root:/bmt-data/bii/projects/3D-histology/output_GRID_SEARCH/UTU186-xhiMyc-003/70/full_res_subsampled6 : 0.09421756365808141
stack_eval_4316996.log:INFO:root:/bmt-data/bii/projects/3D-histology/output_GRID_SEARCH/UTU186-xhiMyc-003/42/full_res_subsampled6 : 0.09444157747336857
stack_eval_4317002.log:INFO:root:/bmt-data/bii/projects/3D-histology/output_GRID_SEARCH/UTU186-xhiMyc-003/48/full_res_subsampled6 : 0.09452374368258712
stack_eval_4316997.log:INFO:root:/bmt-data/bii/projects/3D-histology/output_GRID_SEARCH/UTU186-xhiMyc-003/43/full_res_subsampled6 : 0.0945278075038874
stack_eval_4317006.log:INFO:root:/bmt-data/bii/projects/3D-histology/output_GRID_SEARCH/UTU186-xhiMyc-003/52/full_res_subsampled6 : 0.09476613151384167
stack_eval_4316958.log:INFO:root:/bmt-data/bii/projects/3D-histology/output_GRID_SEARCH/UTU186-xhiMyc-003/4/full_res_subsampled6 : 0.09485266451782931
stack_eval_4316993.log:INFO:root:/bmt-data/bii/projects/3D-histology/output_GRID_SEARCH/UTU186-xhiMyc-003/39/full_res_subsampled6 : 0.09499729269200599
stack_eval_4316998.log:INFO:root:/bmt-data/bii/projects/3D-histology/output_GRID_SEARCH/UTU186-xhiMyc-003/44/full_res_subsampled6 : 0.09506636312042203
stack_eval_4317005.log:INFO:root:/bmt-data/bii/projects/3D-histology/output_GRID_SEARCH/UTU186-xhiMyc-003/51/full_res_subsampled6 : 0.09524475243676123
stack_eval_4317004.log:INFO:root:/bmt-data/bii/projects/3D-histology/output_GRID_SEARCH/UTU186-xhiMyc-003/50/full_res_subsampled6 : 0.0954386294949913
stack_eval_4316986.log:INFO:root:/bmt-data/bii/projects/3D-histology/output_GRID_SEARCH/UTU186-xhiMyc-003/32/full_res_subsampled6 : 0.09549942111428908
stack_eval_4317013.log:INFO:root:/bmt-data/bii/projects/3D-histology/output_GRID_SEARCH/UTU186-xhiMyc-003/59/full_res_subsampled6 : 0.09591324122810514
stack_eval_4316959.log:INFO:root:/bmt-data/bii/projects/3D-histology/output_GRID_SEARCH/UTU186-xhiMyc-003/5/full_res_subsampled6 : 0.09591602017984374
stack_eval_4317023.log:INFO:root:/bmt-data/bii/projects/3D-histology/output_GRID_SEARCH/UTU186-xhiMyc-003/69/full_res_subsampled6 : 0.09598128431206995
stack_eval_4317022.log:INFO:root:/bmt-data/bii/projects/3D-histology/output_GRID_SEARCH/UTU186-xhiMyc-003/68/full_res_subsampled6 : 0.09600277830069777
stack_eval_4317000.log:INFO:root:/bmt-data/bii/projects/3D-histology/output_GRID_SEARCH/UTU186-xhiMyc-003/46/full_res_subsampled6 : 0.09606286596319244
stack_eval_4316979.log:INFO:root:/bmt-data/bii/projects/3D-histology/output_GRID_SEARCH/UTU186-xhiMyc-003/25/full_res_subsampled6 : 0.09615532981581557
stack_eval_4316976.log:INFO:root:/bmt-data/bii/projects/3D-histology/output_GRID_SEARCH/UTU186-xhiMyc-003/22/full_res_subsampled6 : 0.09626279018862471
stack_eval_4316968.log:INFO:root:/bmt-data/bii/projects/3D-histology/output_GRID_SEARCH/UTU186-xhiMyc-003/14/full_res_subsampled6 : 0.09627662576521306
stack_eval_4316957.log:INFO:root:/bmt-data/bii/projects/3D-histology/output_GRID_SEARCH/UTU186-xhiMyc-003/3/full_res_subsampled6 : 0.09628110139009824
stack_eval_4317014.log:INFO:root:/bmt-data/bii/projects/3D-histology/output_GRID_SEARCH/UTU186-xhiMyc-003/60/full_res_subsampled6 : 0.09629538289481902
stack_eval_4316971.log:INFO:root:/bmt-data/bii/projects/3D-histology/output_GRID_SEARCH/UTU186-xhiMyc-003/17/full_res_subsampled6 : 0.09632130797251928
stack_eval_4316999.log:INFO:root:/bmt-data/bii/projects/3D-histology/output_GRID_SEARCH/UTU186-xhiMyc-003/45/full_res_subsampled6 : 0.09644447161596215
stack_eval_4317015.log:INFO:root:/bmt-data/bii/projects/3D-histology/output_GRID_SEARCH/UTU186-xhiMyc-003/61/full_res_subsampled6 : 0.09657791704500403
stack_eval_4316995.log:INFO:root:/bmt-data/bii/projects/3D-histology/output_GRID_SEARCH/UTU186-xhiMyc-003/41/full_res_subsampled6 : 0.09661579047472196
stack_eval_4317021.log:INFO:root:/bmt-data/bii/projects/3D-histology/output_GRID_SEARCH/UTU186-xhiMyc-003/67/full_res_subsampled6 : 0.09662110353120723
stack_eval_4317007.log:INFO:root:/bmt-data/bii/projects/3D-histology/output_GRID_SEARCH/UTU186-xhiMyc-003/53/full_res_subsampled6 : 0.09668459592724411
stack_eval_4316977.log:INFO:root:/bmt-data/bii/projects/3D-histology/output_GRID_SEARCH/UTU186-xhiMyc-003/23/full_res_subsampled6 : 0.09686234576842906
stack_eval_4316964.log:INFO:root:/bmt-data/bii/projects/3D-histology/output_GRID_SEARCH/UTU186-xhiMyc-003/10/full_res_subsampled6 : 0.0969145223909731
stack_eval_4316992.log:INFO:root:/bmt-data/bii/projects/3D-histology/output_GRID_SEARCH/UTU186-xhiMyc-003/38/full_res_subsampled6 : 0.09702488518819116
stack_eval_4316982.log:INFO:root:/bmt-data/bii/projects/3D-histology/output_GRID_SEARCH/UTU186-xhiMyc-003/28/full_res_subsampled6 : 0.09705873120469548
stack_eval_4317025.log:INFO:root:/bmt-data/bii/projects/3D-histology/output_GRID_SEARCH/UTU186-xhiMyc-003/71/full_res_subsampled6 : 0.09706646371712294
stack_eval_4316956.log:INFO:root:/bmt-data/bii/projects/3D-histology/output_GRID_SEARCH/UTU186-xhiMyc-003/2/full_res_subsampled6 : 0.09711648874132528
stack_eval_4316991.log:INFO:root:/bmt-data/bii/projects/3D-histology/output_GRID_SEARCH/UTU186-xhiMyc-003/37/full_res_subsampled6 : 0.09713314681884277
stack_eval_4317016.log:INFO:root:/bmt-data/bii/projects/3D-histology/output_GRID_SEARCH/UTU186-xhiMyc-003/62/full_res_subsampled6 : 0.09719305537293277
stack_eval_4316961.log:INFO:root:/bmt-data/bii/projects/3D-histology/output_GRID_SEARCH/UTU186-xhiMyc-003/7/full_res_subsampled6 : 0.09738296681091355
stack_eval_4316954.log:INFO:root:/bmt-data/bii/projects/3D-histology/output_GRID_SEARCH/UTU186-xhiMyc-003/0/full_res_subsampled6 : 0.0974585214016672
stack_eval_4316990.log:INFO:root:/bmt-data/bii/projects/3D-histology/output_GRID_SEARCH/UTU186-xhiMyc-003/36/full_res_subsampled6 : 0.09770006773504337
stack_eval_4317020.log:INFO:root:/bmt-data/bii/projects/3D-histology/output_GRID_SEARCH/UTU186-xhiMyc-003/66/full_res_subsampled6 : 0.09773152158143573
stack_eval_4316967.log:INFO:root:/bmt-data/bii/projects/3D-histology/output_GRID_SEARCH/UTU186-xhiMyc-003/13/full_res_subsampled6 : 0.097758439428059
stack_eval_4317003.log:INFO:root:/bmt-data/bii/projects/3D-histology/output_GRID_SEARCH/UTU186-xhiMyc-003/49/full_res_subsampled6 : 0.09826526105432921
stack_eval_4316965.log:INFO:root:/bmt-data/bii/projects/3D-histology/output_GRID_SEARCH/UTU186-xhiMyc-003/11/full_res_subsampled6 : 0.0984316641020976
stack_eval_4317001.log:INFO:root:/bmt-data/bii/projects/3D-histology/output_GRID_SEARCH/UTU186-xhiMyc-003/47/full_res_subsampled6 : 0.09865854667189305
stack_eval_4316973.log:INFO:root:/bmt-data/bii/projects/3D-histology/output_GRID_SEARCH/UTU186-xhiMyc-003/19/full_res_subsampled6 : 0.09871120528968681
stack_eval_4316970.log:INFO:root:/bmt-data/bii/projects/3D-histology/output_GRID_SEARCH/UTU186-xhiMyc-003/16/full_res_subsampled6 : 0.09872969382820224
stack_eval_4317012.log:INFO:root:/bmt-data/bii/projects/3D-histology/output_GRID_SEARCH/UTU186-xhiMyc-003/58/full_res_subsampled6 : 0.09886037298500283
stack_eval_4316985.log:INFO:root:/bmt-data/bii/projects/3D-histology/output_GRID_SEARCH/UTU186-xhiMyc-003/31/full_res_subsampled6 : 0.09902047018980868
stack_eval_4316966.log:INFO:root:/bmt-data/bii/projects/3D-histology/output_GRID_SEARCH/UTU186-xhiMyc-003/12/full_res_subsampled6 : 0.09960762381281112
stack_eval_4317011.log:INFO:root:/bmt-data/bii/projects/3D-histology/output_GRID_SEARCH/UTU186-xhiMyc-003/57/full_res_subsampled6 : 0.09970143024012246
stack_eval_4316963.log:INFO:root:/bmt-data/bii/projects/3D-histology/output_GRID_SEARCH/UTU186-xhiMyc-003/9/full_res_subsampled6 : 0.09970188654963016
stack_eval_4316975.log:INFO:root:/bmt-data/bii/projects/3D-histology/output_GRID_SEARCH/UTU186-xhiMyc-003/21/full_res_subsampled6 : 0.09998269691740369
stack_eval_4317009.log:INFO:root:/bmt-data/bii/projects/3D-histology/output_GRID_SEARCH/UTU186-xhiMyc-003/55/full_res_subsampled6 : 0.10001072577739092
stack_eval_4317010.log:INFO:root:/bmt-data/bii/projects/3D-histology/output_GRID_SEARCH/UTU186-xhiMyc-003/56/full_res_subsampled6 : 0.1000798860762422
stack_eval_4316955.log:INFO:root:/bmt-data/bii/projects/3D-histology/output_GRID_SEARCH/UTU186-xhiMyc-003/1/full_res_subsampled6 : 0.10036284118642284
stack_eval_4317018.log:INFO:root:/bmt-data/bii/projects/3D-histology/output_GRID_SEARCH/UTU186-xhiMyc-003/64/full_res_subsampled6 : 0.10102485714742061
stack_eval_4316969.log:INFO:root:/bmt-data/bii/projects/3D-histology/output_GRID_SEARCH/UTU186-xhiMyc-003/15/full_res_subsampled6 : 0.10119572822894277
stack_eval_4316980.log:INFO:root:/bmt-data/bii/projects/3D-histology/output_GRID_SEARCH/UTU186-xhiMyc-003/26/full_res_subsampled6 : 0.10119835092129616
stack_eval_4316988.log:INFO:root:/bmt-data/bii/projects/3D-histology/output_GRID_SEARCH/UTU186-xhiMyc-003/34/full_res_subsampled6 : 0.10171860968708697
stack_eval_4316974.log:INFO:root:/bmt-data/bii/projects/3D-histology/output_GRID_SEARCH/UTU186-xhiMyc-003/20/full_res_subsampled6 : 0.10183882083674338
stack_eval_4316981.log:INFO:root:/bmt-data/bii/projects/3D-histology/output_GRID_SEARCH/UTU186-xhiMyc-003/27/full_res_subsampled6 : 0.10188102678441928
stack_eval_4317017.log:INFO:root:/bmt-data/bii/projects/3D-histology/output_GRID_SEARCH/UTU186-xhiMyc-003/63/full_res_subsampled6 : 0.10259994058592617
stack_eval_4316972.log:INFO:root:/bmt-data/bii/projects/3D-histology/output_GRID_SEARCH/UTU186-xhiMyc-003/18/full_res_subsampled6 : 0.10301195892352923
stack_eval_4316989.log:INFO:root:/bmt-data/bii/projects/3D-histology/output_GRID_SEARCH/UTU186-xhiMyc-003/35/full_res_subsampled6 : 0.10355043043947354
stack_eval_4317019.log:INFO:root:/bmt-data/bii/projects/3D-histology/output_GRID_SEARCH/UTU186-xhiMyc-003/65/full_res_subsampled6 : 0.10364875438736208
stack_eval_4316994.log:INFO:root:/bmt-data/bii/projects/3D-histology/output_GRID_SEARCH/UTU186-xhiMyc-003/40/full_res_subsampled6 : 0.10399337878182126
stack_eval_4316983.log:INFO:root:/bmt-data/bii/projects/3D-histology/output_GRID_SEARCH/UTU186-xhiMyc-003/29/full_res_subsampled6 : 0.1041275044884389
stack_eval_4317008.log:INFO:root:/bmt-data/bii/projects/3D-histology/output_GRID_SEARCH/UTU186-xhiMyc-003/54/full_res_subsampled6 : 0.10429806830918767
stack_eval_4316962.log:INFO:root:/bmt-data/bii/projects/3D-histology/output_GRID_SEARCH/UTU186-xhiMyc-003/8/full_res_subsampled6 : 0.10441031992602774
stack_eval_4316978.log:INFO:root:/bmt-data/bii/projects/3D-histology/output_GRID_SEARCH/UTU186-xhiMyc-003/24/full_res_subsampled6 : 0.10442618262192596
stack_eval_4316984.log:INFO:root:/bmt-data/bii/projects/3D-histology/output_GRID_SEARCH/UTU186-xhiMyc-003/30/full_res_subsampled6 : 0.10589532175239107
stack_eval_4316960.log:INFO:root:/bmt-data/bii/projects/3D-histology/output_GRID_SEARCH/UTU186-xhiMyc-003/6/full_res_subsampled6 : 0.10723863343063274
stack_eval_4316987.log:INFO:root:/bmt-data/bii/projects/3D-histology/output_GRID_SEARCH/UTU186-xhiMyc-003/33/full_res_subsampled6 : 0.1073354408877066
