stack_eval_4317029.log:INFO:root:/bmt-data/bii/projects/3D-histology/output_GRID_SEARCH/UTU186-xhiMyc-006/3/full_res_subsampled6 : 0.0943772006260915
stack_eval_4317072.log:INFO:root:/bmt-data/bii/projects/3D-histology/output_GRID_SEARCH/UTU186-xhiMyc-006/46/full_res_subsampled6 : 0.09447265319456084
stack_eval_4317066.log:INFO:root:/bmt-data/bii/projects/3D-histology/output_GRID_SEARCH/UTU186-xhiMyc-006/40/full_res_subsampled6 : 0.09470390201165817
stack_eval_4317027.log:INFO:root:/bmt-data/bii/projects/3D-histology/output_GRID_SEARCH/UTU186-xhiMyc-006/1/full_res_subsampled6 : 0.09534237921307802
stack_eval_4317068.log:INFO:root:/bmt-data/bii/projects/3D-histology/output_GRID_SEARCH/UTU186-xhiMyc-006/42/full_res_subsampled6 : 0.09550097932982961
stack_eval_4317077.log:INFO:root:/bmt-data/bii/projects/3D-histology/output_GRID_SEARCH/UTU186-xhiMyc-006/51/full_res_subsampled6 : 0.09552591596588678
stack_eval_4317063.log:INFO:root:/bmt-data/bii/projects/3D-histology/output_GRID_SEARCH/UTU186-xhiMyc-006/37/full_res_subsampled6 : 0.09552835800632703
stack_eval_4317075.log:INFO:root:/bmt-data/bii/projects/3D-histology/output_GRID_SEARCH/UTU186-xhiMyc-006/49/full_res_subsampled6 : 0.09585355153446962
stack_eval_4317026.log:INFO:root:/bmt-data/bii/projects/3D-histology/output_GRID_SEARCH/UTU186-xhiMyc-006/0/full_res_subsampled6 : 0.09599040082815083
stack_eval_4317069.log:INFO:root:/bmt-data/bii/projects/3D-histology/output_GRID_SEARCH/UTU186-xhiMyc-006/43/full_res_subsampled6 : 0.0960406740816553
stack_eval_4317071.log:INFO:root:/bmt-data/bii/projects/3D-histology/output_GRID_SEARCH/UTU186-xhiMyc-006/45/full_res_subsampled6 : 0.09644478665537509
stack_eval_4317090.log:INFO:root:/bmt-data/bii/projects/3D-histology/output_GRID_SEARCH/UTU186-xhiMyc-006/64/full_res_subsampled6 : 0.0964689625743185
stack_eval_4317078.log:INFO:root:/bmt-data/bii/projects/3D-histology/output_GRID_SEARCH/UTU186-xhiMyc-006/52/full_res_subsampled6 : 0.09660520731918124
stack_eval_4317030.log:INFO:root:/bmt-data/bii/projects/3D-histology/output_GRID_SEARCH/UTU186-xhiMyc-006/4/full_res_subsampled6 : 0.09680895088789837
stack_eval_4317036.log:INFO:root:/bmt-data/bii/projects/3D-histology/output_GRID_SEARCH/UTU186-xhiMyc-006/10/full_res_subsampled6 : 0.09763714612687797
stack_eval_4317032.log:INFO:root:/bmt-data/bii/projects/3D-histology/output_GRID_SEARCH/UTU186-xhiMyc-006/6/full_res_subsampled6 : 0.09765537002709347
stack_eval_4317074.log:INFO:root:/bmt-data/bii/projects/3D-histology/output_GRID_SEARCH/UTU186-xhiMyc-006/48/full_res_subsampled6 : 0.0978341772711009
stack_eval_4317065.log:INFO:root:/bmt-data/bii/projects/3D-histology/output_GRID_SEARCH/UTU186-xhiMyc-006/39/full_res_subsampled6 : 0.09791038913622183
stack_eval_4317081.log:INFO:root:/bmt-data/bii/projects/3D-histology/output_GRID_SEARCH/UTU186-xhiMyc-006/55/full_res_subsampled6 : 0.09803757346550315
stack_eval_4317033.log:INFO:root:/bmt-data/bii/projects/3D-histology/output_GRID_SEARCH/UTU186-xhiMyc-006/7/full_res_subsampled6 : 0.0984258282524355
stack_eval_4317062.log:INFO:root:/bmt-data/bii/projects/3D-histology/output_GRID_SEARCH/UTU186-xhiMyc-006/36/full_res_subsampled6 : 0.0984827369891359
stack_eval_4317073.log:INFO:root:/bmt-data/bii/projects/3D-histology/output_GRID_SEARCH/UTU186-xhiMyc-006/47/full_res_subsampled6 : 0.09868624167351346
stack_eval_4317082.log:INFO:root:/bmt-data/bii/projects/3D-histology/output_GRID_SEARCH/UTU186-xhiMyc-006/56/full_res_subsampled6 : 0.0987162361253388
stack_eval_4317038.log:INFO:root:/bmt-data/bii/projects/3D-histology/output_GRID_SEARCH/UTU186-xhiMyc-006/12/full_res_subsampled6 : 0.0988877159780656
stack_eval_4317096.log:INFO:root:/bmt-data/bii/projects/3D-histology/output_GRID_SEARCH/UTU186-xhiMyc-006/70/full_res_subsampled6 : 0.09909946259928547
stack_eval_4317045.log:INFO:root:/bmt-data/bii/projects/3D-histology/output_GRID_SEARCH/UTU186-xhiMyc-006/19/full_res_subsampled6 : 0.09946061198590564
stack_eval_4317035.log:INFO:root:/bmt-data/bii/projects/3D-histology/output_GRID_SEARCH/UTU186-xhiMyc-006/9/full_res_subsampled6 : 0.1001767255928644
stack_eval_4317039.log:INFO:root:/bmt-data/bii/projects/3D-histology/output_GRID_SEARCH/UTU186-xhiMyc-006/13/full_res_subsampled6 : 0.10070167080080447
stack_eval_4317064.log:INFO:root:/bmt-data/bii/projects/3D-histology/output_GRID_SEARCH/UTU186-xhiMyc-006/38/full_res_subsampled6 : 0.1008073250207606
stack_eval_4317046.log:INFO:root:/bmt-data/bii/projects/3D-histology/output_GRID_SEARCH/UTU186-xhiMyc-006/20/full_res_subsampled6 : 0.10086450636430833
stack_eval_4317058.log:INFO:root:/bmt-data/bii/projects/3D-histology/output_GRID_SEARCH/UTU186-xhiMyc-006/32/full_res_subsampled6 : 0.10123681940141462
stack_eval_4317050.log:INFO:root:/bmt-data/bii/projects/3D-histology/output_GRID_SEARCH/UTU186-xhiMyc-006/24/full_res_subsampled6 : 0.10132498308444028
stack_eval_4317079.log:INFO:root:/bmt-data/bii/projects/3D-histology/output_GRID_SEARCH/UTU186-xhiMyc-006/53/full_res_subsampled6 : 0.10166964918709928
stack_eval_4317087.log:INFO:root:/bmt-data/bii/projects/3D-histology/output_GRID_SEARCH/UTU186-xhiMyc-006/61/full_res_subsampled6 : 0.10174160417915915
stack_eval_4317093.log:INFO:root:/bmt-data/bii/projects/3D-histology/output_GRID_SEARCH/UTU186-xhiMyc-006/67/full_res_subsampled6 : 0.10196577864103494
stack_eval_4317091.log:INFO:root:/bmt-data/bii/projects/3D-histology/output_GRID_SEARCH/UTU186-xhiMyc-006/65/full_res_subsampled6 : 0.10199923598892695
stack_eval_4317083.log:INFO:root:/bmt-data/bii/projects/3D-histology/output_GRID_SEARCH/UTU186-xhiMyc-006/57/full_res_subsampled6 : 0.10200552159922761
stack_eval_4317086.log:INFO:root:/bmt-data/bii/projects/3D-histology/output_GRID_SEARCH/UTU186-xhiMyc-006/60/full_res_subsampled6 : 0.10258222619890714
stack_eval_4317049.log:INFO:root:/bmt-data/bii/projects/3D-histology/output_GRID_SEARCH/UTU186-xhiMyc-006/23/full_res_subsampled6 : 0.10261167315808205
stack_eval_4317054.log:INFO:root:/bmt-data/bii/projects/3D-histology/output_GRID_SEARCH/UTU186-xhiMyc-006/28/full_res_subsampled6 : 0.10272443724284633
stack_eval_4317048.log:INFO:root:/bmt-data/bii/projects/3D-histology/output_GRID_SEARCH/UTU186-xhiMyc-006/22/full_res_subsampled6 : 0.10277572932737743
stack_eval_4317088.log:INFO:root:/bmt-data/bii/projects/3D-histology/output_GRID_SEARCH/UTU186-xhiMyc-006/62/full_res_subsampled6 : 0.10278193890475368
stack_eval_4317097.log:INFO:root:/bmt-data/bii/projects/3D-histology/output_GRID_SEARCH/UTU186-xhiMyc-006/71/full_res_subsampled6 : 0.1028000513158097
stack_eval_4317070.log:INFO:root:/bmt-data/bii/projects/3D-histology/output_GRID_SEARCH/UTU186-xhiMyc-006/44/full_res_subsampled6 : 0.10301252753896484
stack_eval_4317044.log:INFO:root:/bmt-data/bii/projects/3D-histology/output_GRID_SEARCH/UTU186-xhiMyc-006/18/full_res_subsampled6 : 0.1030150836950486
stack_eval_4317034.log:INFO:root:/bmt-data/bii/projects/3D-histology/output_GRID_SEARCH/UTU186-xhiMyc-006/8/full_res_subsampled6 : 0.10302435089568111
stack_eval_4317041.log:INFO:root:/bmt-data/bii/projects/3D-histology/output_GRID_SEARCH/UTU186-xhiMyc-006/15/full_res_subsampled6 : 0.10306475936410964
stack_eval_4317084.log:INFO:root:/bmt-data/bii/projects/3D-histology/output_GRID_SEARCH/UTU186-xhiMyc-006/58/full_res_subsampled6 : 0.10329519948869437
stack_eval_4317031.log:INFO:root:/bmt-data/bii/projects/3D-histology/output_GRID_SEARCH/UTU186-xhiMyc-006/5/full_res_subsampled6 : 0.10341942691365814
stack_eval_4317055.log:INFO:root:/bmt-data/bii/projects/3D-histology/output_GRID_SEARCH/UTU186-xhiMyc-006/29/full_res_subsampled6 : 0.1036062642026815
stack_eval_4317047.log:INFO:root:/bmt-data/bii/projects/3D-histology/output_GRID_SEARCH/UTU186-xhiMyc-006/21/full_res_subsampled6 : 0.1041591603464091
stack_eval_4317085.log:INFO:root:/bmt-data/bii/projects/3D-histology/output_GRID_SEARCH/UTU186-xhiMyc-006/59/full_res_subsampled6 : 0.1044680922569953
stack_eval_4317067.log:INFO:root:/bmt-data/bii/projects/3D-histology/output_GRID_SEARCH/UTU186-xhiMyc-006/41/full_res_subsampled6 : 0.10470896491795928
stack_eval_4317061.log:INFO:root:/bmt-data/bii/projects/3D-histology/output_GRID_SEARCH/UTU186-xhiMyc-006/35/full_res_subsampled6 : 0.10478133939636496
stack_eval_4317042.log:INFO:root:/bmt-data/bii/projects/3D-histology/output_GRID_SEARCH/UTU186-xhiMyc-006/16/full_res_subsampled6 : 0.10489587112832736
stack_eval_4317051.log:INFO:root:/bmt-data/bii/projects/3D-histology/output_GRID_SEARCH/UTU186-xhiMyc-006/25/full_res_subsampled6 : 0.10499363998931893
stack_eval_4317037.log:INFO:root:/bmt-data/bii/projects/3D-histology/output_GRID_SEARCH/UTU186-xhiMyc-006/11/full_res_subsampled6 : 0.10514862842711245
stack_eval_4317028.log:INFO:root:/bmt-data/bii/projects/3D-histology/output_GRID_SEARCH/UTU186-xhiMyc-006/2/full_res_subsampled6 : 0.10525088787889583
stack_eval_4317094.log:INFO:root:/bmt-data/bii/projects/3D-histology/output_GRID_SEARCH/UTU186-xhiMyc-006/68/full_res_subsampled6 : 0.10578683823694796
stack_eval_4317080.log:INFO:root:/bmt-data/bii/projects/3D-histology/output_GRID_SEARCH/UTU186-xhiMyc-006/54/full_res_subsampled6 : 0.10588581122753654
stack_eval_4317060.log:INFO:root:/bmt-data/bii/projects/3D-histology/output_GRID_SEARCH/UTU186-xhiMyc-006/34/full_res_subsampled6 : 0.10647247689399464
stack_eval_4317076.log:INFO:root:/bmt-data/bii/projects/3D-histology/output_GRID_SEARCH/UTU186-xhiMyc-006/50/full_res_subsampled6 : 0.10691349246873741
stack_eval_4317040.log:INFO:root:/bmt-data/bii/projects/3D-histology/output_GRID_SEARCH/UTU186-xhiMyc-006/14/full_res_subsampled6 : 0.1069267685137136
stack_eval_4317092.log:INFO:root:/bmt-data/bii/projects/3D-histology/output_GRID_SEARCH/UTU186-xhiMyc-006/66/full_res_subsampled6 : 0.1072296476567951
stack_eval_4317057.log:INFO:root:/bmt-data/bii/projects/3D-histology/output_GRID_SEARCH/UTU186-xhiMyc-006/31/full_res_subsampled6 : 0.10724938975158331
stack_eval_4317053.log:INFO:root:/bmt-data/bii/projects/3D-histology/output_GRID_SEARCH/UTU186-xhiMyc-006/27/full_res_subsampled6 : 0.10755584542591884
stack_eval_4317095.log:INFO:root:/bmt-data/bii/projects/3D-histology/output_GRID_SEARCH/UTU186-xhiMyc-006/69/full_res_subsampled6 : 0.10776669072094062
stack_eval_4317043.log:INFO:root:/bmt-data/bii/projects/3D-histology/output_GRID_SEARCH/UTU186-xhiMyc-006/17/full_res_subsampled6 : 0.10817679317386325
stack_eval_4317089.log:INFO:root:/bmt-data/bii/projects/3D-histology/output_GRID_SEARCH/UTU186-xhiMyc-006/63/full_res_subsampled6 : 0.10859184771338884
stack_eval_4317056.log:INFO:root:/bmt-data/bii/projects/3D-histology/output_GRID_SEARCH/UTU186-xhiMyc-006/30/full_res_subsampled6 : 0.10945797318981307
stack_eval_4317059.log:INFO:root:/bmt-data/bii/projects/3D-histology/output_GRID_SEARCH/UTU186-xhiMyc-006/33/full_res_subsampled6 : 0.11030648237001439
stack_eval_4317052.log:INFO:root:/bmt-data/bii/projects/3D-histology/output_GRID_SEARCH/UTU186-xhiMyc-006/26/full_res_subsampled6 : 0.1104330143880774
