stack_eval_4317713.log:INFO:root:/bmt-data/bii/projects/3D-histology/output_GRID_SEARCH/UTU186-xhiMyc-356/39/full_res_subsampled6 : 0.06562502238569756
stack_eval_4317674.log:INFO:root:/bmt-data/bii/projects/3D-histology/output_GRID_SEARCH/UTU186-xhiMyc-356/0/full_res_subsampled6 : 0.0663289429260693
stack_eval_4317711.log:INFO:root:/bmt-data/bii/projects/3D-histology/output_GRID_SEARCH/UTU186-xhiMyc-356/37/full_res_subsampled6 : 0.06683984197321689
stack_eval_4317722.log:INFO:root:/bmt-data/bii/projects/3D-histology/output_GRID_SEARCH/UTU186-xhiMyc-356/48/full_res_subsampled6 : 0.06705012743114755
stack_eval_4317729.log:INFO:root:/bmt-data/bii/projects/3D-histology/output_GRID_SEARCH/UTU186-xhiMyc-356/55/full_res_subsampled6 : 0.06740088254693907
stack_eval_4317678.log:INFO:root:/bmt-data/bii/projects/3D-histology/output_GRID_SEARCH/UTU186-xhiMyc-356/4/full_res_subsampled6 : 0.06747103500454318
stack_eval_4317720.log:INFO:root:/bmt-data/bii/projects/3D-histology/output_GRID_SEARCH/UTU186-xhiMyc-356/46/full_res_subsampled6 : 0.06752315077881163
stack_eval_4317718.log:INFO:root:/bmt-data/bii/projects/3D-histology/output_GRID_SEARCH/UTU186-xhiMyc-356/44/full_res_subsampled6 : 0.0678668696529024
stack_eval_4317710.log:INFO:root:/bmt-data/bii/projects/3D-histology/output_GRID_SEARCH/UTU186-xhiMyc-356/36/full_res_subsampled6 : 0.06791100599594342
stack_eval_4317719.log:INFO:root:/bmt-data/bii/projects/3D-histology/output_GRID_SEARCH/UTU186-xhiMyc-356/45/full_res_subsampled6 : 0.06796489213938606
stack_eval_4317730.log:INFO:root:/bmt-data/bii/projects/3D-histology/output_GRID_SEARCH/UTU186-xhiMyc-356/56/full_res_subsampled6 : 0.06800139061434238
stack_eval_4317725.log:INFO:root:/bmt-data/bii/projects/3D-histology/output_GRID_SEARCH/UTU186-xhiMyc-356/51/full_res_subsampled6 : 0.06812665001153323
stack_eval_4317686.log:INFO:root:/bmt-data/bii/projects/3D-histology/output_GRID_SEARCH/UTU186-xhiMyc-356/12/full_res_subsampled6 : 0.06818214853589785
stack_eval_4317721.log:INFO:root:/bmt-data/bii/projects/3D-histology/output_GRID_SEARCH/UTU186-xhiMyc-356/47/full_res_subsampled6 : 0.06820470449512951
stack_eval_4317736.log:INFO:root:/bmt-data/bii/projects/3D-histology/output_GRID_SEARCH/UTU186-xhiMyc-356/62/full_res_subsampled6 : 0.06820698006899754
stack_eval_4317677.log:INFO:root:/bmt-data/bii/projects/3D-histology/output_GRID_SEARCH/UTU186-xhiMyc-356/3/full_res_subsampled6 : 0.06820805581511313
stack_eval_4317676.log:INFO:root:/bmt-data/bii/projects/3D-histology/output_GRID_SEARCH/UTU186-xhiMyc-356/2/full_res_subsampled6 : 0.06823284653298022
stack_eval_4317745.log:INFO:root:/bmt-data/bii/projects/3D-histology/output_GRID_SEARCH/UTU186-xhiMyc-356/71/full_res_subsampled6 : 0.06832164987082767
stack_eval_4317685.log:INFO:root:/bmt-data/bii/projects/3D-histology/output_GRID_SEARCH/UTU186-xhiMyc-356/11/full_res_subsampled6 : 0.06854903322361541
stack_eval_4317723.log:INFO:root:/bmt-data/bii/projects/3D-histology/output_GRID_SEARCH/UTU186-xhiMyc-356/49/full_res_subsampled6 : 0.06861256717192032
stack_eval_4317684.log:INFO:root:/bmt-data/bii/projects/3D-histology/output_GRID_SEARCH/UTU186-xhiMyc-356/10/full_res_subsampled6 : 0.06865586631688579
stack_eval_4317712.log:INFO:root:/bmt-data/bii/projects/3D-histology/output_GRID_SEARCH/UTU186-xhiMyc-356/38/full_res_subsampled6 : 0.06866330468152933
stack_eval_4317717.log:INFO:root:/bmt-data/bii/projects/3D-histology/output_GRID_SEARCH/UTU186-xhiMyc-356/43/full_res_subsampled6 : 0.06870859238746081
stack_eval_4317737.log:INFO:root:/bmt-data/bii/projects/3D-histology/output_GRID_SEARCH/UTU186-xhiMyc-356/63/full_res_subsampled6 : 0.06880083882473766
stack_eval_4317682.log:INFO:root:/bmt-data/bii/projects/3D-histology/output_GRID_SEARCH/UTU186-xhiMyc-356/8/full_res_subsampled6 : 0.06881086896798344
stack_eval_4317727.log:INFO:root:/bmt-data/bii/projects/3D-histology/output_GRID_SEARCH/UTU186-xhiMyc-356/53/full_res_subsampled6 : 0.068907116025836
stack_eval_4317687.log:INFO:root:/bmt-data/bii/projects/3D-histology/output_GRID_SEARCH/UTU186-xhiMyc-356/13/full_res_subsampled6 : 0.06892476359072093
stack_eval_4317738.log:INFO:root:/bmt-data/bii/projects/3D-histology/output_GRID_SEARCH/UTU186-xhiMyc-356/64/full_res_subsampled6 : 0.06892898298512187
stack_eval_4317697.log:INFO:root:/bmt-data/bii/projects/3D-histology/output_GRID_SEARCH/UTU186-xhiMyc-356/23/full_res_subsampled6 : 0.06895675615667568
stack_eval_4317675.log:INFO:root:/bmt-data/bii/projects/3D-histology/output_GRID_SEARCH/UTU186-xhiMyc-356/1/full_res_subsampled6 : 0.06900133369959276
stack_eval_4317726.log:INFO:root:/bmt-data/bii/projects/3D-histology/output_GRID_SEARCH/UTU186-xhiMyc-356/52/full_res_subsampled6 : 0.06913508708713605
stack_eval_4317716.log:INFO:root:/bmt-data/bii/projects/3D-histology/output_GRID_SEARCH/UTU186-xhiMyc-356/42/full_res_subsampled6 : 0.06914372426874908
stack_eval_4317739.log:INFO:root:/bmt-data/bii/projects/3D-histology/output_GRID_SEARCH/UTU186-xhiMyc-356/65/full_res_subsampled6 : 0.06923154999250714
stack_eval_4317681.log:INFO:root:/bmt-data/bii/projects/3D-histology/output_GRID_SEARCH/UTU186-xhiMyc-356/7/full_res_subsampled6 : 0.06944231910816329
stack_eval_4317728.log:INFO:root:/bmt-data/bii/projects/3D-histology/output_GRID_SEARCH/UTU186-xhiMyc-356/54/full_res_subsampled6 : 0.06951574548445508
stack_eval_4317724.log:INFO:root:/bmt-data/bii/projects/3D-histology/output_GRID_SEARCH/UTU186-xhiMyc-356/50/full_res_subsampled6 : 0.06970939053472727
stack_eval_4317679.log:INFO:root:/bmt-data/bii/projects/3D-histology/output_GRID_SEARCH/UTU186-xhiMyc-356/5/full_res_subsampled6 : 0.06983998069827578
stack_eval_4317699.log:INFO:root:/bmt-data/bii/projects/3D-histology/output_GRID_SEARCH/UTU186-xhiMyc-356/25/full_res_subsampled6 : 0.06985542181390467
stack_eval_4317694.log:INFO:root:/bmt-data/bii/projects/3D-histology/output_GRID_SEARCH/UTU186-xhiMyc-356/20/full_res_subsampled6 : 0.0699357139956122
stack_eval_4317731.log:INFO:root:/bmt-data/bii/projects/3D-histology/output_GRID_SEARCH/UTU186-xhiMyc-356/57/full_res_subsampled6 : 0.06994722943122549
stack_eval_4317690.log:INFO:root:/bmt-data/bii/projects/3D-histology/output_GRID_SEARCH/UTU186-xhiMyc-356/16/full_res_subsampled6 : 0.07001227188114421
stack_eval_4317689.log:INFO:root:/bmt-data/bii/projects/3D-histology/output_GRID_SEARCH/UTU186-xhiMyc-356/15/full_res_subsampled6 : 0.07017005230786193
stack_eval_4317683.log:INFO:root:/bmt-data/bii/projects/3D-histology/output_GRID_SEARCH/UTU186-xhiMyc-356/9/full_res_subsampled6 : 0.0702039601998093
stack_eval_4317696.log:INFO:root:/bmt-data/bii/projects/3D-histology/output_GRID_SEARCH/UTU186-xhiMyc-356/22/full_res_subsampled6 : 0.07020705425924009
stack_eval_4317680.log:INFO:root:/bmt-data/bii/projects/3D-histology/output_GRID_SEARCH/UTU186-xhiMyc-356/6/full_res_subsampled6 : 0.07037719290546428
stack_eval_4317700.log:INFO:root:/bmt-data/bii/projects/3D-histology/output_GRID_SEARCH/UTU186-xhiMyc-356/26/full_res_subsampled6 : 0.0706780294650708
stack_eval_4317714.log:INFO:root:/bmt-data/bii/projects/3D-histology/output_GRID_SEARCH/UTU186-xhiMyc-356/40/full_res_subsampled6 : 0.07068501039974338
stack_eval_4317715.log:INFO:root:/bmt-data/bii/projects/3D-histology/output_GRID_SEARCH/UTU186-xhiMyc-356/41/full_res_subsampled6 : 0.07072092535113365
stack_eval_4317688.log:INFO:root:/bmt-data/bii/projects/3D-histology/output_GRID_SEARCH/UTU186-xhiMyc-356/14/full_res_subsampled6 : 0.07081674999853281
stack_eval_4317706.log:INFO:root:/bmt-data/bii/projects/3D-histology/output_GRID_SEARCH/UTU186-xhiMyc-356/32/full_res_subsampled6 : 0.07095258694133497
stack_eval_4317693.log:INFO:root:/bmt-data/bii/projects/3D-histology/output_GRID_SEARCH/UTU186-xhiMyc-356/19/full_res_subsampled6 : 0.07129545239905591
stack_eval_4317709.log:INFO:root:/bmt-data/bii/projects/3D-histology/output_GRID_SEARCH/UTU186-xhiMyc-356/35/full_res_subsampled6 : 0.07131743946352445
stack_eval_4317703.log:INFO:root:/bmt-data/bii/projects/3D-histology/output_GRID_SEARCH/UTU186-xhiMyc-356/29/full_res_subsampled6 : 0.07146647199674784
stack_eval_4317691.log:INFO:root:/bmt-data/bii/projects/3D-histology/output_GRID_SEARCH/UTU186-xhiMyc-356/17/full_res_subsampled6 : 0.07153728256696285
stack_eval_4317741.log:INFO:root:/bmt-data/bii/projects/3D-histology/output_GRID_SEARCH/UTU186-xhiMyc-356/67/full_res_subsampled6 : 0.07173992489570014
stack_eval_4317733.log:INFO:root:/bmt-data/bii/projects/3D-histology/output_GRID_SEARCH/UTU186-xhiMyc-356/59/full_res_subsampled6 : 0.07182283782148409
stack_eval_4317698.log:INFO:root:/bmt-data/bii/projects/3D-histology/output_GRID_SEARCH/UTU186-xhiMyc-356/24/full_res_subsampled6 : 0.0720040615333224
stack_eval_4317742.log:INFO:root:/bmt-data/bii/projects/3D-histology/output_GRID_SEARCH/UTU186-xhiMyc-356/68/full_res_subsampled6 : 0.07201199487397585
stack_eval_4317744.log:INFO:root:/bmt-data/bii/projects/3D-histology/output_GRID_SEARCH/UTU186-xhiMyc-356/70/full_res_subsampled6 : 0.0722253189492915
stack_eval_4317735.log:INFO:root:/bmt-data/bii/projects/3D-histology/output_GRID_SEARCH/UTU186-xhiMyc-356/61/full_res_subsampled6 : 0.0730126398588864
stack_eval_4317740.log:INFO:root:/bmt-data/bii/projects/3D-histology/output_GRID_SEARCH/UTU186-xhiMyc-356/66/full_res_subsampled6 : 0.07314782113773716
stack_eval_4317734.log:INFO:root:/bmt-data/bii/projects/3D-histology/output_GRID_SEARCH/UTU186-xhiMyc-356/60/full_res_subsampled6 : 0.0735853763443371
stack_eval_4317732.log:INFO:root:/bmt-data/bii/projects/3D-histology/output_GRID_SEARCH/UTU186-xhiMyc-356/58/full_res_subsampled6 : 0.07359392370371656
stack_eval_4317692.log:INFO:root:/bmt-data/bii/projects/3D-histology/output_GRID_SEARCH/UTU186-xhiMyc-356/18/full_res_subsampled6 : 0.07442043952089465
stack_eval_4317702.log:INFO:root:/bmt-data/bii/projects/3D-histology/output_GRID_SEARCH/UTU186-xhiMyc-356/28/full_res_subsampled6 : 0.07516769197246728
stack_eval_4317705.log:INFO:root:/bmt-data/bii/projects/3D-histology/output_GRID_SEARCH/UTU186-xhiMyc-356/31/full_res_subsampled6 : 0.0752044329571745
stack_eval_4317743.log:INFO:root:/bmt-data/bii/projects/3D-histology/output_GRID_SEARCH/UTU186-xhiMyc-356/69/full_res_subsampled6 : 0.07521098190826947
stack_eval_4317708.log:INFO:root:/bmt-data/bii/projects/3D-histology/output_GRID_SEARCH/UTU186-xhiMyc-356/34/full_res_subsampled6 : 0.07598321902003542
stack_eval_4317695.log:INFO:root:/bmt-data/bii/projects/3D-histology/output_GRID_SEARCH/UTU186-xhiMyc-356/21/full_res_subsampled6 : 0.07605403466643106
stack_eval_4317707.log:INFO:root:/bmt-data/bii/projects/3D-histology/output_GRID_SEARCH/UTU186-xhiMyc-356/33/full_res_subsampled6 : 0.07661840124756386
stack_eval_4317701.log:INFO:root:/bmt-data/bii/projects/3D-histology/output_GRID_SEARCH/UTU186-xhiMyc-356/27/full_res_subsampled6 : 0.07666760422865752
stack_eval_4317704.log:INFO:root:/bmt-data/bii/projects/3D-histology/output_GRID_SEARCH/UTU186-xhiMyc-356/30/full_res_subsampled6 : 0.08073226027506915
