stack_eval_4317434.log:INFO:root:/bmt-data/bii/projects/3D-histology/output_GRID_SEARCH/UTU186-xhiMyc-199/48/full_res_subsampled6 : 0.07360196812477225
stack_eval_4317443.log:INFO:root:/bmt-data/bii/projects/3D-histology/output_GRID_SEARCH/UTU186-xhiMyc-199/57/full_res_subsampled6 : 0.0736851046724783
stack_eval_4317452.log:INFO:root:/bmt-data/bii/projects/3D-histology/output_GRID_SEARCH/UTU186-xhiMyc-199/66/full_res_subsampled6 : 0.07421818990794782
stack_eval_4317446.log:INFO:root:/bmt-data/bii/projects/3D-histology/output_GRID_SEARCH/UTU186-xhiMyc-199/60/full_res_subsampled6 : 0.07448893704479331
stack_eval_4317429.log:INFO:root:/bmt-data/bii/projects/3D-histology/output_GRID_SEARCH/UTU186-xhiMyc-199/43/full_res_subsampled6 : 0.07487312106703255
stack_eval_4317386.log:INFO:root:/bmt-data/bii/projects/3D-histology/output_GRID_SEARCH/UTU186-xhiMyc-199/0/full_res_subsampled6 : 0.0750299386166207
stack_eval_4317398.log:INFO:root:/bmt-data/bii/projects/3D-histology/output_GRID_SEARCH/UTU186-xhiMyc-199/12/full_res_subsampled6 : 0.07504601784213294
stack_eval_4317401.log:INFO:root:/bmt-data/bii/projects/3D-histology/output_GRID_SEARCH/UTU186-xhiMyc-199/15/full_res_subsampled6 : 0.0750938098646614
stack_eval_4317395.log:INFO:root:/bmt-data/bii/projects/3D-histology/output_GRID_SEARCH/UTU186-xhiMyc-199/9/full_res_subsampled6 : 0.07519257190192395
stack_eval_4317437.log:INFO:root:/bmt-data/bii/projects/3D-histology/output_GRID_SEARCH/UTU186-xhiMyc-199/51/full_res_subsampled6 : 0.0752243714667533
stack_eval_4317444.log:INFO:root:/bmt-data/bii/projects/3D-histology/output_GRID_SEARCH/UTU186-xhiMyc-199/58/full_res_subsampled6 : 0.07526340478293353
stack_eval_4317389.log:INFO:root:/bmt-data/bii/projects/3D-histology/output_GRID_SEARCH/UTU186-xhiMyc-199/3/full_res_subsampled6 : 0.07557922194037918
stack_eval_4317447.log:INFO:root:/bmt-data/bii/projects/3D-histology/output_GRID_SEARCH/UTU186-xhiMyc-199/61/full_res_subsampled6 : 0.0757264774464426
stack_eval_4317453.log:INFO:root:/bmt-data/bii/projects/3D-histology/output_GRID_SEARCH/UTU186-xhiMyc-199/67/full_res_subsampled6 : 0.07582637649064738
stack_eval_4317426.log:INFO:root:/bmt-data/bii/projects/3D-histology/output_GRID_SEARCH/UTU186-xhiMyc-199/40/full_res_subsampled6 : 0.07587537141599224
stack_eval_4317402.log:INFO:root:/bmt-data/bii/projects/3D-histology/output_GRID_SEARCH/UTU186-xhiMyc-199/16/full_res_subsampled6 : 0.07607751543866757
stack_eval_4317438.log:INFO:root:/bmt-data/bii/projects/3D-histology/output_GRID_SEARCH/UTU186-xhiMyc-199/52/full_res_subsampled6 : 0.07613550257703942
stack_eval_4317396.log:INFO:root:/bmt-data/bii/projects/3D-histology/output_GRID_SEARCH/UTU186-xhiMyc-199/10/full_res_subsampled6 : 0.07615881032189832
stack_eval_4317392.log:INFO:root:/bmt-data/bii/projects/3D-histology/output_GRID_SEARCH/UTU186-xhiMyc-199/6/full_res_subsampled6 : 0.07617999213247807
stack_eval_4317455.log:INFO:root:/bmt-data/bii/projects/3D-histology/output_GRID_SEARCH/UTU186-xhiMyc-199/69/full_res_subsampled6 : 0.0763362681038802
stack_eval_4317431.log:INFO:root:/bmt-data/bii/projects/3D-histology/output_GRID_SEARCH/UTU186-xhiMyc-199/45/full_res_subsampled6 : 0.0764921358032714
stack_eval_4317422.log:INFO:root:/bmt-data/bii/projects/3D-histology/output_GRID_SEARCH/UTU186-xhiMyc-199/36/full_res_subsampled6 : 0.07656702443051745
stack_eval_4317449.log:INFO:root:/bmt-data/bii/projects/3D-histology/output_GRID_SEARCH/UTU186-xhiMyc-199/63/full_res_subsampled6 : 0.07662806604387094
stack_eval_4317440.log:INFO:root:/bmt-data/bii/projects/3D-histology/output_GRID_SEARCH/UTU186-xhiMyc-199/54/full_res_subsampled6 : 0.07665570527423717
stack_eval_4317432.log:INFO:root:/bmt-data/bii/projects/3D-histology/output_GRID_SEARCH/UTU186-xhiMyc-199/46/full_res_subsampled6 : 0.07666230328217755
stack_eval_4317423.log:INFO:root:/bmt-data/bii/projects/3D-histology/output_GRID_SEARCH/UTU186-xhiMyc-199/37/full_res_subsampled6 : 0.07681964788840362
stack_eval_4317450.log:INFO:root:/bmt-data/bii/projects/3D-histology/output_GRID_SEARCH/UTU186-xhiMyc-199/64/full_res_subsampled6 : 0.07695767409177967
stack_eval_4317390.log:INFO:root:/bmt-data/bii/projects/3D-histology/output_GRID_SEARCH/UTU186-xhiMyc-199/4/full_res_subsampled6 : 0.07707678755601499
stack_eval_4317407.log:INFO:root:/bmt-data/bii/projects/3D-histology/output_GRID_SEARCH/UTU186-xhiMyc-199/21/full_res_subsampled6 : 0.07708299312007641
stack_eval_4317441.log:INFO:root:/bmt-data/bii/projects/3D-histology/output_GRID_SEARCH/UTU186-xhiMyc-199/55/full_res_subsampled6 : 0.07711481359356533
stack_eval_4317387.log:INFO:root:/bmt-data/bii/projects/3D-histology/output_GRID_SEARCH/UTU186-xhiMyc-199/1/full_res_subsampled6 : 0.07714736394028629
stack_eval_4317393.log:INFO:root:/bmt-data/bii/projects/3D-histology/output_GRID_SEARCH/UTU186-xhiMyc-199/7/full_res_subsampled6 : 0.07715733951643128
stack_eval_4317408.log:INFO:root:/bmt-data/bii/projects/3D-histology/output_GRID_SEARCH/UTU186-xhiMyc-199/22/full_res_subsampled6 : 0.07721735333326597
stack_eval_4317416.log:INFO:root:/bmt-data/bii/projects/3D-histology/output_GRID_SEARCH/UTU186-xhiMyc-199/30/full_res_subsampled6 : 0.07725598513970298
stack_eval_4317439.log:INFO:root:/bmt-data/bii/projects/3D-histology/output_GRID_SEARCH/UTU186-xhiMyc-199/53/full_res_subsampled6 : 0.07769867518679506
stack_eval_4317430.log:INFO:root:/bmt-data/bii/projects/3D-histology/output_GRID_SEARCH/UTU186-xhiMyc-199/44/full_res_subsampled6 : 0.07771781387479078
stack_eval_4317414.log:INFO:root:/bmt-data/bii/projects/3D-histology/output_GRID_SEARCH/UTU186-xhiMyc-199/28/full_res_subsampled6 : 0.07774916024176977
stack_eval_4317420.log:INFO:root:/bmt-data/bii/projects/3D-histology/output_GRID_SEARCH/UTU186-xhiMyc-199/34/full_res_subsampled6 : 0.07777155278493811
stack_eval_4317413.log:INFO:root:/bmt-data/bii/projects/3D-histology/output_GRID_SEARCH/UTU186-xhiMyc-199/27/full_res_subsampled6 : 0.07781467690713545
stack_eval_4317405.log:INFO:root:/bmt-data/bii/projects/3D-histology/output_GRID_SEARCH/UTU186-xhiMyc-199/19/full_res_subsampled6 : 0.07787818930962775
stack_eval_4317436.log:INFO:root:/bmt-data/bii/projects/3D-histology/output_GRID_SEARCH/UTU186-xhiMyc-199/50/full_res_subsampled6 : 0.07803352093374043
stack_eval_4317400.log:INFO:root:/bmt-data/bii/projects/3D-histology/output_GRID_SEARCH/UTU186-xhiMyc-199/14/full_res_subsampled6 : 0.07804156639193467
stack_eval_4317391.log:INFO:root:/bmt-data/bii/projects/3D-histology/output_GRID_SEARCH/UTU186-xhiMyc-199/5/full_res_subsampled6 : 0.07827679903469105
stack_eval_4317445.log:INFO:root:/bmt-data/bii/projects/3D-histology/output_GRID_SEARCH/UTU186-xhiMyc-199/59/full_res_subsampled6 : 0.078381807073493
stack_eval_4317409.log:INFO:root:/bmt-data/bii/projects/3D-histology/output_GRID_SEARCH/UTU186-xhiMyc-199/23/full_res_subsampled6 : 0.07844693736441136
stack_eval_4317427.log:INFO:root:/bmt-data/bii/projects/3D-histology/output_GRID_SEARCH/UTU186-xhiMyc-199/41/full_res_subsampled6 : 0.07854953797423664
stack_eval_4317448.log:INFO:root:/bmt-data/bii/projects/3D-histology/output_GRID_SEARCH/UTU186-xhiMyc-199/62/full_res_subsampled6 : 0.07856912523868399
stack_eval_4317394.log:INFO:root:/bmt-data/bii/projects/3D-histology/output_GRID_SEARCH/UTU186-xhiMyc-199/8/full_res_subsampled6 : 0.07857945001721768
stack_eval_4317456.log:INFO:root:/bmt-data/bii/projects/3D-histology/output_GRID_SEARCH/UTU186-xhiMyc-199/70/full_res_subsampled6 : 0.07858481707206572
stack_eval_4317412.log:INFO:root:/bmt-data/bii/projects/3D-histology/output_GRID_SEARCH/UTU186-xhiMyc-199/26/full_res_subsampled6 : 0.07859477705464171
stack_eval_4317454.log:INFO:root:/bmt-data/bii/projects/3D-histology/output_GRID_SEARCH/UTU186-xhiMyc-199/68/full_res_subsampled6 : 0.07862125608540754
stack_eval_4317411.log:INFO:root:/bmt-data/bii/projects/3D-histology/output_GRID_SEARCH/UTU186-xhiMyc-199/25/full_res_subsampled6 : 0.0789436777580267
stack_eval_4317421.log:INFO:root:/bmt-data/bii/projects/3D-histology/output_GRID_SEARCH/UTU186-xhiMyc-199/35/full_res_subsampled6 : 0.07921131461357629
stack_eval_4317403.log:INFO:root:/bmt-data/bii/projects/3D-histology/output_GRID_SEARCH/UTU186-xhiMyc-199/17/full_res_subsampled6 : 0.0792432899771282
stack_eval_4317419.log:INFO:root:/bmt-data/bii/projects/3D-histology/output_GRID_SEARCH/UTU186-xhiMyc-199/33/full_res_subsampled6 : 0.07925110915224111
stack_eval_4317457.log:INFO:root:/bmt-data/bii/projects/3D-histology/output_GRID_SEARCH/UTU186-xhiMyc-199/71/full_res_subsampled6 : 0.07928051525491729
stack_eval_4317415.log:INFO:root:/bmt-data/bii/projects/3D-histology/output_GRID_SEARCH/UTU186-xhiMyc-199/29/full_res_subsampled6 : 0.07941719766707814
stack_eval_4317433.log:INFO:root:/bmt-data/bii/projects/3D-histology/output_GRID_SEARCH/UTU186-xhiMyc-199/47/full_res_subsampled6 : 0.07977114795680425
stack_eval_4317388.log:INFO:root:/bmt-data/bii/projects/3D-histology/output_GRID_SEARCH/UTU186-xhiMyc-199/2/full_res_subsampled6 : 0.07980801609262984
stack_eval_4317397.log:INFO:root:/bmt-data/bii/projects/3D-histology/output_GRID_SEARCH/UTU186-xhiMyc-199/11/full_res_subsampled6 : 0.07983507150334784
stack_eval_4317424.log:INFO:root:/bmt-data/bii/projects/3D-histology/output_GRID_SEARCH/UTU186-xhiMyc-199/38/full_res_subsampled6 : 0.07987276910087723
stack_eval_4317418.log:INFO:root:/bmt-data/bii/projects/3D-histology/output_GRID_SEARCH/UTU186-xhiMyc-199/32/full_res_subsampled6 : 0.07993959412548064
stack_eval_4317406.log:INFO:root:/bmt-data/bii/projects/3D-histology/output_GRID_SEARCH/UTU186-xhiMyc-199/20/full_res_subsampled6 : 0.07998313560183021
stack_eval_4317442.log:INFO:root:/bmt-data/bii/projects/3D-histology/output_GRID_SEARCH/UTU186-xhiMyc-199/56/full_res_subsampled6 : 0.08227395456754086
stack_eval_4317451.log:INFO:root:/bmt-data/bii/projects/3D-histology/output_GRID_SEARCH/UTU186-xhiMyc-199/65/full_res_subsampled6 : 0.08277772274540425
stack_eval_4317399.log:INFO:root:/bmt-data/bii/projects/3D-histology/output_GRID_SEARCH/UTU186-xhiMyc-199/13/full_res_subsampled6 : inf
stack_eval_4317404.log:INFO:root:/bmt-data/bii/projects/3D-histology/output_GRID_SEARCH/UTU186-xhiMyc-199/18/full_res_subsampled6 : inf
stack_eval_4317410.log:INFO:root:/bmt-data/bii/projects/3D-histology/output_GRID_SEARCH/UTU186-xhiMyc-199/24/full_res_subsampled6 : inf
stack_eval_4317417.log:INFO:root:/bmt-data/bii/projects/3D-histology/output_GRID_SEARCH/UTU186-xhiMyc-199/31/full_res_subsampled6 : inf
stack_eval_4317425.log:INFO:root:/bmt-data/bii/projects/3D-histology/output_GRID_SEARCH/UTU186-xhiMyc-199/39/full_res_subsampled6 : inf
stack_eval_4317428.log:INFO:root:/bmt-data/bii/projects/3D-histology/output_GRID_SEARCH/UTU186-xhiMyc-199/42/full_res_subsampled6 : inf
stack_eval_4317435.log:INFO:root:/bmt-data/bii/projects/3D-histology/output_GRID_SEARCH/UTU186-xhiMyc-199/49/full_res_subsampled6 : inf
