stack_eval_4206726.log:INFO:root:/bmt-data/bii/projects/3D-histology/output_GRID_SEARCH/UTU186-xhiMyc-006/3/full_res_subsampled6 : 0.0943772006260915
stack_eval_4206788.log:INFO:root:/bmt-data/bii/projects/3D-histology/output_GRID_SEARCH/UTU186-xhiMyc-006/65/full_res_subsampled6 : 0.10199923598892695
stack_eval_4206749.log:INFO:root:/bmt-data/bii/projects/3D-histology/output_GRID_SEARCH/UTU186-xhiMyc-006/26/full_res_subsampled6 : 0.11043301438807739
