stack_eval_4206603.log:INFO:root:/bmt-data/bii/projects/3D-histology/output_GRID_SEARCH/PTENX036-14/51/full_res_subsampled6 : 0.10180537961535754
stack_eval_4206563.log:INFO:root:/bmt-data/bii/projects/3D-histology/output_GRID_SEARCH/PTENX036-14/14/full_res_subsampled6 : 0.10620529482276823
stack_eval_4206575.log:INFO:root:/bmt-data/bii/projects/3D-histology/output_GRID_SEARCH/PTENX036-14/26/full_res_subsampled6 : 0.11421072650438102
