stack_eval_4206723.log:INFO:root:/bmt-data/bii/projects/3D-histology/output_GRID_SEARCH/UTU186-xhiMyc-006/0/full_res_subsampled6 : 0.09599040082815083
stack_eval_4206724.log:INFO:root:/bmt-data/bii/projects/3D-histology/output_GRID_SEARCH/UTU186-xhiMyc-006/1/full_res_subsampled6 : 0.09534237921307802
stack_eval_4206725.log:INFO:root:/bmt-data/bii/projects/3D-histology/output_GRID_SEARCH/UTU186-xhiMyc-006/2/full_res_subsampled6 : 0.10525088787889583
stack_eval_4206726.log:INFO:root:/bmt-data/bii/projects/3D-histology/output_GRID_SEARCH/UTU186-xhiMyc-006/3/full_res_subsampled6 : 0.0943772006260915
stack_eval_4206727.log:INFO:root:/bmt-data/bii/projects/3D-histology/output_GRID_SEARCH/UTU186-xhiMyc-006/4/full_res_subsampled6 : 0.09680895088789837
stack_eval_4206728.log:INFO:root:/bmt-data/bii/projects/3D-histology/output_GRID_SEARCH/UTU186-xhiMyc-006/5/full_res_subsampled6 : 0.10341942691365814
stack_eval_4206729.log:INFO:root:/bmt-data/bii/projects/3D-histology/output_GRID_SEARCH/UTU186-xhiMyc-006/6/full_res_subsampled6 : 0.09765537002709347
stack_eval_4206730.log:INFO:root:/bmt-data/bii/projects/3D-histology/output_GRID_SEARCH/UTU186-xhiMyc-006/7/full_res_subsampled6 : 0.0984258282524355
stack_eval_4206731.log:INFO:root:/bmt-data/bii/projects/3D-histology/output_GRID_SEARCH/UTU186-xhiMyc-006/8/full_res_subsampled6 : 0.10302435089568111
stack_eval_4206732.log:INFO:root:/bmt-data/bii/projects/3D-histology/output_GRID_SEARCH/UTU186-xhiMyc-006/9/full_res_subsampled6 : 0.1001767255928644
stack_eval_4206733.log:INFO:root:/bmt-data/bii/projects/3D-histology/output_GRID_SEARCH/UTU186-xhiMyc-006/10/full_res_subsampled6 : 0.09763714612687797
stack_eval_4206734.log:INFO:root:/bmt-data/bii/projects/3D-histology/output_GRID_SEARCH/UTU186-xhiMyc-006/11/full_res_subsampled6 : 0.10514862842711244
stack_eval_4206735.log:INFO:root:/bmt-data/bii/projects/3D-histology/output_GRID_SEARCH/UTU186-xhiMyc-006/12/full_res_subsampled6 : 0.0988877159780656
stack_eval_4206736.log:INFO:root:/bmt-data/bii/projects/3D-histology/output_GRID_SEARCH/UTU186-xhiMyc-006/13/full_res_subsampled6 : 0.10070167080080447
stack_eval_4206737.log:INFO:root:/bmt-data/bii/projects/3D-histology/output_GRID_SEARCH/UTU186-xhiMyc-006/14/full_res_subsampled6 : 0.1069267685137136
stack_eval_4206738.log:INFO:root:/bmt-data/bii/projects/3D-histology/output_GRID_SEARCH/UTU186-xhiMyc-006/15/full_res_subsampled6 : 0.10306475936410964
stack_eval_4206739.log:INFO:root:/bmt-data/bii/projects/3D-histology/output_GRID_SEARCH/UTU186-xhiMyc-006/16/full_res_subsampled6 : 0.10489587112832736
stack_eval_4206740.log:INFO:root:/bmt-data/bii/projects/3D-histology/output_GRID_SEARCH/UTU186-xhiMyc-006/17/full_res_subsampled6 : 0.10817679317386325
stack_eval_4206741.log:INFO:root:/bmt-data/bii/projects/3D-histology/output_GRID_SEARCH/UTU186-xhiMyc-006/18/full_res_subsampled6 : 0.1030150836950486
stack_eval_4206742.log:INFO:root:/bmt-data/bii/projects/3D-histology/output_GRID_SEARCH/UTU186-xhiMyc-006/19/full_res_subsampled6 : 0.09946061198590563
stack_eval_4206743.log:INFO:root:/bmt-data/bii/projects/3D-histology/output_GRID_SEARCH/UTU186-xhiMyc-006/20/full_res_subsampled6 : 0.10086450636430833
stack_eval_4206744.log:INFO:root:/bmt-data/bii/projects/3D-histology/output_GRID_SEARCH/UTU186-xhiMyc-006/21/full_res_subsampled6 : 0.10415916034640912
stack_eval_4206745.log:INFO:root:/bmt-data/bii/projects/3D-histology/output_GRID_SEARCH/UTU186-xhiMyc-006/22/full_res_subsampled6 : 0.10277572932737743
stack_eval_4206746.log:INFO:root:/bmt-data/bii/projects/3D-histology/output_GRID_SEARCH/UTU186-xhiMyc-006/23/full_res_subsampled6 : 0.10261167315808203
stack_eval_4206747.log:INFO:root:/bmt-data/bii/projects/3D-histology/output_GRID_SEARCH/UTU186-xhiMyc-006/24/full_res_subsampled6 : 0.1013249830844403
stack_eval_4206748.log:INFO:root:/bmt-data/bii/projects/3D-histology/output_GRID_SEARCH/UTU186-xhiMyc-006/25/full_res_subsampled6 : 0.10499363998931893
stack_eval_4206749.log:INFO:root:/bmt-data/bii/projects/3D-histology/output_GRID_SEARCH/UTU186-xhiMyc-006/26/full_res_subsampled6 : 0.11043301438807739
stack_eval_4206750.log:INFO:root:/bmt-data/bii/projects/3D-histology/output_GRID_SEARCH/UTU186-xhiMyc-006/27/full_res_subsampled6 : 0.10755584542591884
stack_eval_4206751.log:INFO:root:/bmt-data/bii/projects/3D-histology/output_GRID_SEARCH/UTU186-xhiMyc-006/28/full_res_subsampled6 : 0.10272443724284633
stack_eval_4206752.log:INFO:root:/bmt-data/bii/projects/3D-histology/output_GRID_SEARCH/UTU186-xhiMyc-006/29/full_res_subsampled6 : 0.1036062642026815
stack_eval_4206753.log:INFO:root:/bmt-data/bii/projects/3D-histology/output_GRID_SEARCH/UTU186-xhiMyc-006/30/full_res_subsampled6 : 0.10945797318981307
stack_eval_4206754.log:INFO:root:/bmt-data/bii/projects/3D-histology/output_GRID_SEARCH/UTU186-xhiMyc-006/31/full_res_subsampled6 : 0.10724938975158331
stack_eval_4206755.log:INFO:root:/bmt-data/bii/projects/3D-histology/output_GRID_SEARCH/UTU186-xhiMyc-006/32/full_res_subsampled6 : 0.10123681940141462
stack_eval_4206756.log:INFO:root:/bmt-data/bii/projects/3D-histology/output_GRID_SEARCH/UTU186-xhiMyc-006/33/full_res_subsampled6 : 0.11030648237001439
stack_eval_4206757.log:INFO:root:/bmt-data/bii/projects/3D-histology/output_GRID_SEARCH/UTU186-xhiMyc-006/34/full_res_subsampled6 : 0.10647247689399464
stack_eval_4206758.log:INFO:root:/bmt-data/bii/projects/3D-histology/output_GRID_SEARCH/UTU186-xhiMyc-006/35/full_res_subsampled6 : 0.10478133939636496
stack_eval_4206759.log:INFO:root:/bmt-data/bii/projects/3D-histology/output_GRID_SEARCH/UTU186-xhiMyc-006/36/full_res_subsampled6 : 0.0984827369891359
stack_eval_4206760.log:INFO:root:/bmt-data/bii/projects/3D-histology/output_GRID_SEARCH/UTU186-xhiMyc-006/37/full_res_subsampled6 : 0.09552835800632706
stack_eval_4206761.log:INFO:root:/bmt-data/bii/projects/3D-histology/output_GRID_SEARCH/UTU186-xhiMyc-006/38/full_res_subsampled6 : 0.1008073250207606
stack_eval_4206762.log:INFO:root:/bmt-data/bii/projects/3D-histology/output_GRID_SEARCH/UTU186-xhiMyc-006/39/full_res_subsampled6 : 0.09791038913622183
stack_eval_4206763.log:INFO:root:/bmt-data/bii/projects/3D-histology/output_GRID_SEARCH/UTU186-xhiMyc-006/40/full_res_subsampled6 : 0.09470390201165817
stack_eval_4206764.log:INFO:root:/bmt-data/bii/projects/3D-histology/output_GRID_SEARCH/UTU186-xhiMyc-006/41/full_res_subsampled6 : 0.10470896491795928
stack_eval_4206765.log:INFO:root:/bmt-data/bii/projects/3D-histology/output_GRID_SEARCH/UTU186-xhiMyc-006/42/full_res_subsampled6 : 0.09550097932982961
stack_eval_4206766.log:INFO:root:/bmt-data/bii/projects/3D-histology/output_GRID_SEARCH/UTU186-xhiMyc-006/43/full_res_subsampled6 : 0.0960406740816553
stack_eval_4206767.log:INFO:root:/bmt-data/bii/projects/3D-histology/output_GRID_SEARCH/UTU186-xhiMyc-006/44/full_res_subsampled6 : 0.10301252753896484
stack_eval_4206768.log:INFO:root:/bmt-data/bii/projects/3D-histology/output_GRID_SEARCH/UTU186-xhiMyc-006/45/full_res_subsampled6 : 0.09644478665537509
stack_eval_4206769.log:INFO:root:/bmt-data/bii/projects/3D-histology/output_GRID_SEARCH/UTU186-xhiMyc-006/46/full_res_subsampled6 : 0.09447265319456084
stack_eval_4206770.log:INFO:root:/bmt-data/bii/projects/3D-histology/output_GRID_SEARCH/UTU186-xhiMyc-006/47/full_res_subsampled6 : 0.09868624167351346
stack_eval_4206771.log:INFO:root:/bmt-data/bii/projects/3D-histology/output_GRID_SEARCH/UTU186-xhiMyc-006/48/full_res_subsampled6 : 0.0978341772711009
stack_eval_4206772.log:INFO:root:/bmt-data/bii/projects/3D-histology/output_GRID_SEARCH/UTU186-xhiMyc-006/49/full_res_subsampled6 : 0.09585355153446962
stack_eval_4206773.log:INFO:root:/bmt-data/bii/projects/3D-histology/output_GRID_SEARCH/UTU186-xhiMyc-006/50/full_res_subsampled6 : 0.10691349246873741
stack_eval_4206774.log:INFO:root:/bmt-data/bii/projects/3D-histology/output_GRID_SEARCH/UTU186-xhiMyc-006/51/full_res_subsampled6 : 0.09552591596588678
stack_eval_4206775.log:INFO:root:/bmt-data/bii/projects/3D-histology/output_GRID_SEARCH/UTU186-xhiMyc-006/52/full_res_subsampled6 : 0.09660520731918124
stack_eval_4206776.log:INFO:root:/bmt-data/bii/projects/3D-histology/output_GRID_SEARCH/UTU186-xhiMyc-006/53/full_res_subsampled6 : 0.1016696491870993
stack_eval_4206777.log:INFO:root:/bmt-data/bii/projects/3D-histology/output_GRID_SEARCH/UTU186-xhiMyc-006/54/full_res_subsampled6 : 0.10588581122753654
stack_eval_4206778.log:INFO:root:/bmt-data/bii/projects/3D-histology/output_GRID_SEARCH/UTU186-xhiMyc-006/55/full_res_subsampled6 : 0.09803757346550315
stack_eval_4206779.log:INFO:root:/bmt-data/bii/projects/3D-histology/output_GRID_SEARCH/UTU186-xhiMyc-006/56/full_res_subsampled6 : 0.0987162361253388
stack_eval_4206780.log:INFO:root:/bmt-data/bii/projects/3D-histology/output_GRID_SEARCH/UTU186-xhiMyc-006/57/full_res_subsampled6 : 0.10200552159922759
stack_eval_4206781.log:INFO:root:/bmt-data/bii/projects/3D-histology/output_GRID_SEARCH/UTU186-xhiMyc-006/58/full_res_subsampled6 : 0.10329519948869437
stack_eval_4206782.log:INFO:root:/bmt-data/bii/projects/3D-histology/output_GRID_SEARCH/UTU186-xhiMyc-006/59/full_res_subsampled6 : 0.10446809225699531
stack_eval_4206783.log:INFO:root:/bmt-data/bii/projects/3D-histology/output_GRID_SEARCH/UTU186-xhiMyc-006/60/full_res_subsampled6 : 0.10258222619890717
stack_eval_4206784.log:INFO:root:/bmt-data/bii/projects/3D-histology/output_GRID_SEARCH/UTU186-xhiMyc-006/61/full_res_subsampled6 : 0.10174160417915916
stack_eval_4206785.log:INFO:root:/bmt-data/bii/projects/3D-histology/output_GRID_SEARCH/UTU186-xhiMyc-006/62/full_res_subsampled6 : 0.10278193890475368
stack_eval_4206786.log:INFO:root:/bmt-data/bii/projects/3D-histology/output_GRID_SEARCH/UTU186-xhiMyc-006/63/full_res_subsampled6 : 0.10859184771338883
stack_eval_4206787.log:INFO:root:/bmt-data/bii/projects/3D-histology/output_GRID_SEARCH/UTU186-xhiMyc-006/64/full_res_subsampled6 : 0.09646896257431853
stack_eval_4206788.log:INFO:root:/bmt-data/bii/projects/3D-histology/output_GRID_SEARCH/UTU186-xhiMyc-006/65/full_res_subsampled6 : 0.10199923598892695
stack_eval_4206789.log:INFO:root:/bmt-data/bii/projects/3D-histology/output_GRID_SEARCH/UTU186-xhiMyc-006/66/full_res_subsampled6 : 0.1072296476567951
stack_eval_4206790.log:INFO:root:/bmt-data/bii/projects/3D-histology/output_GRID_SEARCH/UTU186-xhiMyc-006/67/full_res_subsampled6 : 0.10196577864103494
stack_eval_4206791.log:INFO:root:/bmt-data/bii/projects/3D-histology/output_GRID_SEARCH/UTU186-xhiMyc-006/68/full_res_subsampled6 : 0.10578683823694796
stack_eval_4206792.log:INFO:root:/bmt-data/bii/projects/3D-histology/output_GRID_SEARCH/UTU186-xhiMyc-006/69/full_res_subsampled6 : 0.10776669072094062
stack_eval_4206793.log:INFO:root:/bmt-data/bii/projects/3D-histology/output_GRID_SEARCH/UTU186-xhiMyc-006/70/full_res_subsampled6 : 0.09909946259928547
stack_eval_4206794.log:INFO:root:/bmt-data/bii/projects/3D-histology/output_GRID_SEARCH/UTU186-xhiMyc-006/71/full_res_subsampled6 : 0.1028000513158097
