stack_eval_4316593.log:INFO:root:/bmt-data/bii/projects/3D-histology/output_GRID_SEARCH/PTENX036-34/0/full_res_subsampled6 : 0.08282177913690857
stack_eval_4316594.log:INFO:root:/bmt-data/bii/projects/3D-histology/output_GRID_SEARCH/PTENX036-34/1/full_res_subsampled6 : 0.0840832555854632
stack_eval_4316595.log:INFO:root:/bmt-data/bii/projects/3D-histology/output_GRID_SEARCH/PTENX036-34/2/full_res_subsampled6 : 0.08241271276346343
stack_eval_4316596.log:INFO:root:/bmt-data/bii/projects/3D-histology/output_GRID_SEARCH/PTENX036-34/3/full_res_subsampled6 : 0.0831723751642907
stack_eval_4316597.log:INFO:root:/bmt-data/bii/projects/3D-histology/output_GRID_SEARCH/PTENX036-34/4/full_res_subsampled6 : 0.08556888133625866
stack_eval_4316598.log:INFO:root:/bmt-data/bii/projects/3D-histology/output_GRID_SEARCH/PTENX036-34/5/full_res_subsampled6 : 0.08532142314645637
stack_eval_4316599.log:INFO:root:/bmt-data/bii/projects/3D-histology/output_GRID_SEARCH/PTENX036-34/6/full_res_subsampled6 : 0.08416277563954432
stack_eval_4316600.log:INFO:root:/bmt-data/bii/projects/3D-histology/output_GRID_SEARCH/PTENX036-34/7/full_res_subsampled6 : 0.08401528837891481
stack_eval_4316601.log:INFO:root:/bmt-data/bii/projects/3D-histology/output_GRID_SEARCH/PTENX036-34/8/full_res_subsampled6 : 0.08543665732824264
stack_eval_4316602.log:INFO:root:/bmt-data/bii/projects/3D-histology/output_GRID_SEARCH/PTENX036-34/9/full_res_subsampled6 : 0.08340224273417796
stack_eval_4316603.log:INFO:root:/bmt-data/bii/projects/3D-histology/output_GRID_SEARCH/PTENX036-34/10/full_res_subsampled6 : 0.0844928968374461
stack_eval_4316604.log:INFO:root:/bmt-data/bii/projects/3D-histology/output_GRID_SEARCH/PTENX036-34/11/full_res_subsampled6 : 0.08367160102381929
stack_eval_4316605.log:INFO:root:/bmt-data/bii/projects/3D-histology/output_GRID_SEARCH/PTENX036-34/12/full_res_subsampled6 : 0.08309336002496125
stack_eval_4316606.log:INFO:root:/bmt-data/bii/projects/3D-histology/output_GRID_SEARCH/PTENX036-34/13/full_res_subsampled6 : 0.0851730886583509
stack_eval_4316607.log:INFO:root:/bmt-data/bii/projects/3D-histology/output_GRID_SEARCH/PTENX036-34/14/full_res_subsampled6 : 0.08442033354796967
stack_eval_4316608.log:INFO:root:/bmt-data/bii/projects/3D-histology/output_GRID_SEARCH/PTENX036-34/15/full_res_subsampled6 : 0.08471666304160219
stack_eval_4316609.log:INFO:root:/bmt-data/bii/projects/3D-histology/output_GRID_SEARCH/PTENX036-34/16/full_res_subsampled6 : 0.0843013354178631
stack_eval_4316610.log:INFO:root:/bmt-data/bii/projects/3D-histology/output_GRID_SEARCH/PTENX036-34/17/full_res_subsampled6 : 0.08588768284167542
stack_eval_4316611.log:INFO:root:/bmt-data/bii/projects/3D-histology/output_GRID_SEARCH/PTENX036-34/18/full_res_subsampled6 : 0.08278067636229931
stack_eval_4316612.log:INFO:root:/bmt-data/bii/projects/3D-histology/output_GRID_SEARCH/PTENX036-34/19/full_res_subsampled6 : 0.08125435599834735
stack_eval_4316614.log:INFO:root:/bmt-data/bii/projects/3D-histology/output_GRID_SEARCH/PTENX036-34/20/full_res_subsampled6 : 0.08309723703406895
stack_eval_4316615.log:INFO:root:/bmt-data/bii/projects/3D-histology/output_GRID_SEARCH/PTENX036-34/21/full_res_subsampled6 : 0.08405393072254591
stack_eval_4316616.log:INFO:root:/bmt-data/bii/projects/3D-histology/output_GRID_SEARCH/PTENX036-34/22/full_res_subsampled6 : 0.08510305953322017
stack_eval_4316617.log:INFO:root:/bmt-data/bii/projects/3D-histology/output_GRID_SEARCH/PTENX036-34/23/full_res_subsampled6 : 0.0846846961850731
stack_eval_4316618.log:INFO:root:/bmt-data/bii/projects/3D-histology/output_GRID_SEARCH/PTENX036-34/24/full_res_subsampled6 : 0.08426731084142064
stack_eval_4316619.log:INFO:root:/bmt-data/bii/projects/3D-histology/output_GRID_SEARCH/PTENX036-34/25/full_res_subsampled6 : 0.08593382690296329
stack_eval_4316620.log:INFO:root:/bmt-data/bii/projects/3D-histology/output_GRID_SEARCH/PTENX036-34/26/full_res_subsampled6 : 0.08581346644557383
stack_eval_4316621.log:INFO:root:/bmt-data/bii/projects/3D-histology/output_GRID_SEARCH/PTENX036-34/27/full_res_subsampled6 : 0.08643352521226863
stack_eval_4316622.log:INFO:root:/bmt-data/bii/projects/3D-histology/output_GRID_SEARCH/PTENX036-34/28/full_res_subsampled6 : 0.0816733221014575
stack_eval_4316623.log:INFO:root:/bmt-data/bii/projects/3D-histology/output_GRID_SEARCH/PTENX036-34/29/full_res_subsampled6 : 0.08614861855105475
stack_eval_4316624.log:INFO:root:/bmt-data/bii/projects/3D-histology/output_GRID_SEARCH/PTENX036-34/30/full_res_subsampled6 : 0.08939075518189192
stack_eval_4316625.log:INFO:root:/bmt-data/bii/projects/3D-histology/output_GRID_SEARCH/PTENX036-34/31/full_res_subsampled6 : 0.08659950210759305
stack_eval_4316626.log:INFO:root:/bmt-data/bii/projects/3D-histology/output_GRID_SEARCH/PTENX036-34/32/full_res_subsampled6 : 0.08463901505276095
stack_eval_4316627.log:INFO:root:/bmt-data/bii/projects/3D-histology/output_GRID_SEARCH/PTENX036-34/33/full_res_subsampled6 : 0.08858293292622497
stack_eval_4316628.log:INFO:root:/bmt-data/bii/projects/3D-histology/output_GRID_SEARCH/PTENX036-34/34/full_res_subsampled6 : 0.08693779205647455
stack_eval_4316629.log:INFO:root:/bmt-data/bii/projects/3D-histology/output_GRID_SEARCH/PTENX036-34/35/full_res_subsampled6 : 0.08589211664765323
stack_eval_4316630.log:INFO:root:/bmt-data/bii/projects/3D-histology/output_GRID_SEARCH/PTENX036-34/36/full_res_subsampled6 : 0.08512506135587031
stack_eval_4316631.log:INFO:root:/bmt-data/bii/projects/3D-histology/output_GRID_SEARCH/PTENX036-34/37/full_res_subsampled6 : 0.08492599122858216
stack_eval_4316632.log:INFO:root:/bmt-data/bii/projects/3D-histology/output_GRID_SEARCH/PTENX036-34/38/full_res_subsampled6 : 0.08515399327581676
stack_eval_4316633.log:INFO:root:/bmt-data/bii/projects/3D-histology/output_GRID_SEARCH/PTENX036-34/39/full_res_subsampled6 : 0.08533559905195628
stack_eval_4316634.log:INFO:root:/bmt-data/bii/projects/3D-histology/output_GRID_SEARCH/PTENX036-34/40/full_res_subsampled6 : 0.08530555558927541
stack_eval_4316635.log:INFO:root:/bmt-data/bii/projects/3D-histology/output_GRID_SEARCH/PTENX036-34/41/full_res_subsampled6 : 0.0846611383053257
stack_eval_4316636.log:INFO:root:/bmt-data/bii/projects/3D-histology/output_GRID_SEARCH/PTENX036-34/42/full_res_subsampled6 : 0.08397726247372037
stack_eval_4316637.log:INFO:root:/bmt-data/bii/projects/3D-histology/output_GRID_SEARCH/PTENX036-34/43/full_res_subsampled6 : 0.08409623167012115
stack_eval_4316638.log:INFO:root:/bmt-data/bii/projects/3D-histology/output_GRID_SEARCH/PTENX036-34/44/full_res_subsampled6 : 0.08381494807337161
stack_eval_4316639.log:INFO:root:/bmt-data/bii/projects/3D-histology/output_GRID_SEARCH/PTENX036-34/45/full_res_subsampled6 : 0.08506321798082113
stack_eval_4316640.log:INFO:root:/bmt-data/bii/projects/3D-histology/output_GRID_SEARCH/PTENX036-34/46/full_res_subsampled6 : 0.08552637508194728
stack_eval_4316641.log:INFO:root:/bmt-data/bii/projects/3D-histology/output_GRID_SEARCH/PTENX036-34/47/full_res_subsampled6 : 0.08545468375344466
stack_eval_4316642.log:INFO:root:/bmt-data/bii/projects/3D-histology/output_GRID_SEARCH/PTENX036-34/48/full_res_subsampled6 : 0.0861266424686643
stack_eval_4316643.log:INFO:root:/bmt-data/bii/projects/3D-histology/output_GRID_SEARCH/PTENX036-34/49/full_res_subsampled6 : 0.08615407786416701
stack_eval_4316644.log:INFO:root:/bmt-data/bii/projects/3D-histology/output_GRID_SEARCH/PTENX036-34/50/full_res_subsampled6 : 0.08447002216014261
stack_eval_4316645.log:INFO:root:/bmt-data/bii/projects/3D-histology/output_GRID_SEARCH/PTENX036-34/51/full_res_subsampled6 : 0.08381521808980914
stack_eval_4316646.log:INFO:root:/bmt-data/bii/projects/3D-histology/output_GRID_SEARCH/PTENX036-34/52/full_res_subsampled6 : 0.0838326741776077
stack_eval_4316647.log:INFO:root:/bmt-data/bii/projects/3D-histology/output_GRID_SEARCH/PTENX036-34/53/full_res_subsampled6 : 0.08406403028840825
stack_eval_4316648.log:INFO:root:/bmt-data/bii/projects/3D-histology/output_GRID_SEARCH/PTENX036-34/54/full_res_subsampled6 : 0.0846010489241156
stack_eval_4316649.log:INFO:root:/bmt-data/bii/projects/3D-histology/output_GRID_SEARCH/PTENX036-34/55/full_res_subsampled6 : 0.08535869490303807
stack_eval_4316650.log:INFO:root:/bmt-data/bii/projects/3D-histology/output_GRID_SEARCH/PTENX036-34/56/full_res_subsampled6 : 0.08528264829771053
stack_eval_4316651.log:INFO:root:/bmt-data/bii/projects/3D-histology/output_GRID_SEARCH/PTENX036-34/57/full_res_subsampled6 : 0.08373018951669664
stack_eval_4316652.log:INFO:root:/bmt-data/bii/projects/3D-histology/output_GRID_SEARCH/PTENX036-34/58/full_res_subsampled6 : 0.0822689958087231
stack_eval_4316653.log:INFO:root:/bmt-data/bii/projects/3D-histology/output_GRID_SEARCH/PTENX036-34/59/full_res_subsampled6 : 0.0821577670144846
stack_eval_4316654.log:INFO:root:/bmt-data/bii/projects/3D-histology/output_GRID_SEARCH/PTENX036-34/60/full_res_subsampled6 : 0.08427144787529187
stack_eval_4316655.log:INFO:root:/bmt-data/bii/projects/3D-histology/output_GRID_SEARCH/PTENX036-34/61/full_res_subsampled6 : 0.08354614838875285
stack_eval_4316656.log:INFO:root:/bmt-data/bii/projects/3D-histology/output_GRID_SEARCH/PTENX036-34/62/full_res_subsampled6 : 0.08359669285479336
stack_eval_4316657.log:INFO:root:/bmt-data/bii/projects/3D-histology/output_GRID_SEARCH/PTENX036-34/63/full_res_subsampled6 : 0.08530409802877024
stack_eval_4316658.log:INFO:root:/bmt-data/bii/projects/3D-histology/output_GRID_SEARCH/PTENX036-34/64/full_res_subsampled6 : 0.08654274030654624
stack_eval_4316659.log:INFO:root:/bmt-data/bii/projects/3D-histology/output_GRID_SEARCH/PTENX036-34/65/full_res_subsampled6 : 0.08530523220537636
stack_eval_4316660.log:INFO:root:/bmt-data/bii/projects/3D-histology/output_GRID_SEARCH/PTENX036-34/66/full_res_subsampled6 : 0.08561416317709004
stack_eval_4316661.log:INFO:root:/bmt-data/bii/projects/3D-histology/output_GRID_SEARCH/PTENX036-34/67/full_res_subsampled6 : 0.08241463343505193
stack_eval_4316662.log:INFO:root:/bmt-data/bii/projects/3D-histology/output_GRID_SEARCH/PTENX036-34/68/full_res_subsampled6 : 0.08380761768302583
stack_eval_4316663.log:INFO:root:/bmt-data/bii/projects/3D-histology/output_GRID_SEARCH/PTENX036-34/69/full_res_subsampled6 : 0.08370017078691083
stack_eval_4316664.log:INFO:root:/bmt-data/bii/projects/3D-histology/output_GRID_SEARCH/PTENX036-34/70/full_res_subsampled6 : 0.0832450402073075
stack_eval_4316665.log:INFO:root:/bmt-data/bii/projects/3D-histology/output_GRID_SEARCH/PTENX036-34/71/full_res_subsampled6 : 0.08571977053406596
