stack_eval_4317170.log:INFO:root:/bmt-data/bii/projects/3D-histology/output_GRID_SEARCH/UTU186-xhiMyc-008/0/full_res_subsampled6 : 0.0866326171641358
stack_eval_4317171.log:INFO:root:/bmt-data/bii/projects/3D-histology/output_GRID_SEARCH/UTU186-xhiMyc-008/1/full_res_subsampled6 : 0.08538827821417287
stack_eval_4317172.log:INFO:root:/bmt-data/bii/projects/3D-histology/output_GRID_SEARCH/UTU186-xhiMyc-008/2/full_res_subsampled6 : 0.08842414048708996
stack_eval_4317173.log:INFO:root:/bmt-data/bii/projects/3D-histology/output_GRID_SEARCH/UTU186-xhiMyc-008/3/full_res_subsampled6 : 0.09038585867209309
stack_eval_4317174.log:INFO:root:/bmt-data/bii/projects/3D-histology/output_GRID_SEARCH/UTU186-xhiMyc-008/4/full_res_subsampled6 : 0.09526426256802129
stack_eval_4317175.log:INFO:root:/bmt-data/bii/projects/3D-histology/output_GRID_SEARCH/UTU186-xhiMyc-008/5/full_res_subsampled6 : 0.0861454281708311
stack_eval_4317176.log:INFO:root:/bmt-data/bii/projects/3D-histology/output_GRID_SEARCH/UTU186-xhiMyc-008/6/full_res_subsampled6 : 0.09202034939513021
stack_eval_4317177.log:INFO:root:/bmt-data/bii/projects/3D-histology/output_GRID_SEARCH/UTU186-xhiMyc-008/7/full_res_subsampled6 : 0.08884448643966476
stack_eval_4317178.log:INFO:root:/bmt-data/bii/projects/3D-histology/output_GRID_SEARCH/UTU186-xhiMyc-008/8/full_res_subsampled6 : 0.08826540198369404
stack_eval_4317179.log:INFO:root:/bmt-data/bii/projects/3D-histology/output_GRID_SEARCH/UTU186-xhiMyc-008/9/full_res_subsampled6 : 0.09025787445838462
stack_eval_4317180.log:INFO:root:/bmt-data/bii/projects/3D-histology/output_GRID_SEARCH/UTU186-xhiMyc-008/10/full_res_subsampled6 : 0.09041297111542589
stack_eval_4317181.log:INFO:root:/bmt-data/bii/projects/3D-histology/output_GRID_SEARCH/UTU186-xhiMyc-008/11/full_res_subsampled6 : 0.08479210384246737
stack_eval_4317182.log:INFO:root:/bmt-data/bii/projects/3D-histology/output_GRID_SEARCH/UTU186-xhiMyc-008/12/full_res_subsampled6 : 0.09241782052095654
stack_eval_4317183.log:INFO:root:/bmt-data/bii/projects/3D-histology/output_GRID_SEARCH/UTU186-xhiMyc-008/13/full_res_subsampled6 : 0.0895382988583495
stack_eval_4317184.log:INFO:root:/bmt-data/bii/projects/3D-histology/output_GRID_SEARCH/UTU186-xhiMyc-008/14/full_res_subsampled6 : 0.08781813658141147
stack_eval_4317185.log:INFO:root:/bmt-data/bii/projects/3D-histology/output_GRID_SEARCH/UTU186-xhiMyc-008/15/full_res_subsampled6 : 0.09715651913716321
stack_eval_4317186.log:INFO:root:/bmt-data/bii/projects/3D-histology/output_GRID_SEARCH/UTU186-xhiMyc-008/16/full_res_subsampled6 : 0.09074605973316041
stack_eval_4317187.log:INFO:root:/bmt-data/bii/projects/3D-histology/output_GRID_SEARCH/UTU186-xhiMyc-008/17/full_res_subsampled6 : 0.08714174671375116
stack_eval_4317188.log:INFO:root:/bmt-data/bii/projects/3D-histology/output_GRID_SEARCH/UTU186-xhiMyc-008/18/full_res_subsampled6 : 0.09778919763752628
stack_eval_4317189.log:INFO:root:/bmt-data/bii/projects/3D-histology/output_GRID_SEARCH/UTU186-xhiMyc-008/19/full_res_subsampled6 : 0.0951929285024777
stack_eval_4317190.log:INFO:root:/bmt-data/bii/projects/3D-histology/output_GRID_SEARCH/UTU186-xhiMyc-008/20/full_res_subsampled6 : 0.09360417478222346
stack_eval_4317191.log:INFO:root:/bmt-data/bii/projects/3D-histology/output_GRID_SEARCH/UTU186-xhiMyc-008/21/full_res_subsampled6 : 0.09322164390605296
stack_eval_4317192.log:INFO:root:/bmt-data/bii/projects/3D-histology/output_GRID_SEARCH/UTU186-xhiMyc-008/22/full_res_subsampled6 : 0.09647143519299732
stack_eval_4317193.log:INFO:root:/bmt-data/bii/projects/3D-histology/output_GRID_SEARCH/UTU186-xhiMyc-008/23/full_res_subsampled6 : 0.0940816428365357
stack_eval_4317194.log:INFO:root:/bmt-data/bii/projects/3D-histology/output_GRID_SEARCH/UTU186-xhiMyc-008/24/full_res_subsampled6 : 0.10541957740568833
stack_eval_4317195.log:INFO:root:/bmt-data/bii/projects/3D-histology/output_GRID_SEARCH/UTU186-xhiMyc-008/25/full_res_subsampled6 : 0.0958599073688446
stack_eval_4317196.log:INFO:root:/bmt-data/bii/projects/3D-histology/output_GRID_SEARCH/UTU186-xhiMyc-008/26/full_res_subsampled6 : 0.09470177160993584
stack_eval_4317197.log:INFO:root:/bmt-data/bii/projects/3D-histology/output_GRID_SEARCH/UTU186-xhiMyc-008/27/full_res_subsampled6 : 0.10167985408840767
stack_eval_4317198.log:INFO:root:/bmt-data/bii/projects/3D-histology/output_GRID_SEARCH/UTU186-xhiMyc-008/28/full_res_subsampled6 : 0.09764895782986212
stack_eval_4317199.log:INFO:root:/bmt-data/bii/projects/3D-histology/output_GRID_SEARCH/UTU186-xhiMyc-008/29/full_res_subsampled6 : 0.09010550875863933
stack_eval_4317200.log:INFO:root:/bmt-data/bii/projects/3D-histology/output_GRID_SEARCH/UTU186-xhiMyc-008/30/full_res_subsampled6 : 0.09440340081358024
stack_eval_4317201.log:INFO:root:/bmt-data/bii/projects/3D-histology/output_GRID_SEARCH/UTU186-xhiMyc-008/31/full_res_subsampled6 : 0.10060217698551296
stack_eval_4317202.log:INFO:root:/bmt-data/bii/projects/3D-histology/output_GRID_SEARCH/UTU186-xhiMyc-008/32/full_res_subsampled6 : 0.09333914894202858
stack_eval_4317203.log:INFO:root:/bmt-data/bii/projects/3D-histology/output_GRID_SEARCH/UTU186-xhiMyc-008/33/full_res_subsampled6 : 0.09822220880714623
stack_eval_4317204.log:INFO:root:/bmt-data/bii/projects/3D-histology/output_GRID_SEARCH/UTU186-xhiMyc-008/34/full_res_subsampled6 : 0.10029118453372164
stack_eval_4317205.log:INFO:root:/bmt-data/bii/projects/3D-histology/output_GRID_SEARCH/UTU186-xhiMyc-008/35/full_res_subsampled6 : 0.09641106804217899
stack_eval_4317206.log:INFO:root:/bmt-data/bii/projects/3D-histology/output_GRID_SEARCH/UTU186-xhiMyc-008/36/full_res_subsampled6 : 0.09615277587805073
stack_eval_4317207.log:INFO:root:/bmt-data/bii/projects/3D-histology/output_GRID_SEARCH/UTU186-xhiMyc-008/37/full_res_subsampled6 : 0.09516278628159028
stack_eval_4317208.log:INFO:root:/bmt-data/bii/projects/3D-histology/output_GRID_SEARCH/UTU186-xhiMyc-008/38/full_res_subsampled6 : 0.09000765457826956
stack_eval_4317209.log:INFO:root:/bmt-data/bii/projects/3D-histology/output_GRID_SEARCH/UTU186-xhiMyc-008/39/full_res_subsampled6 : 0.08872406409571074
stack_eval_4317210.log:INFO:root:/bmt-data/bii/projects/3D-histology/output_GRID_SEARCH/UTU186-xhiMyc-008/40/full_res_subsampled6 : 0.08734258962895611
stack_eval_4317211.log:INFO:root:/bmt-data/bii/projects/3D-histology/output_GRID_SEARCH/UTU186-xhiMyc-008/41/full_res_subsampled6 : 0.08812921177211969
stack_eval_4317212.log:INFO:root:/bmt-data/bii/projects/3D-histology/output_GRID_SEARCH/UTU186-xhiMyc-008/42/full_res_subsampled6 : 0.08197534915576493
stack_eval_4317213.log:INFO:root:/bmt-data/bii/projects/3D-histology/output_GRID_SEARCH/UTU186-xhiMyc-008/43/full_res_subsampled6 : 0.08599386189256075
stack_eval_4317214.log:INFO:root:/bmt-data/bii/projects/3D-histology/output_GRID_SEARCH/UTU186-xhiMyc-008/44/full_res_subsampled6 : 0.08756021947480658
stack_eval_4317215.log:INFO:root:/bmt-data/bii/projects/3D-histology/output_GRID_SEARCH/UTU186-xhiMyc-008/45/full_res_subsampled6 : 0.09826255201892858
stack_eval_4317216.log:INFO:root:/bmt-data/bii/projects/3D-histology/output_GRID_SEARCH/UTU186-xhiMyc-008/46/full_res_subsampled6 : 0.09459026173123382
stack_eval_4317217.log:INFO:root:/bmt-data/bii/projects/3D-histology/output_GRID_SEARCH/UTU186-xhiMyc-008/47/full_res_subsampled6 : 0.09096526064685795
stack_eval_4317218.log:INFO:root:/bmt-data/bii/projects/3D-histology/output_GRID_SEARCH/UTU186-xhiMyc-008/48/full_res_subsampled6 : 0.09311523752299983
stack_eval_4317219.log:INFO:root:/bmt-data/bii/projects/3D-histology/output_GRID_SEARCH/UTU186-xhiMyc-008/49/full_res_subsampled6 : 0.08891560987652872
stack_eval_4317220.log:INFO:root:/bmt-data/bii/projects/3D-histology/output_GRID_SEARCH/UTU186-xhiMyc-008/50/full_res_subsampled6 : 0.0876720562697841
stack_eval_4317221.log:INFO:root:/bmt-data/bii/projects/3D-histology/output_GRID_SEARCH/UTU186-xhiMyc-008/51/full_res_subsampled6 : 0.08810404422946742
stack_eval_4317222.log:INFO:root:/bmt-data/bii/projects/3D-histology/output_GRID_SEARCH/UTU186-xhiMyc-008/52/full_res_subsampled6 : 0.09327511247666374
stack_eval_4317223.log:INFO:root:/bmt-data/bii/projects/3D-histology/output_GRID_SEARCH/UTU186-xhiMyc-008/53/full_res_subsampled6 : 0.08703326900150292
stack_eval_4317224.log:INFO:root:/bmt-data/bii/projects/3D-histology/output_GRID_SEARCH/UTU186-xhiMyc-008/54/full_res_subsampled6 : 0.09254032257148996
stack_eval_4317225.log:INFO:root:/bmt-data/bii/projects/3D-histology/output_GRID_SEARCH/UTU186-xhiMyc-008/55/full_res_subsampled6 : 0.09651270186337636
stack_eval_4317226.log:INFO:root:/bmt-data/bii/projects/3D-histology/output_GRID_SEARCH/UTU186-xhiMyc-008/56/full_res_subsampled6 : 0.09047387853831218
stack_eval_4317227.log:INFO:root:/bmt-data/bii/projects/3D-histology/output_GRID_SEARCH/UTU186-xhiMyc-008/57/full_res_subsampled6 : 0.09489697163366038
stack_eval_4317228.log:INFO:root:/bmt-data/bii/projects/3D-histology/output_GRID_SEARCH/UTU186-xhiMyc-008/58/full_res_subsampled6 : 0.09334077887673373
stack_eval_4317229.log:INFO:root:/bmt-data/bii/projects/3D-histology/output_GRID_SEARCH/UTU186-xhiMyc-008/59/full_res_subsampled6 : 0.0877028546998359
stack_eval_4317230.log:INFO:root:/bmt-data/bii/projects/3D-histology/output_GRID_SEARCH/UTU186-xhiMyc-008/60/full_res_subsampled6 : 0.09085297828501628
stack_eval_4317231.log:INFO:root:/bmt-data/bii/projects/3D-histology/output_GRID_SEARCH/UTU186-xhiMyc-008/61/full_res_subsampled6 : 0.10125091042625073
stack_eval_4317232.log:INFO:root:/bmt-data/bii/projects/3D-histology/output_GRID_SEARCH/UTU186-xhiMyc-008/62/full_res_subsampled6 : 0.09040232928329991
stack_eval_4317233.log:INFO:root:/bmt-data/bii/projects/3D-histology/output_GRID_SEARCH/UTU186-xhiMyc-008/63/full_res_subsampled6 : 0.09668909655784864
stack_eval_4317234.log:INFO:root:/bmt-data/bii/projects/3D-histology/output_GRID_SEARCH/UTU186-xhiMyc-008/64/full_res_subsampled6 : 0.09686406978142947
stack_eval_4317235.log:INFO:root:/bmt-data/bii/projects/3D-histology/output_GRID_SEARCH/UTU186-xhiMyc-008/65/full_res_subsampled6 : 0.0895435559834187
stack_eval_4317236.log:INFO:root:/bmt-data/bii/projects/3D-histology/output_GRID_SEARCH/UTU186-xhiMyc-008/66/full_res_subsampled6 : 0.0957186844187356
stack_eval_4317237.log:INFO:root:/bmt-data/bii/projects/3D-histology/output_GRID_SEARCH/UTU186-xhiMyc-008/67/full_res_subsampled6 : 0.09567694222460339
stack_eval_4317238.log:INFO:root:/bmt-data/bii/projects/3D-histology/output_GRID_SEARCH/UTU186-xhiMyc-008/68/full_res_subsampled6 : 0.09181408739973371
stack_eval_4317239.log:INFO:root:/bmt-data/bii/projects/3D-histology/output_GRID_SEARCH/UTU186-xhiMyc-008/69/full_res_subsampled6 : 0.09445232635347732
stack_eval_4317240.log:INFO:root:/bmt-data/bii/projects/3D-histology/output_GRID_SEARCH/UTU186-xhiMyc-008/70/full_res_subsampled6 : 0.09557600943137014
stack_eval_4317241.log:INFO:root:/bmt-data/bii/projects/3D-histology/output_GRID_SEARCH/UTU186-xhiMyc-008/71/full_res_subsampled6 : 0.09394696110619633
