stack_eval_4317242.log:INFO:root:/bmt-data/bii/projects/3D-histology/output_GRID_SEARCH/UTU186-xhiMyc-022/0/full_res_subsampled6 : 0.09478635960368587
stack_eval_4317243.log:INFO:root:/bmt-data/bii/projects/3D-histology/output_GRID_SEARCH/UTU186-xhiMyc-022/1/full_res_subsampled6 : 0.09365939875334034
stack_eval_4317244.log:INFO:root:/bmt-data/bii/projects/3D-histology/output_GRID_SEARCH/UTU186-xhiMyc-022/2/full_res_subsampled6 : 0.09759602493060257
stack_eval_4317245.log:INFO:root:/bmt-data/bii/projects/3D-histology/output_GRID_SEARCH/UTU186-xhiMyc-022/3/full_res_subsampled6 : 0.09380825582996137
stack_eval_4317246.log:INFO:root:/bmt-data/bii/projects/3D-histology/output_GRID_SEARCH/UTU186-xhiMyc-022/4/full_res_subsampled6 : 0.09794202099246051
stack_eval_4317247.log:INFO:root:/bmt-data/bii/projects/3D-histology/output_GRID_SEARCH/UTU186-xhiMyc-022/5/full_res_subsampled6 : 0.09871748135642132
stack_eval_4317248.log:INFO:root:/bmt-data/bii/projects/3D-histology/output_GRID_SEARCH/UTU186-xhiMyc-022/6/full_res_subsampled6 : 0.09726754186266473
stack_eval_4317249.log:INFO:root:/bmt-data/bii/projects/3D-histology/output_GRID_SEARCH/UTU186-xhiMyc-022/7/full_res_subsampled6 : 0.09532143819980485
stack_eval_4317250.log:INFO:root:/bmt-data/bii/projects/3D-histology/output_GRID_SEARCH/UTU186-xhiMyc-022/8/full_res_subsampled6 : 0.09880284388345789
stack_eval_4317251.log:INFO:root:/bmt-data/bii/projects/3D-histology/output_GRID_SEARCH/UTU186-xhiMyc-022/9/full_res_subsampled6 : 0.09672280109834237
stack_eval_4317252.log:INFO:root:/bmt-data/bii/projects/3D-histology/output_GRID_SEARCH/UTU186-xhiMyc-022/10/full_res_subsampled6 : 0.094513575708572
stack_eval_4317253.log:INFO:root:/bmt-data/bii/projects/3D-histology/output_GRID_SEARCH/UTU186-xhiMyc-022/11/full_res_subsampled6 : 0.0964350656875805
stack_eval_4317254.log:INFO:root:/bmt-data/bii/projects/3D-histology/output_GRID_SEARCH/UTU186-xhiMyc-022/12/full_res_subsampled6 : 0.10406524343002223
stack_eval_4317255.log:INFO:root:/bmt-data/bii/projects/3D-histology/output_GRID_SEARCH/UTU186-xhiMyc-022/13/full_res_subsampled6 : 0.10073704647957839
stack_eval_4317256.log:INFO:root:/bmt-data/bii/projects/3D-histology/output_GRID_SEARCH/UTU186-xhiMyc-022/14/full_res_subsampled6 : 0.09967522125975693
stack_eval_4317257.log:INFO:root:/bmt-data/bii/projects/3D-histology/output_GRID_SEARCH/UTU186-xhiMyc-022/15/full_res_subsampled6 : 0.09806022093126306
stack_eval_4317258.log:INFO:root:/bmt-data/bii/projects/3D-histology/output_GRID_SEARCH/UTU186-xhiMyc-022/16/full_res_subsampled6 : 0.09964326360213406
stack_eval_4317259.log:INFO:root:/bmt-data/bii/projects/3D-histology/output_GRID_SEARCH/UTU186-xhiMyc-022/17/full_res_subsampled6 : 0.09613446204895387
stack_eval_4317260.log:INFO:root:/bmt-data/bii/projects/3D-histology/output_GRID_SEARCH/UTU186-xhiMyc-022/18/full_res_subsampled6 : 0.09972192674330058
stack_eval_4317261.log:INFO:root:/bmt-data/bii/projects/3D-histology/output_GRID_SEARCH/UTU186-xhiMyc-022/19/full_res_subsampled6 : 0.09821892505428242
stack_eval_4317262.log:INFO:root:/bmt-data/bii/projects/3D-histology/output_GRID_SEARCH/UTU186-xhiMyc-022/20/full_res_subsampled6 : 0.09867637747919494
stack_eval_4317263.log:INFO:root:/bmt-data/bii/projects/3D-histology/output_GRID_SEARCH/UTU186-xhiMyc-022/21/full_res_subsampled6 : 0.10823610420192765
stack_eval_4317264.log:INFO:root:/bmt-data/bii/projects/3D-histology/output_GRID_SEARCH/UTU186-xhiMyc-022/22/full_res_subsampled6 : 0.10029422267336893
stack_eval_4317265.log:INFO:root:/bmt-data/bii/projects/3D-histology/output_GRID_SEARCH/UTU186-xhiMyc-022/23/full_res_subsampled6 : 0.10373522805414276
stack_eval_4317266.log:INFO:root:/bmt-data/bii/projects/3D-histology/output_GRID_SEARCH/UTU186-xhiMyc-022/24/full_res_subsampled6 : 0.10439248128588424
stack_eval_4317267.log:INFO:root:/bmt-data/bii/projects/3D-histology/output_GRID_SEARCH/UTU186-xhiMyc-022/25/full_res_subsampled6 : 0.09897634972981889
stack_eval_4317268.log:INFO:root:/bmt-data/bii/projects/3D-histology/output_GRID_SEARCH/UTU186-xhiMyc-022/26/full_res_subsampled6 : 0.097317230001696
stack_eval_4317269.log:INFO:root:/bmt-data/bii/projects/3D-histology/output_GRID_SEARCH/UTU186-xhiMyc-022/27/full_res_subsampled6 : 0.10682490253628593
stack_eval_4317270.log:INFO:root:/bmt-data/bii/projects/3D-histology/output_GRID_SEARCH/UTU186-xhiMyc-022/28/full_res_subsampled6 : 0.09539079607753324
stack_eval_4317271.log:INFO:root:/bmt-data/bii/projects/3D-histology/output_GRID_SEARCH/UTU186-xhiMyc-022/29/full_res_subsampled6 : 0.09892363862325067
stack_eval_4317272.log:INFO:root:/bmt-data/bii/projects/3D-histology/output_GRID_SEARCH/UTU186-xhiMyc-022/30/full_res_subsampled6 : 0.107115249573082
stack_eval_4317273.log:INFO:root:/bmt-data/bii/projects/3D-histology/output_GRID_SEARCH/UTU186-xhiMyc-022/31/full_res_subsampled6 : 0.10812443147804611
stack_eval_4317274.log:INFO:root:/bmt-data/bii/projects/3D-histology/output_GRID_SEARCH/UTU186-xhiMyc-022/32/full_res_subsampled6 : 0.10528055056669773
stack_eval_4317275.log:INFO:root:/bmt-data/bii/projects/3D-histology/output_GRID_SEARCH/UTU186-xhiMyc-022/33/full_res_subsampled6 : 0.10683861173413625
stack_eval_4317276.log:INFO:root:/bmt-data/bii/projects/3D-histology/output_GRID_SEARCH/UTU186-xhiMyc-022/34/full_res_subsampled6 : 0.10283189687590594
stack_eval_4317277.log:INFO:root:/bmt-data/bii/projects/3D-histology/output_GRID_SEARCH/UTU186-xhiMyc-022/35/full_res_subsampled6 : 0.10651747784435214
stack_eval_4317278.log:INFO:root:/bmt-data/bii/projects/3D-histology/output_GRID_SEARCH/UTU186-xhiMyc-022/36/full_res_subsampled6 : 0.09893788674735489
stack_eval_4317279.log:INFO:root:/bmt-data/bii/projects/3D-histology/output_GRID_SEARCH/UTU186-xhiMyc-022/37/full_res_subsampled6 : 0.09851840897223582
stack_eval_4317280.log:INFO:root:/bmt-data/bii/projects/3D-histology/output_GRID_SEARCH/UTU186-xhiMyc-022/38/full_res_subsampled6 : 0.10250368302939183
stack_eval_4317281.log:INFO:root:/bmt-data/bii/projects/3D-histology/output_GRID_SEARCH/UTU186-xhiMyc-022/39/full_res_subsampled6 : 0.09472665859373058
stack_eval_4317282.log:INFO:root:/bmt-data/bii/projects/3D-histology/output_GRID_SEARCH/UTU186-xhiMyc-022/40/full_res_subsampled6 : 0.09281832196839855
stack_eval_4317283.log:INFO:root:/bmt-data/bii/projects/3D-histology/output_GRID_SEARCH/UTU186-xhiMyc-022/41/full_res_subsampled6 : 0.09405856026978536
stack_eval_4317284.log:INFO:root:/bmt-data/bii/projects/3D-histology/output_GRID_SEARCH/UTU186-xhiMyc-022/42/full_res_subsampled6 : 0.0942338884619953
stack_eval_4317285.log:INFO:root:/bmt-data/bii/projects/3D-histology/output_GRID_SEARCH/UTU186-xhiMyc-022/43/full_res_subsampled6 : 0.09249920591003681
stack_eval_4317286.log:INFO:root:/bmt-data/bii/projects/3D-histology/output_GRID_SEARCH/UTU186-xhiMyc-022/44/full_res_subsampled6 : 0.09737531426952599
stack_eval_4317287.log:INFO:root:/bmt-data/bii/projects/3D-histology/output_GRID_SEARCH/UTU186-xhiMyc-022/45/full_res_subsampled6 : 0.10160129960225071
stack_eval_4317288.log:INFO:root:/bmt-data/bii/projects/3D-histology/output_GRID_SEARCH/UTU186-xhiMyc-022/46/full_res_subsampled6 : 0.1005314066341935
stack_eval_4317289.log:INFO:root:/bmt-data/bii/projects/3D-histology/output_GRID_SEARCH/UTU186-xhiMyc-022/47/full_res_subsampled6 : 0.10368211845446032
stack_eval_4317290.log:INFO:root:/bmt-data/bii/projects/3D-histology/output_GRID_SEARCH/UTU186-xhiMyc-022/48/full_res_subsampled6 : 0.09308330345591254
stack_eval_4317291.log:INFO:root:/bmt-data/bii/projects/3D-histology/output_GRID_SEARCH/UTU186-xhiMyc-022/49/full_res_subsampled6 : 0.09257209953754081
stack_eval_4317292.log:INFO:root:/bmt-data/bii/projects/3D-histology/output_GRID_SEARCH/UTU186-xhiMyc-022/50/full_res_subsampled6 : 0.09403867407774355
stack_eval_4317293.log:INFO:root:/bmt-data/bii/projects/3D-histology/output_GRID_SEARCH/UTU186-xhiMyc-022/51/full_res_subsampled6 : 0.09463848926086957
stack_eval_4317294.log:INFO:root:/bmt-data/bii/projects/3D-histology/output_GRID_SEARCH/UTU186-xhiMyc-022/52/full_res_subsampled6 : 0.09332740435758709
stack_eval_4317295.log:INFO:root:/bmt-data/bii/projects/3D-histology/output_GRID_SEARCH/UTU186-xhiMyc-022/53/full_res_subsampled6 : 0.09822619493749547
stack_eval_4317296.log:INFO:root:/bmt-data/bii/projects/3D-histology/output_GRID_SEARCH/UTU186-xhiMyc-022/54/full_res_subsampled6 : 0.09835067987173998
stack_eval_4317297.log:INFO:root:/bmt-data/bii/projects/3D-histology/output_GRID_SEARCH/UTU186-xhiMyc-022/55/full_res_subsampled6 : 0.10164079651329501
stack_eval_4317298.log:INFO:root:/bmt-data/bii/projects/3D-histology/output_GRID_SEARCH/UTU186-xhiMyc-022/56/full_res_subsampled6 : 0.10071237912173273
stack_eval_4317299.log:INFO:root:/bmt-data/bii/projects/3D-histology/output_GRID_SEARCH/UTU186-xhiMyc-022/57/full_res_subsampled6 : 0.09851784352255964
stack_eval_4317300.log:INFO:root:/bmt-data/bii/projects/3D-histology/output_GRID_SEARCH/UTU186-xhiMyc-022/58/full_res_subsampled6 : 0.09657856101608904
stack_eval_4317301.log:INFO:root:/bmt-data/bii/projects/3D-histology/output_GRID_SEARCH/UTU186-xhiMyc-022/59/full_res_subsampled6 : 0.09729458170321616
stack_eval_4317302.log:INFO:root:/bmt-data/bii/projects/3D-histology/output_GRID_SEARCH/UTU186-xhiMyc-022/60/full_res_subsampled6 : 0.09833012177275643
stack_eval_4317303.log:INFO:root:/bmt-data/bii/projects/3D-histology/output_GRID_SEARCH/UTU186-xhiMyc-022/61/full_res_subsampled6 : 0.09629291361798831
stack_eval_4317304.log:INFO:root:/bmt-data/bii/projects/3D-histology/output_GRID_SEARCH/UTU186-xhiMyc-022/62/full_res_subsampled6 : 0.09725907797331906
stack_eval_4317305.log:INFO:root:/bmt-data/bii/projects/3D-histology/output_GRID_SEARCH/UTU186-xhiMyc-022/63/full_res_subsampled6 : 0.10400584007058307
stack_eval_4317306.log:INFO:root:/bmt-data/bii/projects/3D-histology/output_GRID_SEARCH/UTU186-xhiMyc-022/64/full_res_subsampled6 : 0.0994573307859705
stack_eval_4317307.log:INFO:root:/bmt-data/bii/projects/3D-histology/output_GRID_SEARCH/UTU186-xhiMyc-022/65/full_res_subsampled6 : 0.10009093320623007
stack_eval_4317308.log:INFO:root:/bmt-data/bii/projects/3D-histology/output_GRID_SEARCH/UTU186-xhiMyc-022/66/full_res_subsampled6 : 0.10426165473451779
stack_eval_4317309.log:INFO:root:/bmt-data/bii/projects/3D-histology/output_GRID_SEARCH/UTU186-xhiMyc-022/67/full_res_subsampled6 : 0.0987935893595284
stack_eval_4317310.log:INFO:root:/bmt-data/bii/projects/3D-histology/output_GRID_SEARCH/UTU186-xhiMyc-022/68/full_res_subsampled6 : 0.09725066724644144
stack_eval_4317311.log:INFO:root:/bmt-data/bii/projects/3D-histology/output_GRID_SEARCH/UTU186-xhiMyc-022/69/full_res_subsampled6 : 0.1029147867397548
stack_eval_4317312.log:INFO:root:/bmt-data/bii/projects/3D-histology/output_GRID_SEARCH/UTU186-xhiMyc-022/70/full_res_subsampled6 : 0.09851559255496738
stack_eval_4317313.log:INFO:root:/bmt-data/bii/projects/3D-histology/output_GRID_SEARCH/UTU186-xhiMyc-022/71/full_res_subsampled6 : 0.09964275785604132
