/bmt-data/bii/datasets/3D-histology/pieces_new_selected/PTENX036-14/Lat-186_Ptenx036-14-25_514_4092_4028.tiff 4092 4028
/bmt-data/bii/datasets/3D-histology/pieces_new_selected/PTENX036-14/Lat-186_Ptenx036-14-16_30571_4204_6172.tiff 4204 6172
/bmt-data/bii/datasets/3D-histology/pieces_new_selected/PTENX036-14/Lat-186_Ptenx036-14-22_32348_4236_8460.tiff 4236 8460
/bmt-data/bii/datasets/3D-histology/pieces_new_selected/PTENX036-14/Lat-186_Ptenx036-14-76_18364_35788.tiff 18364 35788
/bmt-data/bii/datasets/3D-histology/pieces_new_selected/PTENX036-14/Lat-186_Ptenx036-14-28_1389_4236_3804.tiff 4236 3804
/bmt-data/bii/datasets/3D-histology/pieces_new_selected/PTENX036-14/Lat-186_Ptenx036-14-31_2225_4220_4876.tiff 4220 4876
/bmt-data/bii/datasets/3D-histology/pieces_new_selected/PTENX036-14/Lat-186_Ptenx036-14-34_3058_4252_4172.tiff 4252 4172
/bmt-data/bii/datasets/3D-histology/pieces_new_selected/PTENX036-14/Lat-186_Ptenx036-14-37_3855_4284_4156.tiff 4284 4156
/bmt-data/bii/datasets/3D-histology/pieces_new_selected/PTENX036-14/Lat-186_Ptenx036-14-40_4651_58828_4588.tiff 58828 4588
/bmt-data/bii/datasets/3D-histology/pieces_new_selected/PTENX036-14/Lat-186_Ptenx036-14-46_6222_4252_6060.tiff 4252 6060
/bmt-data/bii/datasets/3D-histology/pieces_new_selected/PTENX036-14/Lat-186_Ptenx036-14-49_7012_4236_6172.tiff 4236 6172
/bmt-data/bii/datasets/3D-histology/pieces_new_selected/PTENX036-14/Lat-186_Ptenx036-14-61_9899_4364_8796.tiff 4364 8796
/bmt-data/bii/datasets/3D-histology/pieces_new_selected/PTENX036-14/Lat-186_Ptenx036-14-43_5451_62556_6332.tiff 62556 6332
/bmt-data/bii/datasets/3D-histology/pieces_new_selected/PTENX036-14/Lat-186_Ptenx036-14-19_31401_4028_4204.tiff 4028 4204
/bmt-data/bii/datasets/3D-histology/pieces_new_selected/PTENX036-14/Lat-186_Ptenx036-14-64_10722_59884_4316.tiff 59884 4316
/bmt-data/bii/datasets/3D-histology/pieces_new_selected/PTENX036-14/Lat-186_Ptenx036-14-67_11401_4284_4316.tiff 4284 4316
/bmt-data/bii/datasets/3D-histology/pieces_new_selected/PTENX036-14/Lat-186_Ptenx036-14-70_12107_4268_7404.tiff 4268 7404
/bmt-data/bii/datasets/3D-histology/pieces_new_selected/PTENX036-14/Lat-186_Ptenx036-14-73_12763_4060_6780.tiff 4060 6780
/bmt-data/bii/datasets/3D-histology/pieces_new_selected/PTENX036-14/Lat-186_Ptenx036-14-79_14174_4252_7004.tiff 4252 7004
/bmt-data/bii/datasets/3D-histology/pieces_new_selected/PTENX036-15/Lat-186_PTENX036-15-19_10420_34636_18140.tiff 34636 18140
/bmt-data/bii/datasets/3D-histology/pieces_new_selected/PTENX036-15/Lat-186_PTENX036-15-22_11660_31532_17260.tiff 31532 17260
/bmt-data/bii/datasets/3D-histology/pieces_new_selected/PTENX036-15/Lat-186_PTENX036-15-25_12862_23052_4108.tiff 23052 4108
/bmt-data/bii/datasets/3D-histology/pieces_new_selected/PTENX036-15/Lat-186_PTENX036-15-28_13933_4492_8844.tiff 4492 8844
/bmt-data/bii/datasets/3D-histology/pieces_new_selected/PTENX036-15/Lat-186_PTENX036-15-31_15017_56908_8908.tiff 56908 8908
/bmt-data/bii/datasets/3D-histology/pieces_new_selected/PTENX036-15/Lat-186_PTENX036-15-34_16275_17052_24364.tiff 17052 24364
/bmt-data/bii/datasets/3D-histology/pieces_new_selected/PTENX036-15/Lat-186_PTENX036-15-37_17372_4924_7820.tiff 4924 7820
/bmt-data/bii/datasets/3D-histology/pieces_new_selected/PTENX036-15/Lat-186_PTENX036-15-37_17372_4924_7820.tiff 4924 7820
/bmt-data/bii/datasets/3D-histology/pieces_new_selected/PTENX036-15/Lat-186_PTENX036-15-40_18459_6876_4156.tiff 6876 4156
/bmt-data/bii/datasets/3D-histology/pieces_new_selected/PTENX036-15/Lat-186_PTENX036-15-40_18459_6876_4156.tiff 6876 4156
/bmt-data/bii/datasets/3D-histology/pieces_new_selected/PTENX036-15/Lat-186_PTENX036-15-43_19599_20556_9932.tiff 20556 9932
/bmt-data/bii/datasets/3D-histology/pieces_new_selected/PTENX036-15/Lat-186_PTENX036-15-43_19599_20556_9932.tiff 20556 9932
/bmt-data/bii/datasets/3D-histology/pieces_new_selected/PTENX036-15/Lat-186_PTENX036-15-85_200_57644_21948.tiff 57644 21948
/bmt-data/bii/datasets/3D-histology/pieces_new_selected/PTENX036-15/Lat-186_PTENX036-15-85_200_57644_21948.tiff 57644 21948
/bmt-data/bii/datasets/3D-histology/pieces_new_selected/PTENX036-15/Lat-186_PTENX036-15-88_899_4348_10684.tiff 4348 10684
/bmt-data/bii/datasets/3D-histology/pieces_new_selected/PTENX036-15/Lat-186_PTENX036-15-88_899_4348_10684.tiff 4348 10684
/bmt-data/bii/datasets/3D-histology/pieces_new_selected/PTENX036-15/Lat-186_PTENX036-15-46_20768_4284_4892.tiff 4284 4892
/bmt-data/bii/datasets/3D-histology/pieces_new_selected/PTENX036-15/Lat-186_PTENX036-15-49_21826_4204_4140.tiff 4204 4140
/bmt-data/bii/datasets/3D-histology/pieces_new_selected/PTENX036-15/Lat-186_PTENX036-15-49_21826_4204_4140.tiff 4204 4140
/bmt-data/bii/datasets/3D-histology/pieces_new_selected/PTENX036-15/Lat-186_PTENX036-15-52_22874_49260_17244.tiff 49260 17244
/bmt-data/bii/datasets/3D-histology/pieces_new_selected/PTENX036-15/Lat-186_PTENX036-15-55_23884_4188_5260.tiff 4188 5260
/bmt-data/bii/datasets/3D-histology/pieces_new_selected/PTENX036-15/Lat-186_PTENX036-15-64_26666_4316_8764.tiff 4316 8764
/bmt-data/bii/datasets/3D-histology/pieces_new_selected/PTENX036-15/Lat-186_PTENX036-15-67_27616_51068_8012.tiff 51068 8012
/bmt-data/bii/datasets/3D-histology/pieces_new_selected/PTENX036-15/Lat-186_PTENX036-15-73_29461_76492_4604.tiff 76492 4604
/bmt-data/bii/datasets/3D-histology/pieces_new_selected/PTENX036-15/Lat-186_PTENX036-15-76_30287_4252_5644.tiff 4252 5644
/bmt-data/bii/datasets/3D-histology/pieces_new_selected/PTENX036-15/Lat-186_PTENX036-15-79_31130_4220_4572.tiff 4220 4572
/bmt-data/bii/datasets/3D-histology/pieces_new_selected/PTENX036-15/Lat-186_PTENX036-15-82_31982_4172_7340.tiff 4172 7340
/bmt-data/bii/datasets/3D-histology/pieces_new_selected/PTENX036-15/Lat-186_PTENX036-15-91_12327_4284_4668.tiff 4284 4668
/bmt-data/bii/datasets/3D-histology/pieces_new_selected/PTENX036-15/Lat-186_PTENX036-15-91_12327_4284_4668.tiff 4284 4668
/bmt-data/bii/datasets/3D-histology/pieces_new_selected/PTENX036-20/Lat-186_PTENX036-20-13_10374_69052_26892.tiff 69052 26892
/bmt-data/bii/datasets/3D-histology/pieces_new_selected/PTENX036-20/Lat-186_PTENX036-20-16_11400_48940_15004.tiff 48940 15004
/bmt-data/bii/datasets/3D-histology/pieces_new_selected/PTENX036-20/Lat-186_PTENX036-20-19_12402_50620_10252.tiff 50620 10252
/bmt-data/bii/datasets/3D-histology/pieces_new_selected/PTENX036-20/Lat-186_PTENX036-20-22_13320_48780_7020.tiff 48780 7020
/bmt-data/bii/datasets/3D-histology/pieces_new_selected/PTENX036-20/Lat-186_PTENX036-20-25_14254_48620_12444.tiff 48620 12444
/bmt-data/bii/datasets/3D-histology/pieces_new_selected/PTENX036-20/Lat-186_PTENX036-20-28_15266_57212_32220.tiff 57212 32220
/bmt-data/bii/datasets/3D-histology/pieces_new_selected/PTENX036-20/Lat-186_PTENX036-20-58_24811_4092_18396.tiff 4092 18396
/bmt-data/bii/datasets/3D-histology/pieces_new_selected/PTENX036-20/Lat-186_PTENX036-20-61_25670_4268_4124.tiff 4268 4124
/bmt-data/bii/datasets/3D-histology/pieces_new_selected/PTENX036-20/Lat-186_PTENX036-20-64_26470_53516_4188.tiff 53516 4188
/bmt-data/bii/datasets/3D-histology/pieces_new_selected/PTENX036-20/Lat-186_PTENX036-20-67_27365_4252_10732.tiff 4252 10732
/bmt-data/bii/datasets/3D-histology/pieces_new_selected/PTENX036-20/Lat-186_PTENX036-20-4_7399_48940_7548.tiff 48940 7548
/bmt-data/bii/datasets/3D-histology/pieces_new_selected/PTENX036-20/Lat-186_PTENX036-20-7_8428_21884_3820.tiff 21884 3820
/bmt-data/bii/datasets/3D-histology/pieces_new_selected/PTENX036-20/Lat-186_PTENX036-20-7_8428_21884_3820.tiff 21884 3820
/bmt-data/bii/datasets/3D-histology/pieces_new_selected/PTENX036-20/Lat-186_PTENX036-20-10_9375_4156_6300.tiff 4156 6300
/bmt-data/bii/datasets/3D-histology/pieces_new_selected/PTENX036-20/Lat-186_PTENX036-20-10_9375_4156_6300.tiff 4156 6300
/bmt-data/bii/datasets/3D-histology/pieces_new_selected/PTENX036-20/Lat-186_PTENX036-20-13_10374_69052_26892.tiff 69052 26892
/bmt-data/bii/datasets/3D-histology/pieces_new_selected/PTENX036-32/LAT-186_PTENX036-032-61_1447_4460_7916.tiff 4460 7916
/bmt-data/bii/datasets/3D-histology/pieces_new_selected/PTENX036-32/LAT-186_PTENX036-032-64_2143_4156_4236.tiff 4156 4236
/bmt-data/bii/datasets/3D-histology/pieces_new_selected/PTENX036-32/LAT-186_PTENX036-032-67_2809_55564_4124.tiff 55564 4124
/bmt-data/bii/datasets/3D-histology/pieces_new_selected/PTENX036-32/LAT-186_PTENX036-032-70_3482_52364_4188.tiff 52364 4188
/bmt-data/bii/datasets/3D-histology/pieces_new_selected/PTENX036-32/LAT-186_PTENX036-032-73_4118_4188_5804.tiff 4188 5804
/bmt-data/bii/datasets/3D-histology/pieces_new_selected/PTENX036-32/LAT-186_PTENX036-032-13_21688_3996_4124.tiff 3996 4124
/bmt-data/bii/datasets/3D-histology/pieces_new_selected/PTENX036-32/LAT-186_PTENX036-032-16_22590_4284_7180.tiff 4284 7180
/bmt-data/bii/datasets/3D-histology/pieces_new_selected/PTENX036-32/LAT-186_PTENX036-032-19_23370_4284_5116.tiff 4284 5116
/bmt-data/bii/datasets/3D-histology/pieces_new_selected/PTENX036-32/LAT-186_PTENX036-032-43_29647_56940_5884.tiff 56940 5884
/bmt-data/bii/datasets/3D-histology/pieces_new_selected/PTENX036-32/LAT-186_PTENX036-032-46_30437_60252_4236.tiff 60252 4236
/bmt-data/bii/datasets/3D-histology/pieces_new_selected/PTENX036-32/LAT-186_PTENX036-032-49_31185_4268_4140.tiff 4268 4140
/bmt-data/bii/datasets/3D-histology/pieces_new_selected/PTENX036-32/LAT-186_PTENX036-032-52_31906_4204_4172.tiff 4204 4172
/bmt-data/bii/datasets/3D-histology/pieces_new_selected/PTENX036-32/LAT-186_PTENX036-032-55_32677_4252_4300.tiff 4252 4300
/bmt-data/bii/datasets/3D-histology/pieces_new_selected/PTENX036-32/LAT-186_PTENX036-032-58_712_26380_4188.tiff 26380 4188
/bmt-data/bii/datasets/3D-histology/pieces_new_selected/PTENX036-33/LAT-186_PTENX036-033-28_32092_5212.tiff 32092 5212
/bmt-data/bii/datasets/3D-histology/pieces_new_selected/PTENX036-33/LAT-186_PTENX036-033-31_30412_5660.tiff 30412 5660
/bmt-data/bii/datasets/3D-histology/pieces_new_selected/PTENX036-33/LAT-186_PTENX036-033-40_4236_9884.tiff 4236 9884
/bmt-data/bii/datasets/3D-histology/pieces_new_selected/PTENX036-33/LAT-186_PTENX036-033-40_4236_9884.tiff 4236 9884
/bmt-data/bii/datasets/3D-histology/pieces_new_selected/PTENX036-33/LAT-186_PTENX036-033-43_33820_9276.tiff 33820 9276
/bmt-data/bii/datasets/3D-histology/pieces_new_selected/PTENX036-33/LAT-186_PTENX036-033-43_33820_9276.tiff 33820 9276
/bmt-data/bii/datasets/3D-histology/pieces_new_selected/PTENX036-33/LAT-186_PTENX036-033-19_58108_9148.tiff 58108 9148
/bmt-data/bii/datasets/3D-histology/pieces_new_selected/PTENX036-33/LAT-186_PTENX036-033-22_4412_3948.tiff 4412 3948
/bmt-data/bii/datasets/3D-histology/pieces_new_selected/PTENX036-33/LAT-186_PTENX036-033-25_7244_3948.tiff 7244 3948
/bmt-data/bii/datasets/3D-histology/pieces_new_selected/PTENX036-33/LAT-186_PTENX036-033-37_6716_3964.tiff 6716 3964
/bmt-data/bii/datasets/3D-histology/pieces_new_selected/PTENX036-33/LAT-186_PTENX036-033-46_10124_3964.tiff 10124 3964
/bmt-data/bii/datasets/3D-histology/pieces_new_selected/PTENX036-33/LAT-186_PTENX036-033-46_10124_3964.tiff 10124 3964
/bmt-data/bii/datasets/3D-histology/pieces_new_selected/PTENX036-33/LAT-186_PTENX036-033-49_65228_4060.tiff 65228 4060
/bmt-data/bii/datasets/3D-histology/pieces_new_selected/PTENX036-33/LAT-186_PTENX036-033-49_65228_4060.tiff 65228 4060
/bmt-data/bii/datasets/3D-histology/pieces_new_selected/PTENX036-33/LAT-186_PTENX036-033-16_6524_4268.tiff 6524 4268
/bmt-data/bii/datasets/3D-histology/pieces_new_selected/PTENX036-011/Lat-186_PtenX036-011-88_601_64492_29244.tiff 64492 29244
/bmt-data/bii/datasets/3D-histology/pieces_new_selected/PTENX036-011/Lat-186_PtenX036-011-79_31384_79292_31372.tiff 79292 31372
/bmt-data/bii/datasets/3D-histology/pieces_new_selected/PTENX036-011/Lat-186_PtenX036-011-52_23961_64076_24220.tiff 64076 24220
/bmt-data/bii/datasets/3D-histology/pieces_new_selected/PTENX036-011/Lat-186_PtenX036-011-52_23961_64076_24220.tiff 64076 24220
/bmt-data/bii/datasets/3D-histology/pieces_new_selected/PTENX036-011/Lat-186_PtenX036-011-52_23961_64076_24220.tiff 64076 24220
/bmt-data/bii/datasets/3D-histology/pieces_new_selected/PTENX036-011/Lat-186_PtenX036-011-55_15528_35708_27052.tiff 35708 27052
/bmt-data/bii/datasets/3D-histology/pieces_new_selected/PTENX036-011/Lat-186_PtenX036-011-55_15528_35708_27052.tiff 35708 27052
/bmt-data/bii/datasets/3D-histology/pieces_new_selected/PTENX036-011/Lat-186_PtenX036-011-55_15528_35708_27052.tiff 35708 27052
/bmt-data/bii/datasets/3D-histology/pieces_new_selected/PTENX036-011/Lat-186_PtenX036-011-85_32765_69500_27404.tiff 69500 27404
/bmt-data/bii/datasets/3D-histology/pieces_new_selected/PTENX036-011/Lat-186_PtenX036-011-58_25555_76572_24604.tiff 76572 24604
/bmt-data/bii/datasets/3D-histology/pieces_new_selected/PTENX036-011/Lat-186_PtenX036-011-58_25555_76572_24604.tiff 76572 24604
/bmt-data/bii/datasets/3D-histology/pieces_new_selected/PTENX036-011/Lat-186_PtenX036-011-61_26309_13580_23964.tiff 13580 23964
/bmt-data/bii/datasets/3D-histology/pieces_new_selected/PTENX036-011/Lat-186_PtenX036-011-64_26949_73356_29340.tiff 73356 29340
/bmt-data/bii/datasets/3D-histology/pieces_new_selected/PTENX036-011/Lat-186_PtenX036-011-70_28807_67884_27244.tiff 67884 27244
/bmt-data/bii/datasets/3D-histology/pieces_new_selected/PTENX036-011/Lat-186_PtenX036-011-73_14646_13628_28124.tiff 13628 28124
/bmt-data/bii/datasets/3D-histology/pieces_new_selected/PTENX036-011/Lat-186_PtenX036-011-73_14646_13628_28124.tiff 13628 28124
/bmt-data/bii/datasets/3D-histology/pieces_new_selected/PTENX036-011/Lat-186_PtenX036-011-76_30659_17820_30844.tiff 17820 30844
/bmt-data/bii/datasets/3D-histology/pieces_new_selected/PTENX036-011/Lat-186_PtenX036-011-91_1333_24492_37228.tiff 24492 37228
/bmt-data/bii/datasets/3D-histology/pieces_new_selected/PTENX036-011/Lat-186_PtenX036-011-25_16940_10364_23436.tiff 10364 23436
/bmt-data/bii/datasets/3D-histology/pieces_new_selected/PTENX036-011/Lat-186_PtenX036-011-28_17678_21900_24556.tiff 21900 24556
/bmt-data/bii/datasets/3D-histology/pieces_new_selected/PTENX036-011/Lat-186_PtenX036-011-31_18563_50380_23148.tiff 50380 23148
/bmt-data/bii/datasets/3D-histology/pieces_new_selected/PTENX036-011/Lat-186_PtenX036-011-34_19298_20924_23900.tiff 20924 23900
/bmt-data/bii/datasets/3D-histology/pieces_new_selected/PTENX036-011/Lat-186_PtenX036-011-34_19298_20924_23900.tiff 20924 23900
/bmt-data/bii/datasets/3D-histology/pieces_new_selected/PTENX036-011/Lat-186_PtenX036-011-37_16880_13804_26268.tiff 13804 26268
/bmt-data/bii/datasets/3D-histology/pieces_new_selected/PTENX036-011/Lat-186_PtenX036-011-37_16880_13804_26268.tiff 13804 26268
/bmt-data/bii/datasets/3D-histology/pieces_new_selected/PTENX036-011/Lat-186_PtenX036-011-40_20434_12140_25452.tiff 12140 25452
/bmt-data/bii/datasets/3D-histology/pieces_new_selected/PTENX036-011/Lat-186_PtenX036-011-40_20434_12140_25452.tiff 12140 25452
/bmt-data/bii/datasets/3D-histology/pieces_new_selected/PTENX036-011/Lat-186_PtenX036-011-43_21192_19628_18108.tiff 19628 18108
/bmt-data/bii/datasets/3D-histology/pieces_new_selected/PTENX036-011/Lat-186_PtenX036-011-43_21192_19628_18108.tiff 19628 18108
/bmt-data/bii/datasets/3D-histology/pieces_new_selected/PTENX036-011/Lat-186_PtenX036-011-46_21946_14316_25068.tiff 14316 25068
/bmt-data/bii/datasets/3D-histology/pieces_new_selected/PTENX036-011/Lat-186_PtenX036-011-46_21946_14316_25068.tiff 14316 25068
/bmt-data/bii/datasets/3D-histology/pieces_new_selected/PTENX036-011/Lat-186_PtenX036-011-49_22818_11260_25596.tiff 11260 25596
/bmt-data/bii/datasets/3D-histology/pieces_new_selected/PTENX036-011/Lat-186_PtenX036-011-49_22818_11260_25596.tiff 11260 25596
/bmt-data/bii/datasets/3D-histology/pieces_new_selected/PTENX036-011/Lat-186_PtenX036-011-49_22818_11260_25596.tiff 11260 25596
/bmt-data/bii/datasets/3D-histology/pieces_new_selected/PTENX036-011/Lat-186_PtenX036-011-76_30659_17820_30844.tiff 17820 30844
