9508 9180
4964 9532
4876 9428
5020 4700
7548 9380
5500 9732
6036 9068
5292 9156
5388 9060
4956 8876
4876 8532
5012 5980
5396 8988
6684 8532
5092 6092
4980 5540
4980 5260
5076 5116
5028 4660
9108 11804
9508 10420
8124 12740
11228 10020
7956 12876
11020 10012
10332 10644
10332 10644
9348 11276
9348 11276
9932 9244
9932 9244
6236 8212
6236 8212
8620 5012
8620 5012
9452 9684
9252 9004
9252 9004
8220 9580
9092 8484
9084 7076
8220 9900
7524 8044
8508 6812
8156 7020
8380 6164
7732 6716
7732 6716
6524 8644
6284 8852
7052 8572
6476 8908
7284 8628
6196 8940
7676 8148
8028 8132
6916 8812
7372 7820
4876 7652
9028 6372
9028 6372
6876 9548
6876 9548
6524 8644
6116 5404
5540 5228
5684 5724
5876 5612
5172 4940
5092 9596
5108 9380
6076 9684
5724 6764
5796 6516
5932 6324
5596 5916
5924 5884
5588 5876
9964 8492
9900 7436
8284 9172
8284 9172
7140 6244
7140 6244
9772 8844
10740 7268
9164 9044
9308 8084
6756 6436
6756 6436
6340 7028
6340 7028
9292 9204
3364 5468
4596 5964
6100 8788
6100 8788
6100 8788
6556 8188
6556 8188
6556 8188
3660 5740
5468 7348
5468 7348
5932 7004
5500 6660
5092 6156
5148 5948
5148 5948
4700 5812
3740 5484
6788 9484
6708 9268
7460 9156
6436 9788
6436 9788
6396 9524
6396 9524
6556 9580
6556 9580
6444 9900
6444 9900
6284 9276
6284 9276
6324 9140
6324 9140
6324 9140
4700 5812
