/bmt-data/bii/datasets/3D-histology/pieces_subsampled_masks/PTENX036-14/Lat-186_Ptenx036-14-25_514_S1_A.png	/bmt-data/bii/datasets/3D-histology/pieces_subsampled/PTENX036-14/Lat-186_Ptenx036-14-25_514_S1.jp2 1170 460	/bmt-data/bii/datasets/3D-histology/pieces_new_selected/PTENX036-14/Lat-186_Ptenx036-14-25_514_4092_4028.tiff 4092 4028	19016 18360	/bmt-data/bii/datasets/3D-histology/pieces_new_tumormasks_subsampled/PTENX036-14/Lat-186_Ptenx036-14-25_514_4092_4028_A.png
/bmt-data/bii/datasets/3D-histology/pieces_subsampled_masks/PTENX036-14/Lat-186_Ptenx036-14-16_30571_S1_A.png	/bmt-data/bii/datasets/3D-histology/pieces_subsampled/PTENX036-14/Lat-186_Ptenx036-14-16_30571_S1.jp2 670 480	/bmt-data/bii/datasets/3D-histology/pieces_new_selected/PTENX036-14/Lat-186_Ptenx036-14-16_30571_4204_6172.tiff 4204 6172	9928 19064	/bmt-data/bii/datasets/3D-histology/pieces_new_tumormasks_subsampled/PTENX036-14/Lat-186_Ptenx036-14-16_30571_4204_6172_F.png
/bmt-data/bii/datasets/3D-histology/pieces_subsampled_masks/PTENX036-14/Lat-186_Ptenx036-14-22_32348_S1_A.png	/bmt-data/bii/datasets/3D-histology/pieces_subsampled/PTENX036-14/Lat-186_Ptenx036-14-22_32348_S1.jp2 898 478	/bmt-data/bii/datasets/3D-histology/pieces_new_selected/PTENX036-14/Lat-186_Ptenx036-14-22_32348_4236_8460.tiff 4236 8460	9752 18856	/bmt-data/bii/datasets/3D-histology/pieces_new_tumormasks_subsampled/PTENX036-14/Lat-186_Ptenx036-14-22_32348_4236_8460_A.png
/bmt-data/bii/datasets/3D-histology/pieces_subsampled_masks/PTENX036-14/Lat-186_Ptenx036-14-76_S1_C.png	/bmt-data/bii/datasets/3D-histology/pieces_subsampled/PTENX036-14/Lat-186_Ptenx036-14-76_S1.jp2 3637 1888	/bmt-data/bii/datasets/3D-histology/pieces_new_selected/PTENX036-14/Lat-186_Ptenx036-14-76_18364_35788.tiff 18364 35788	10040 9400	/bmt-data/bii/datasets/3D-histology/pieces_new_tumormasks_subsampled/PTENX036-14/Lat-186_Ptenx036-14-76_18364_35788_C.png
/bmt-data/bii/datasets/3D-histology/pieces_subsampled_masks/PTENX036-14/Lat-186_Ptenx036-14-28_1389_S1_A.png	/bmt-data/bii/datasets/3D-histology/pieces_subsampled/PTENX036-14/Lat-186_Ptenx036-14-28_1389_S1.jp2 624 564	/bmt-data/bii/datasets/3D-histology/pieces_new_selected/PTENX036-14/Lat-186_Ptenx036-14-28_1389_4236_3804.tiff 4236 3804	15096 18760	/bmt-data/bii/datasets/3D-histology/pieces_new_tumormasks_subsampled/PTENX036-14/Lat-186_Ptenx036-14-28_1389_4236_3804_F.png
/bmt-data/bii/datasets/3D-histology/pieces_subsampled_masks/PTENX036-14/Lat-186_Ptenx036-14-31_2225_S1_A.png	/bmt-data/bii/datasets/3D-histology/pieces_subsampled/PTENX036-14/Lat-186_Ptenx036-14-31_2225_S1.jp2 540 472	/bmt-data/bii/datasets/3D-histology/pieces_new_selected/PTENX036-14/Lat-186_Ptenx036-14-31_2225_4220_4876.tiff 4220 4876	11000 19464	/bmt-data/bii/datasets/3D-histology/pieces_new_tumormasks_subsampled/PTENX036-14/Lat-186_Ptenx036-14-31_2225_4220_4876_A.png
/bmt-data/bii/datasets/3D-histology/pieces_subsampled_masks/PTENX036-14/Lat-186_Ptenx036-14-34_3058_S1_A.png	/bmt-data/bii/datasets/3D-histology/pieces_subsampled/PTENX036-14/Lat-186_Ptenx036-14-34_3058_S1.jp2 470 422	/bmt-data/bii/datasets/3D-histology/pieces_new_selected/PTENX036-14/Lat-186_Ptenx036-14-34_3058_4252_4172.tiff 4252 4172	12072 18136	/bmt-data/bii/datasets/3D-histology/pieces_new_tumormasks_subsampled/PTENX036-14/Lat-186_Ptenx036-14-34_3058_4252_4172_A.png
/bmt-data/bii/datasets/3D-histology/pieces_subsampled_masks/PTENX036-14/Lat-186_Ptenx036-14-37_3855_S1_A.png	/bmt-data/bii/datasets/3D-histology/pieces_subsampled/PTENX036-14/Lat-186_Ptenx036-14-37_3855_S1.jp2 472 480	/bmt-data/bii/datasets/3D-histology/pieces_new_selected/PTENX036-14/Lat-186_Ptenx036-14-37_3855_4284_4156.tiff 4284 4156	10584 18312	/bmt-data/bii/datasets/3D-histology/pieces_new_tumormasks_subsampled/PTENX036-14/Lat-186_Ptenx036-14-37_3855_4284_4156_A.png
/bmt-data/bii/datasets/3D-histology/pieces_subsampled_masks/PTENX036-14/Lat-186_Ptenx036-14-40_4651_S3_A.png	/bmt-data/bii/datasets/3D-histology/pieces_subsampled/PTENX036-14/Lat-186_Ptenx036-14-40_4651_S3.jp2 514 5932	/bmt-data/bii/datasets/3D-histology/pieces_new_selected/PTENX036-14/Lat-186_Ptenx036-14-40_4651_58828_4588.tiff 58828 4588	10776 18120	/bmt-data/bii/datasets/3D-histology/pieces_new_tumormasks_subsampled/PTENX036-14/Lat-186_Ptenx036-14-40_4651_58828_4588_A.png
/bmt-data/bii/datasets/3D-histology/pieces_subsampled_masks/PTENX036-14/Lat-186_Ptenx036-14-46_6222_S1_A.png	/bmt-data/bii/datasets/3D-histology/pieces_subsampled/PTENX036-14/Lat-186_Ptenx036-14-46_6222_S1.jp2 662 476	/bmt-data/bii/datasets/3D-histology/pieces_new_selected/PTENX036-14/Lat-186_Ptenx036-14-46_6222_4252_6060.tiff 4252 6060	9912 17752	/bmt-data/bii/datasets/3D-histology/pieces_new_tumormasks_subsampled/PTENX036-14/Lat-186_Ptenx036-14-46_6222_4252_6060_F.png
/bmt-data/bii/datasets/3D-histology/pieces_subsampled_masks/PTENX036-14/Lat-186_Ptenx036-14-49_7012_S1_A.png	/bmt-data/bii/datasets/3D-histology/pieces_subsampled/PTENX036-14/Lat-186_Ptenx036-14-49_7012_S1.jp2 668 476	/bmt-data/bii/datasets/3D-histology/pieces_new_selected/PTENX036-14/Lat-186_Ptenx036-14-49_7012_4236_6172.tiff 4236 6172	9752 17064	/bmt-data/bii/datasets/3D-histology/pieces_new_tumormasks_subsampled/PTENX036-14/Lat-186_Ptenx036-14-49_7012_4236_6172_B.png
/bmt-data/bii/datasets/3D-histology/pieces_subsampled_masks/PTENX036-14/Lat-186_Ptenx036-14-61_9899_S1_B.png	/bmt-data/bii/datasets/3D-histology/pieces_subsampled/PTENX036-14/Lat-186_Ptenx036-14-61_9899_S1.jp2 930 468	/bmt-data/bii/datasets/3D-histology/pieces_new_selected/PTENX036-14/Lat-186_Ptenx036-14-61_9899_4364_8796.tiff 4364 8796	10024 11960	/bmt-data/bii/datasets/3D-histology/pieces_new_tumormasks_subsampled/PTENX036-14/Lat-186_Ptenx036-14-61_9899_4364_8796_B.png
/bmt-data/bii/datasets/3D-histology/pieces_subsampled_masks/PTENX036-14/Lat-186_Ptenx036-14-43_5451_S3_A.png	/bmt-data/bii/datasets/3D-histology/pieces_subsampled/PTENX036-14/Lat-186_Ptenx036-14-43_5451_S3.jp2 688 6322	/bmt-data/bii/datasets/3D-histology/pieces_new_selected/PTENX036-14/Lat-186_Ptenx036-14-43_5451_62556_6332.tiff 62556 6332	10792 17976	/bmt-data/bii/datasets/3D-histology/pieces_new_tumormasks_subsampled/PTENX036-14/Lat-186_Ptenx036-14-43_5451_62556_6332.png
/bmt-data/bii/datasets/3D-histology/pieces_subsampled_masks/PTENX036-14/Lat-186_Ptenx036-14-19_31401_S1_A.png	/bmt-data/bii/datasets/3D-histology/pieces_subsampled/PTENX036-14/Lat-186_Ptenx036-14-19_31401_S1.jp2 472 462	/bmt-data/bii/datasets/3D-histology/pieces_new_selected/PTENX036-14/Lat-186_Ptenx036-14-19_31401_4028_4204.tiff 4028 4204	13368 17064	/bmt-data/bii/datasets/3D-histology/pieces_new_tumormasks_subsampled/PTENX036-14/Lat-186_Ptenx036-14-19_31401_4028_4204_A.png
/bmt-data/bii/datasets/3D-histology/pieces_subsampled_masks/PTENX036-14/Lat-186_Ptenx036-14-64_10722_S3_B.png	/bmt-data/bii/datasets/3D-histology/pieces_subsampled/PTENX036-14/Lat-186_Ptenx036-14-64_10722_S3.jp2 488 6040	/bmt-data/bii/datasets/3D-histology/pieces_new_selected/PTENX036-14/Lat-186_Ptenx036-14-64_10722_59884_4316.tiff 59884 4316	10184 12184	/bmt-data/bii/datasets/3D-histology/pieces_new_tumormasks_subsampled/PTENX036-14/Lat-186_Ptenx036-14-64_10722_59884_4316_B.png
/bmt-data/bii/datasets/3D-histology/pieces_subsampled_masks/PTENX036-14/Lat-186_Ptenx036-14-67_11401_S1_B.png	/bmt-data/bii/datasets/3D-histology/pieces_subsampled/PTENX036-14/Lat-186_Ptenx036-14-67_11401_S1.jp2 494 480	/bmt-data/bii/datasets/3D-histology/pieces_new_selected/PTENX036-14/Lat-186_Ptenx036-14-67_11401_4284_4316.tiff 4284 4316	9960 11080	/bmt-data/bii/datasets/3D-histology/pieces_new_tumormasks_subsampled/PTENX036-14/Lat-186_Ptenx036-14-67_11401_4284_4316_B.png
/bmt-data/bii/datasets/3D-histology/pieces_subsampled_masks/PTENX036-14/Lat-186_Ptenx036-14-70_12107_S1_C.png	/bmt-data/bii/datasets/3D-histology/pieces_subsampled/PTENX036-14/Lat-186_Ptenx036-14-70_12107_S1.jp2 804 478	/bmt-data/bii/datasets/3D-histology/pieces_new_selected/PTENX036-14/Lat-186_Ptenx036-14-70_12107_4268_7404.tiff 4268 7404	9960 10520	/bmt-data/bii/datasets/3D-histology/pieces_new_tumormasks_subsampled/PTENX036-14/Lat-186_Ptenx036-14-70_12107_4268_7404_C.png
/bmt-data/bii/datasets/3D-histology/pieces_subsampled_masks/PTENX036-14/Lat-186_Ptenx036-14-73_12763_S1_C.png	/bmt-data/bii/datasets/3D-histology/pieces_subsampled/PTENX036-14/Lat-186_Ptenx036-14-73_12763_S1.jp2 742 458	/bmt-data/bii/datasets/3D-histology/pieces_new_selected/PTENX036-14/Lat-186_Ptenx036-14-73_12763_4060_6780.tiff 4060 6780	10152 10232	/bmt-data/bii/datasets/3D-histology/pieces_new_tumormasks_subsampled/PTENX036-14/Lat-186_Ptenx036-14-73_12763_4060_6780_C.png
/bmt-data/bii/datasets/3D-histology/pieces_subsampled_masks/PTENX036-14/Lat-186_Ptenx036-14-79_14174_S1_C.png	/bmt-data/bii/datasets/3D-histology/pieces_subsampled/PTENX036-14/Lat-186_Ptenx036-14-79_14174_S1.jp2 764 484	/bmt-data/bii/datasets/3D-histology/pieces_new_selected/PTENX036-14/Lat-186_Ptenx036-14-79_14174_4252_7004.tiff 4252 7004	10056 9320	/bmt-data/bii/datasets/3D-histology/pieces_new_tumormasks_subsampled/PTENX036-14/Lat-186_Ptenx036-14-79_14174_4252_7004_C.png
/bmt-data/bii/datasets/3D-histology/pieces_subsampled_masks/PTENX036-15/Lat-186_PTENX036-15-19_10420_S2_A.png	/bmt-data/bii/datasets/3D-histology/pieces_subsampled/PTENX036-15/Lat-186_PTENX036-15-19_10420_S2.jp2 2042 3418	/bmt-data/bii/datasets/3D-histology/pieces_new_selected/PTENX036-15/Lat-186_PTENX036-15-19_10420_34636_18140.tiff 34636 18140	18216 23608	/bmt-data/bii/datasets/3D-histology/pieces_new_tumormasks_subsampled/PTENX036-15/Lat-186_PTENX036-15-19_10420_34636_18140_A.png
/bmt-data/bii/datasets/3D-histology/pieces_subsampled_masks/PTENX036-15/Lat-186_PTENX036-15-22_11660_S2_A.png	/bmt-data/bii/datasets/3D-histology/pieces_subsampled/PTENX036-15/Lat-186_PTENX036-15-22_11660_S2.jp2 1864 3162	/bmt-data/bii/datasets/3D-histology/pieces_new_selected/PTENX036-15/Lat-186_PTENX036-15-22_11660_31532_17260.tiff 31532 17260	19016 20840	/bmt-data/bii/datasets/3D-histology/pieces_new_tumormasks_subsampled/PTENX036-15/Lat-186_PTENX036-15-22_11660_31532_17260_A.png
/bmt-data/bii/datasets/3D-histology/pieces_subsampled_masks/PTENX036-15/Lat-186_PTENX036-15-25_12862_S1_A.png	/bmt-data/bii/datasets/3D-histology/pieces_subsampled/PTENX036-15/Lat-186_PTENX036-15-25_12862_S1.jp2 492 2162	/bmt-data/bii/datasets/3D-histology/pieces_new_selected/PTENX036-15/Lat-186_PTENX036-15-25_12862_23052_4108.tiff 23052 4108	16248 25480	/bmt-data/bii/datasets/3D-histology/pieces_new_tumormasks_subsampled/PTENX036-15/Lat-186_PTENX036-15-25_12862_23052_4108_A.png
/bmt-data/bii/datasets/3D-histology/pieces_subsampled_masks/PTENX036-15/Lat-186_PTENX036-15-28_13933_S1_A.png	/bmt-data/bii/datasets/3D-histology/pieces_subsampled/PTENX036-15/Lat-186_PTENX036-15-28_13933_S1.jp2 948 428	/bmt-data/bii/datasets/3D-histology/pieces_new_selected/PTENX036-15/Lat-186_PTENX036-15-28_13933_4492_8844.tiff 4492 8844	22456 20040	/bmt-data/bii/datasets/3D-histology/pieces_new_tumormasks_subsampled/PTENX036-15/Lat-186_PTENX036-15-28_13933_4492_8844_A.png
/bmt-data/bii/datasets/3D-histology/pieces_subsampled_masks/PTENX036-15/Lat-186_PTENX036-15-31_15017_S3_A.png	/bmt-data/bii/datasets/3D-histology/pieces_subsampled/PTENX036-15/Lat-186_PTENX036-15-31_15017_S3.jp2 944 5740	/bmt-data/bii/datasets/3D-histology/pieces_new_selected/PTENX036-15/Lat-186_PTENX036-15-31_15017_56908_8908.tiff 56908 8908	15912 25752	/bmt-data/bii/datasets/3D-histology/pieces_new_tumormasks_subsampled/PTENX036-15/Lat-186_PTENX036-15-31_15017_56908_8908_A.png
/bmt-data/bii/datasets/3D-histology/pieces_subsampled_masks/PTENX036-15/Lat-186_PTENX036-15-34_16275_S1_A.png	/bmt-data/bii/datasets/3D-histology/pieces_subsampled/PTENX036-15/Lat-186_PTENX036-15-34_16275_S1.jp2 2488 1678	/bmt-data/bii/datasets/3D-histology/pieces_new_selected/PTENX036-15/Lat-186_PTENX036-15-34_16275_17052_24364.tiff 17052 24364	22040 20024	/bmt-data/bii/datasets/3D-histology/pieces_new_tumormasks_subsampled/PTENX036-15/Lat-186_PTENX036-15-34_16275_17052_24364_A.png
/bmt-data/bii/datasets/3D-histology/pieces_subsampled_masks/PTENX036-15/Lat-186_PTENX036-15-37_17372_S1_A.png	/bmt-data/bii/datasets/3D-histology/pieces_subsampled/PTENX036-15/Lat-186_PTENX036-15-37_17372_S1.jp2 834 316	/bmt-data/bii/datasets/3D-histology/pieces_new_selected/PTENX036-15/Lat-186_PTENX036-15-37_17372_4924_7820.tiff 4924 7820	20664 21288	/bmt-data/bii/datasets/3D-histology/pieces_new_tumormasks_subsampled/PTENX036-15/Lat-186_PTENX036-15-37_17372_4924_7820_A.png
/bmt-data/bii/datasets/3D-histology/pieces_subsampled_masks/PTENX036-15/Lat-186_PTENX036-15-37_17372_S1_C.png	/bmt-data/bii/datasets/3D-histology/pieces_subsampled/PTENX036-15/Lat-186_PTENX036-15-37_17372_S1.jp2 834 316	/bmt-data/bii/datasets/3D-histology/pieces_new_selected/PTENX036-15/Lat-186_PTENX036-15-37_17372_4924_7820.tiff 4924 7820	20664 21288	/bmt-data/bii/datasets/3D-histology/pieces_new_tumormasks_subsampled/PTENX036-15/Lat-186_PTENX036-15-37_17372_4924_7820_C.png
/bmt-data/bii/datasets/3D-histology/pieces_subsampled_masks/PTENX036-15/Lat-186_PTENX036-15-40_18459_S1_A.png	/bmt-data/bii/datasets/3D-histology/pieces_subsampled/PTENX036-15/Lat-186_PTENX036-15-40_18459_S1.jp2 468 740	/bmt-data/bii/datasets/3D-histology/pieces_new_selected/PTENX036-15/Lat-186_PTENX036-15-40_18459_6876_4156.tiff 6876 4156	18696 22552	/bmt-data/bii/datasets/3D-histology/pieces_new_tumormasks_subsampled/PTENX036-15/Lat-186_PTENX036-15-40_18459_6876_4156_A.png
/bmt-data/bii/datasets/3D-histology/pieces_subsampled_masks/PTENX036-15/Lat-186_PTENX036-15-40_18459_S1_C.png	/bmt-data/bii/datasets/3D-histology/pieces_subsampled/PTENX036-15/Lat-186_PTENX036-15-40_18459_S1.jp2 468 740	/bmt-data/bii/datasets/3D-histology/pieces_new_selected/PTENX036-15/Lat-186_PTENX036-15-40_18459_6876_4156.tiff 6876 4156	18696 22552	/bmt-data/bii/datasets/3D-histology/pieces_new_tumormasks_subsampled/PTENX036-15/Lat-186_PTENX036-15-40_18459_6876_4156_C.png
/bmt-data/bii/datasets/3D-histology/pieces_subsampled_masks/PTENX036-15/Lat-186_PTENX036-15-43_19599_S1_A.png	/bmt-data/bii/datasets/3D-histology/pieces_subsampled/PTENX036-15/Lat-186_PTENX036-15-43_19599_S1.jp2 830 2080	/bmt-data/bii/datasets/3D-histology/pieces_new_selected/PTENX036-15/Lat-186_PTENX036-15-43_19599_20556_9932.tiff 20556 9932	19864 18488	/bmt-data/bii/datasets/3D-histology/pieces_new_tumormasks_subsampled/PTENX036-15/Lat-186_PTENX036-15-43_19599_20556_9932_A.png
/bmt-data/bii/datasets/3D-histology/pieces_subsampled_masks/PTENX036-15/Lat-186_PTENX036-15-43_19599_S1_C.png	/bmt-data/bii/datasets/3D-histology/pieces_subsampled/PTENX036-15/Lat-186_PTENX036-15-43_19599_S1.jp2 830 2080	/bmt-data/bii/datasets/3D-histology/pieces_new_selected/PTENX036-15/Lat-186_PTENX036-15-43_19599_20556_9932.tiff 20556 9932	19864 18488	/bmt-data/bii/datasets/3D-histology/pieces_new_tumormasks_subsampled/PTENX036-15/Lat-186_PTENX036-15-43_19599_20556_9932_C.png
/bmt-data/bii/datasets/3D-histology/pieces_subsampled_masks/PTENX036-15/Lat-186_PTENX036-15-85_200_S3_F.png	/bmt-data/bii/datasets/3D-histology/pieces_subsampled/PTENX036-15/Lat-186_PTENX036-15-85_200_S3.jp2 2260 5818	/bmt-data/bii/datasets/3D-histology/pieces_new_selected/PTENX036-15/Lat-186_PTENX036-15-85_200_57644_21948.tiff 57644 21948	12472 16424	/bmt-data/bii/datasets/3D-histology/pieces_new_tumormasks_subsampled/PTENX036-15/Lat-186_PTENX036-15-85_200_57644_21948_F.png
/bmt-data/bii/datasets/3D-histology/pieces_subsampled_masks/PTENX036-15/Lat-186_PTENX036-15-85_200_S3_H.png	/bmt-data/bii/datasets/3D-histology/pieces_subsampled/PTENX036-15/Lat-186_PTENX036-15-85_200_S3.jp2 2260 5818	/bmt-data/bii/datasets/3D-histology/pieces_new_selected/PTENX036-15/Lat-186_PTENX036-15-85_200_57644_21948.tiff 57644 21948	12472 16424	/bmt-data/bii/datasets/3D-histology/pieces_new_tumormasks_subsampled/PTENX036-15/Lat-186_PTENX036-15-85_200_57644_21948_H.png
/bmt-data/bii/datasets/3D-histology/pieces_subsampled_masks/PTENX036-15/Lat-186_PTENX036-15-88_899_S1_F.png	/bmt-data/bii/datasets/3D-histology/pieces_subsampled/PTENX036-15/Lat-186_PTENX036-15-88_899_S1.jp2 1118 486	/bmt-data/bii/datasets/3D-histology/pieces_new_selected/PTENX036-15/Lat-186_PTENX036-15-88_899_4348_10684.tiff 4348 10684	17240 10024	/bmt-data/bii/datasets/3D-histology/pieces_new_tumormasks_subsampled/PTENX036-15/Lat-186_PTENX036-15-88_899_4348_10684_F.png
/bmt-data/bii/datasets/3D-histology/pieces_subsampled_masks/PTENX036-15/Lat-186_PTENX036-15-88_899_S1_H.png	/bmt-data/bii/datasets/3D-histology/pieces_subsampled/PTENX036-15/Lat-186_PTENX036-15-88_899_S1.jp2 1118 486	/bmt-data/bii/datasets/3D-histology/pieces_new_selected/PTENX036-15/Lat-186_PTENX036-15-88_899_4348_10684.tiff 4348 10684	17240 10024	/bmt-data/bii/datasets/3D-histology/pieces_new_tumormasks_subsampled/PTENX036-15/Lat-186_PTENX036-15-88_899_4348_10684_H.png
/bmt-data/bii/datasets/3D-histology/pieces_subsampled_masks/PTENX036-15/Lat-186_PTENX036-15-46_20768_S1_C.png	/bmt-data/bii/datasets/3D-histology/pieces_subsampled/PTENX036-15/Lat-186_PTENX036-15-46_20768_S1.jp2 546 478	/bmt-data/bii/datasets/3D-histology/pieces_new_selected/PTENX036-15/Lat-186_PTENX036-15-46_20768_4284_4892.tiff 4284 4892	18904 19368	/bmt-data/bii/datasets/3D-histology/pieces_new_tumormasks_subsampled/PTENX036-15/Lat-186_PTENX036-15-46_20768_4284_4892_C.png
/bmt-data/bii/datasets/3D-histology/pieces_subsampled_masks/PTENX036-15/Lat-186_PTENX036-15-49_21826_S1_C.png	/bmt-data/bii/datasets/3D-histology/pieces_subsampled/PTENX036-15/Lat-186_PTENX036-15-49_21826_S1.jp2 466 386	/bmt-data/bii/datasets/3D-histology/pieces_new_selected/PTENX036-15/Lat-186_PTENX036-15-49_21826_4204_4140.tiff 4204 4140	18504 18008	/bmt-data/bii/datasets/3D-histology/pieces_new_tumormasks_subsampled/PTENX036-15/Lat-186_PTENX036-15-49_21826_4204_4140_C.png
/bmt-data/bii/datasets/3D-histology/pieces_subsampled_masks/PTENX036-15/Lat-186_PTENX036-15-49_21826_S1_E.png	/bmt-data/bii/datasets/3D-histology/pieces_subsampled/PTENX036-15/Lat-186_PTENX036-15-49_21826_S1.jp2 466 386	/bmt-data/bii/datasets/3D-histology/pieces_new_selected/PTENX036-15/Lat-186_PTENX036-15-49_21826_4204_4140.tiff 4204 4140	18504 18008	/bmt-data/bii/datasets/3D-histology/pieces_new_tumormasks_subsampled/PTENX036-15/Lat-186_PTENX036-15-49_21826_4204_4140_E.png
/bmt-data/bii/datasets/3D-histology/pieces_subsampled_masks/PTENX036-15/Lat-186_PTENX036-15-52_22874_S3_E.png	/bmt-data/bii/datasets/3D-histology/pieces_subsampled/PTENX036-15/Lat-186_PTENX036-15-52_22874_S3.jp2 1792 4930	/bmt-data/bii/datasets/3D-histology/pieces_new_selected/PTENX036-15/Lat-186_PTENX036-15-52_22874_49260_17244.tiff 49260 17244	16440 19160	/bmt-data/bii/datasets/3D-histology/pieces_new_tumormasks_subsampled/PTENX036-15/Lat-186_PTENX036-15-52_22874_49260_17244_E.png
/bmt-data/bii/datasets/3D-histology/pieces_subsampled_masks/PTENX036-15/Lat-186_PTENX036-15-55_23884_S1_E.png	/bmt-data/bii/datasets/3D-histology/pieces_subsampled/PTENX036-15/Lat-186_PTENX036-15-55_23884_S1.jp2 590 450	/bmt-data/bii/datasets/3D-histology/pieces_new_selected/PTENX036-15/Lat-186_PTENX036-15-55_23884_4188_5260.tiff 4188 5260	18184 16968	/bmt-data/bii/datasets/3D-histology/pieces_new_tumormasks_subsampled/PTENX036-15/Lat-186_PTENX036-15-55_23884_4188_5260_E.png
/bmt-data/bii/datasets/3D-histology/pieces_subsampled_masks/PTENX036-15/Lat-186_PTENX036-15-64_26666_S1_F.png	/bmt-data/bii/datasets/3D-histology/pieces_subsampled/PTENX036-15/Lat-186_PTENX036-15-64_26666_S1.jp2 934 482	/bmt-data/bii/datasets/3D-histology/pieces_new_selected/PTENX036-15/Lat-186_PTENX036-15-64_26666_4316_8764.tiff 4316 8764	18168 14152	/bmt-data/bii/datasets/3D-histology/pieces_new_tumormasks_subsampled/PTENX036-15/Lat-186_PTENX036-15-64_26666_4316_8764_F.png
/bmt-data/bii/datasets/3D-histology/pieces_subsampled_masks/PTENX036-15/Lat-186_PTENX036-15-67_27616_S3_F.png	/bmt-data/bii/datasets/3D-histology/pieces_subsampled/PTENX036-15/Lat-186_PTENX036-15-67_27616_S3.jp2 858 5160	/bmt-data/bii/datasets/3D-histology/pieces_new_selected/PTENX036-15/Lat-186_PTENX036-15-67_27616_51068_8012.tiff 51068 8012	16440 19800	/bmt-data/bii/datasets/3D-histology/pieces_new_tumormasks_subsampled/PTENX036-15/Lat-186_PTENX036-15-67_27616_51068_8012_F.png
/bmt-data/bii/datasets/3D-histology/pieces_subsampled_masks/PTENX036-15/Lat-186_PTENX036-15-73_29461_S3_F.png	/bmt-data/bii/datasets/3D-histology/pieces_subsampled/PTENX036-15/Lat-186_PTENX036-15-73_29461_S3.jp2 512 7700	/bmt-data/bii/datasets/3D-histology/pieces_new_selected/PTENX036-15/Lat-186_PTENX036-15-73_29461_76492_4604.tiff 76492 4604	15048 16088	/bmt-data/bii/datasets/3D-histology/pieces_new_tumormasks_subsampled/PTENX036-15/Lat-186_PTENX036-15-73_29461_76492_4604_F.png
/bmt-data/bii/datasets/3D-histology/pieces_subsampled_masks/PTENX036-15/Lat-186_PTENX036-15-76_30287_S1_F.png	/bmt-data/bii/datasets/3D-histology/pieces_subsampled/PTENX036-15/Lat-186_PTENX036-15-76_30287_S1.jp2 638 482	/bmt-data/bii/datasets/3D-histology/pieces_new_selected/PTENX036-15/Lat-186_PTENX036-15-76_30287_4252_5644.tiff 4252 5644	17016 13624	/bmt-data/bii/datasets/3D-histology/pieces_new_tumormasks_subsampled/PTENX036-15/Lat-186_PTENX036-15-76_30287_4252_5644_F.png
/bmt-data/bii/datasets/3D-histology/pieces_subsampled_masks/PTENX036-15/Lat-186_PTENX036-15-79_31130_S1_F.png	/bmt-data/bii/datasets/3D-histology/pieces_subsampled/PTENX036-15/Lat-186_PTENX036-15-79_31130_S1.jp2 510 474	/bmt-data/bii/datasets/3D-histology/pieces_new_selected/PTENX036-15/Lat-186_PTENX036-15-79_31130_4220_4572.tiff 4220 4572	16312 14040	/bmt-data/bii/datasets/3D-histology/pieces_new_tumormasks_subsampled/PTENX036-15/Lat-186_PTENX036-15-79_31130_4220_4572_F.png
/bmt-data/bii/datasets/3D-histology/pieces_subsampled_masks/PTENX036-15/Lat-186_PTENX036-15-82_31982_S1_F.png	/bmt-data/bii/datasets/3D-histology/pieces_subsampled/PTENX036-15/Lat-186_PTENX036-15-82_31982_S1.jp2 786 476	/bmt-data/bii/datasets/3D-histology/pieces_new_selected/PTENX036-15/Lat-186_PTENX036-15-82_31982_4172_7340.tiff 4172 7340	16760 12328	/bmt-data/bii/datasets/3D-histology/pieces_new_tumormasks_subsampled/PTENX036-15/Lat-186_PTENX036-15-82_31982_4172_7340_F.png
/bmt-data/bii/datasets/3D-histology/pieces_subsampled_masks/PTENX036-15/Lat-186_PTENX036-15-91_12327_S1_F.png	/bmt-data/bii/datasets/3D-histology/pieces_subsampled/PTENX036-15/Lat-186_PTENX036-15-91_12327_S1.jp2 518 394	/bmt-data/bii/datasets/3D-histology/pieces_new_selected/PTENX036-15/Lat-186_PTENX036-15-91_12327_4284_4668.tiff 4284 4668	15464 13432	/bmt-data/bii/datasets/3D-histology/pieces_new_tumormasks_subsampled/PTENX036-15/Lat-186_PTENX036-15-91_12327_4284_4668_F.png
/bmt-data/bii/datasets/3D-histology/pieces_subsampled_masks/PTENX036-15/Lat-186_PTENX036-15-91_12327_S1_H.png	/bmt-data/bii/datasets/3D-histology/pieces_subsampled/PTENX036-15/Lat-186_PTENX036-15-91_12327_S1.jp2 518 394	/bmt-data/bii/datasets/3D-histology/pieces_new_selected/PTENX036-15/Lat-186_PTENX036-15-91_12327_4284_4668.tiff 4284 4668	15464 13432	/bmt-data/bii/datasets/3D-histology/pieces_new_tumormasks_subsampled/PTENX036-15/Lat-186_PTENX036-15-91_12327_4284_4668_H.png
/bmt-data/bii/datasets/3D-histology/pieces_subsampled_masks/PTENX036-20/Lat-186_PTENX036-20-13_10374_S3_A.png	/bmt-data/bii/datasets/3D-histology/pieces_subsampled/PTENX036-20/Lat-186_PTENX036-20-13_10374_S3.jp2 2754 6956	/bmt-data/bii/datasets/3D-histology/pieces_new_selected/PTENX036-20/Lat-186_PTENX036-20-13_10374_69052_26892.tiff 69052 26892	13048 17288	/bmt-data/bii/datasets/3D-histology/pieces_new_tumormasks_subsampled/PTENX036-20/Lat-186_PTENX036-20-13_10374_69052_26892_A.png
/bmt-data/bii/datasets/3D-histology/pieces_subsampled_masks/PTENX036-20/Lat-186_PTENX036-20-16_11400_S3_A.png	/bmt-data/bii/datasets/3D-histology/pieces_subsampled/PTENX036-20/Lat-186_PTENX036-20-16_11400_S3.jp2 1552 4943	/bmt-data/bii/datasets/3D-histology/pieces_new_selected/PTENX036-20/Lat-186_PTENX036-20-16_11400_48940_15004.tiff 48940 15004	12568 17704	/bmt-data/bii/datasets/3D-histology/pieces_new_tumormasks_subsampled/PTENX036-20/Lat-186_PTENX036-20-16_11400_48940_15004_A.png
/bmt-data/bii/datasets/3D-histology/pieces_subsampled_masks/PTENX036-20/Lat-186_PTENX036-20-19_12402_S3_A.png	/bmt-data/bii/datasets/3D-histology/pieces_subsampled/PTENX036-20/Lat-186_PTENX036-20-19_12402_S3.jp2 1076 5126	/bmt-data/bii/datasets/3D-histology/pieces_new_selected/PTENX036-20/Lat-186_PTENX036-20-19_12402_50620_10252.tiff 50620 10252	14104 17144	/bmt-data/bii/datasets/3D-histology/pieces_new_tumormasks_subsampled/PTENX036-20/Lat-186_PTENX036-20-19_12402_50620_10252_A.png
/bmt-data/bii/datasets/3D-histology/pieces_subsampled_masks/PTENX036-20/Lat-186_PTENX036-20-22_13320_S3_A.png	/bmt-data/bii/datasets/3D-histology/pieces_subsampled/PTENX036-20/Lat-186_PTENX036-20-22_13320_S3.jp2 754 4933	/bmt-data/bii/datasets/3D-histology/pieces_new_selected/PTENX036-20/Lat-186_PTENX036-20-22_13320_48780_7020.tiff 48780 7020	12952 17816	/bmt-data/bii/datasets/3D-histology/pieces_new_tumormasks_subsampled/PTENX036-20/Lat-186_PTENX036-20-22_13320_48780_7020_A.png
/bmt-data/bii/datasets/3D-histology/pieces_subsampled_masks/PTENX036-20/Lat-186_PTENX036-20-25_14254_S3_A.png	/bmt-data/bii/datasets/3D-histology/pieces_subsampled/PTENX036-20/Lat-186_PTENX036-20-25_14254_S3.jp2 1296 4913	/bmt-data/bii/datasets/3D-histology/pieces_new_selected/PTENX036-20/Lat-186_PTENX036-20-25_14254_48620_12444.tiff 48620 12444	14568 17256	/bmt-data/bii/datasets/3D-histology/pieces_new_tumormasks_subsampled/PTENX036-20/Lat-186_PTENX036-20-25_14254_48620_12444_A.png
/bmt-data/bii/datasets/3D-histology/pieces_subsampled_masks/PTENX036-20/Lat-186_PTENX036-20-28_15266_S3_A.png	/bmt-data/bii/datasets/3D-histology/pieces_subsampled/PTENX036-20/Lat-186_PTENX036-20-28_15266_S3.jp2 3272 5772	/bmt-data/bii/datasets/3D-histology/pieces_new_selected/PTENX036-20/Lat-186_PTENX036-20-28_15266_57212_32220.tiff 57212 32220	12392 17880	/bmt-data/bii/datasets/3D-histology/pieces_new_tumormasks_subsampled/PTENX036-20/Lat-186_PTENX036-20-28_15266_57212_32220_A.png
/bmt-data/bii/datasets/3D-histology/pieces_subsampled_masks/PTENX036-20/Lat-186_PTENX036-20-58_24811_S1_F.png	/bmt-data/bii/datasets/3D-histology/pieces_subsampled/PTENX036-20/Lat-186_PTENX036-20-58_24811_S1.jp2 1892 460	/bmt-data/bii/datasets/3D-histology/pieces_new_selected/PTENX036-20/Lat-186_PTENX036-20-58_24811_4092_18396.tiff 4092 18396	15352 16296	/bmt-data/bii/datasets/3D-histology/pieces_new_tumormasks_subsampled/PTENX036-20/Lat-186_PTENX036-20-58_24811_4092_18396_F.png
/bmt-data/bii/datasets/3D-histology/pieces_subsampled_masks/PTENX036-20/Lat-186_PTENX036-20-61_25670_S1_F.png	/bmt-data/bii/datasets/3D-histology/pieces_subsampled/PTENX036-20/Lat-186_PTENX036-20-61_25670_S1.jp2 466 478	/bmt-data/bii/datasets/3D-histology/pieces_new_selected/PTENX036-20/Lat-186_PTENX036-20-61_25670_4268_4124.tiff 4268 4124	16056 16264	/bmt-data/bii/datasets/3D-histology/pieces_new_tumormasks_subsampled/PTENX036-20/Lat-186_PTENX036-20-61_25670_4268_4124_F.png
/bmt-data/bii/datasets/3D-histology/pieces_subsampled_masks/PTENX036-20/Lat-186_PTENX036-20-64_26470_S3_F.png	/bmt-data/bii/datasets/3D-histology/pieces_subsampled/PTENX036-20/Lat-186_PTENX036-20-64_26470_S3.jp2 470 5409	/bmt-data/bii/datasets/3D-histology/pieces_new_selected/PTENX036-20/Lat-186_PTENX036-20-64_26470_53516_4188.tiff 53516 4188	13832 17624	/bmt-data/bii/datasets/3D-histology/pieces_new_tumormasks_subsampled/PTENX036-20/Lat-186_PTENX036-20-64_26470_53516_4188_F.png
/bmt-data/bii/datasets/3D-histology/pieces_subsampled_masks/PTENX036-20/Lat-186_PTENX036-20-67_27365_S1_F.png	/bmt-data/bii/datasets/3D-histology/pieces_subsampled/PTENX036-20/Lat-186_PTENX036-20-67_27365_S1.jp2 1136 482	/bmt-data/bii/datasets/3D-histology/pieces_new_selected/PTENX036-20/Lat-186_PTENX036-20-67_27365_4252_10732.tiff 4252 10732	14744 15640	/bmt-data/bii/datasets/3D-histology/pieces_new_tumormasks_subsampled/PTENX036-20/Lat-186_PTENX036-20-67_27365_4252_10732_F.png
/bmt-data/bii/datasets/3D-histology/pieces_subsampled_masks/PTENX036-20/Lat-186_PTENX036-20-4_7399_S3_A.png	/bmt-data/bii/datasets/3D-histology/pieces_subsampled/PTENX036-20/Lat-186_PTENX036-20-4_7399_S3.jp2 808 4946	/bmt-data/bii/datasets/3D-histology/pieces_new_selected/PTENX036-20/Lat-186_PTENX036-20-4_7399_48940_7548.tiff 48940 7548	9752 15304	/bmt-data/bii/datasets/3D-histology/pieces_new_tumormasks_subsampled/PTENX036-20/Lat-186_PTENX036-20-4_7399_48940_7548_A.png
/bmt-data/bii/datasets/3D-histology/pieces_subsampled_masks/PTENX036-20/Lat-186_PTENX036-20-7_8428_S1_A.png	/bmt-data/bii/datasets/3D-histology/pieces_subsampled/PTENX036-20/Lat-186_PTENX036-20-7_8428_S1.jp2 604 2218	/bmt-data/bii/datasets/3D-histology/pieces_new_selected/PTENX036-20/Lat-186_PTENX036-20-7_8428_21884_3820.tiff 21884 3820	18056 12744	/bmt-data/bii/datasets/3D-histology/pieces_new_tumormasks_subsampled/PTENX036-20/Lat-186_PTENX036-20-7_8428_21884_3820_A.png
/bmt-data/bii/datasets/3D-histology/pieces_subsampled_masks/PTENX036-20/Lat-186_PTENX036-20-7_8428_S1_C.png	/bmt-data/bii/datasets/3D-histology/pieces_subsampled/PTENX036-20/Lat-186_PTENX036-20-7_8428_S1.jp2 604 2218	/bmt-data/bii/datasets/3D-histology/pieces_new_selected/PTENX036-20/Lat-186_PTENX036-20-7_8428_21884_3820.tiff 21884 3820	18056 12744	/bmt-data/bii/datasets/3D-histology/pieces_new_tumormasks_subsampled/PTENX036-20/Lat-186_PTENX036-20-7_8428_21884_3820_C.png
/bmt-data/bii/datasets/3D-histology/pieces_subsampled_masks/PTENX036-20/Lat-186_PTENX036-20-10_9375_S1_A.png	/bmt-data/bii/datasets/3D-histology/pieces_subsampled/PTENX036-20/Lat-186_PTENX036-20-10_9375_S1.jp2 738 638	/bmt-data/bii/datasets/3D-histology/pieces_new_selected/PTENX036-20/Lat-186_PTENX036-20-10_9375_4156_6300.tiff 4156 6300	13752 19096	/bmt-data/bii/datasets/3D-histology/pieces_new_tumormasks_subsampled/PTENX036-20/Lat-186_PTENX036-20-10_9375_4156_6300_A.png
/bmt-data/bii/datasets/3D-histology/pieces_subsampled_masks/PTENX036-20/Lat-186_PTENX036-20-10_9375_S1_C.png	/bmt-data/bii/datasets/3D-histology/pieces_subsampled/PTENX036-20/Lat-186_PTENX036-20-10_9375_S1.jp2 738 638	/bmt-data/bii/datasets/3D-histology/pieces_new_selected/PTENX036-20/Lat-186_PTENX036-20-10_9375_4156_6300.tiff 4156 6300	13752 19096	/bmt-data/bii/datasets/3D-histology/pieces_new_tumormasks_subsampled/PTENX036-20/Lat-186_PTENX036-20-10_9375_4156_6300_C.png
/bmt-data/bii/datasets/3D-histology/pieces_subsampled_masks/PTENX036-20/Lat-186_PTENX036-20-13_10374_S3C.png	/bmt-data/bii/datasets/3D-histology/pieces_subsampled/PTENX036-20/Lat-186_PTENX036-20-13_10374_S3.jp2 2754 6956	/bmt-data/bii/datasets/3D-histology/pieces_new_selected/PTENX036-20/Lat-186_PTENX036-20-13_10374_69052_26892.tiff 69052 26892	13048 17288	/bmt-data/bii/datasets/3D-histology/pieces_new_tumormasks_subsampled/PTENX036-20/Lat-186_PTENX036-20-13_10374_69052_26892_C.png
/bmt-data/bii/datasets/3D-histology/pieces_subsampled_masks/PTENX036-32/LAT-186_PTENX036-032-61_1447_S1_C.png	/bmt-data/bii/datasets/3D-histology/pieces_subsampled/PTENX036-32/LAT-186_PTENX036-032-61_1447_S1.jp2 844 466	/bmt-data/bii/datasets/3D-histology/pieces_new_selected/PTENX036-32/LAT-186_PTENX036-032-61_1447_4460_7916.tiff 4460 7916	12232 10808	/bmt-data/bii/datasets/3D-histology/pieces_new_tumormasks_subsampled/PTENX036-32/LAT-186_PTENX036-032-61_1447_4460_7916_C.png
/bmt-data/bii/datasets/3D-histology/pieces_subsampled_masks/PTENX036-32/LAT-186_PTENX036-032-64_2143_S1_C.png	/bmt-data/bii/datasets/3D-histology/pieces_subsampled/PTENX036-32/LAT-186_PTENX036-032-64_2143_S1.jp2 476 470	/bmt-data/bii/datasets/3D-histology/pieces_new_selected/PTENX036-32/LAT-186_PTENX036-032-64_2143_4156_4236.tiff 4156 4236	11080 10456	/bmt-data/bii/datasets/3D-histology/pieces_new_tumormasks_subsampled/PTENX036-32/LAT-186_PTENX036-032-64_2143_4156_4236_C.png
/bmt-data/bii/datasets/3D-histology/pieces_subsampled_masks/PTENX036-32/LAT-186_PTENX036-032-67_2809_S3_C.png	/bmt-data/bii/datasets/3D-histology/pieces_subsampled/PTENX036-32/LAT-186_PTENX036-032-67_2809_S3.jp2 464 5614	/bmt-data/bii/datasets/3D-histology/pieces_new_selected/PTENX036-32/LAT-186_PTENX036-032-67_2809_55564_4124.tiff 55564 4124	11368 11448	/bmt-data/bii/datasets/3D-histology/pieces_new_tumormasks_subsampled/PTENX036-32/LAT-186_PTENX036-032-67_2809_55564_4124_C.png
/bmt-data/bii/datasets/3D-histology/pieces_subsampled_masks/PTENX036-32/LAT-186_PTENX036-032-70_3482_S3_C.png	/bmt-data/bii/datasets/3D-histology/pieces_subsampled/PTENX036-32/LAT-186_PTENX036-032-70_3482_S3.jp2 470 5290	/bmt-data/bii/datasets/3D-histology/pieces_new_selected/PTENX036-32/LAT-186_PTENX036-032-70_3482_52364_4188.tiff 52364 4188	11752 11224	/bmt-data/bii/datasets/3D-histology/pieces_new_tumormasks_subsampled/PTENX036-32/LAT-186_PTENX036-032-70_3482_52364_4188_C.png
/bmt-data/bii/datasets/3D-histology/pieces_subsampled_masks/PTENX036-32/LAT-186_PTENX036-032-73_4118_S1_C.png	/bmt-data/bii/datasets/3D-histology/pieces_subsampled/PTENX036-32/LAT-186_PTENX036-032-73_4118_S1.jp2 642 468	/bmt-data/bii/datasets/3D-histology/pieces_new_selected/PTENX036-32/LAT-186_PTENX036-032-73_4118_4188_5804.tiff 4188 5804	10344 9880	/bmt-data/bii/datasets/3D-histology/pieces_new_tumormasks_subsampled/PTENX036-32/LAT-186_PTENX036-032-73_4118_4188_5804_C.png
/bmt-data/bii/datasets/3D-histology/pieces_subsampled_masks/PTENX036-32/LAT-186_PTENX036-032-13_21688_S1_A.png	/bmt-data/bii/datasets/3D-histology/pieces_subsampled/PTENX036-32/LAT-186_PTENX036-032-13_21688_S1.jp2 470 454	/bmt-data/bii/datasets/3D-histology/pieces_new_selected/PTENX036-32/LAT-186_PTENX036-032-13_21688_3996_4124.tiff 3996 4124	10184 19192	/bmt-data/bii/datasets/3D-histology/pieces_new_tumormasks_subsampled/PTENX036-32/LAT-186_PTENX036-032-13_21688_3996_4124_A.png
/bmt-data/bii/datasets/3D-histology/pieces_subsampled_masks/PTENX036-32/LAT-186_PTENX036-032-16_22590_S1_A.png	/bmt-data/bii/datasets/3D-histology/pieces_subsampled/PTENX036-32/LAT-186_PTENX036-032-16_22590_S1.jp2 770 482	/bmt-data/bii/datasets/3D-histology/pieces_new_selected/PTENX036-32/LAT-186_PTENX036-032-16_22590_4284_7180.tiff 4284 7180	10216 18760	/bmt-data/bii/datasets/3D-histology/pieces_new_tumormasks_subsampled/PTENX036-32/LAT-186_PTENX036-032-16_22590_4284_7180_A.png
/bmt-data/bii/datasets/3D-histology/pieces_subsampled_masks/PTENX036-32/LAT-186_PTENX036-032-19_23370_S1_A.png	/bmt-data/bii/datasets/3D-histology/pieces_subsampled/PTENX036-32/LAT-186_PTENX036-032-19_23370_S1.jp2 562 488	/bmt-data/bii/datasets/3D-histology/pieces_new_selected/PTENX036-32/LAT-186_PTENX036-032-19_23370_4284_5116.tiff 4284 5116	12152 19368	/bmt-data/bii/datasets/3D-histology/pieces_new_tumormasks_subsampled/PTENX036-32/LAT-186_PTENX036-032-19_23370_4284_5116_A.png
/bmt-data/bii/datasets/3D-histology/pieces_subsampled_masks/PTENX036-32/LAT-186_PTENX036-032-43_29647_S3_B.png	/bmt-data/bii/datasets/3D-histology/pieces_subsampled/PTENX036-32/LAT-186_PTENX036-032-43_29647_S3.jp2 640 5722	/bmt-data/bii/datasets/3D-histology/pieces_new_selected/PTENX036-32/LAT-186_PTENX036-032-43_29647_56940_5884.tiff 56940 5884	11448 13528	/bmt-data/bii/datasets/3D-histology/pieces_new_tumormasks_subsampled/PTENX036-32/LAT-186_PTENX036-032-43_29647_56940_5884_B.png
/bmt-data/bii/datasets/3D-histology/pieces_subsampled_masks/PTENX036-32/LAT-186_PTENX036-032-46_30437_S3_B.png	/bmt-data/bii/datasets/3D-histology/pieces_subsampled/PTENX036-32/LAT-186_PTENX036-032-46_30437_S3.jp2 476 6079	/bmt-data/bii/datasets/3D-histology/pieces_new_selected/PTENX036-32/LAT-186_PTENX036-032-46_30437_60252_4236.tiff 60252 4236	11592 13032	/bmt-data/bii/datasets/3D-histology/pieces_new_tumormasks_subsampled/PTENX036-32/LAT-186_PTENX036-032-46_30437_60252_4236_B.png
/bmt-data/bii/datasets/3D-histology/pieces_subsampled_masks/PTENX036-32/LAT-186_PTENX036-032-49_31185_S1_B.png	/bmt-data/bii/datasets/3D-histology/pieces_subsampled/PTENX036-32/LAT-186_PTENX036-032-49_31185_S1.jp2 466 478	/bmt-data/bii/datasets/3D-histology/pieces_new_selected/PTENX036-32/LAT-186_PTENX036-032-49_31185_4268_4140.tiff 4268 4140	11864 12648	/bmt-data/bii/datasets/3D-histology/pieces_new_tumormasks_subsampled/PTENX036-32/LAT-186_PTENX036-032-49_31185_4268_4140_B.png
/bmt-data/bii/datasets/3D-histology/pieces_subsampled_masks/PTENX036-32/LAT-186_PTENX036-032-52_31906_S1_C.png	/bmt-data/bii/datasets/3D-histology/pieces_subsampled/PTENX036-32/LAT-186_PTENX036-032-52_31906_S1.jp2 468 472	/bmt-data/bii/datasets/3D-histology/pieces_new_selected/PTENX036-32/LAT-186_PTENX036-032-52_31906_4204_4172.tiff 4204 4172	11192 11832	/bmt-data/bii/datasets/3D-histology/pieces_new_tumormasks_subsampled/PTENX036-32/LAT-186_PTENX036-032-52_31906_4204_4172_C.png
/bmt-data/bii/datasets/3D-histology/pieces_subsampled_masks/PTENX036-32/LAT-186_PTENX036-032-55_32677_S1_C.png	/bmt-data/bii/datasets/3D-histology/pieces_subsampled/PTENX036-32/LAT-186_PTENX036-032-55_32677_S1.jp2 482 480	/bmt-data/bii/datasets/3D-histology/pieces_new_selected/PTENX036-32/LAT-186_PTENX036-032-55_32677_4252_4300.tiff 4252 4300	11848 11768	/bmt-data/bii/datasets/3D-histology/pieces_new_tumormasks_subsampled/PTENX036-32/LAT-186_PTENX036-032-55_32677_4252_4300_C.png
/bmt-data/bii/datasets/3D-histology/pieces_subsampled_masks/PTENX036-32/LAT-186_PTENX036-032-58_712_S1_C.png	/bmt-data/bii/datasets/3D-histology/pieces_subsampled/PTENX036-32/LAT-186_PTENX036-032-58_712_S1.jp2 470 2688	/bmt-data/bii/datasets/3D-histology/pieces_new_selected/PTENX036-32/LAT-186_PTENX036-032-58_712_26380_4188.tiff 26380 4188	11176 11752	/bmt-data/bii/datasets/3D-histology/pieces_new_tumormasks_subsampled/PTENX036-32/LAT-186_PTENX036-032-58_712_26380_4188_C.png
/bmt-data/bii/datasets/3D-histology/pieces_subsampled_masks/PTENX036-33/LAT-186_PTENX036-033-28_S2_A.png	/bmt-data/bii/datasets/3D-histology/pieces_subsampled/PTENX036-33/LAT-186_PTENX036-033-28_S2.jp2 580 3260	/bmt-data/bii/datasets/3D-histology/pieces_new_selected/PTENX036-33/LAT-186_PTENX036-033-28_32092_5212.tiff 32092 5212	19928 16984	/bmt-data/bii/datasets/3D-histology/pieces_new_tumormasks_subsampled/PTENX036-33/LAT-186_PTENX036-033-28_32092_5212_A.png
/bmt-data/bii/datasets/3D-histology/pieces_subsampled_masks/PTENX036-33/LAT-186_PTENX036-033-31_S2_A.png	/bmt-data/bii/datasets/3D-histology/pieces_subsampled/PTENX036-33/LAT-186_PTENX036-033-31_S2.jp2 622 3102	/bmt-data/bii/datasets/3D-histology/pieces_new_selected/PTENX036-33/LAT-186_PTENX036-033-31_30412_5660.tiff 30412 5660	19800 14872	/bmt-data/bii/datasets/3D-histology/pieces_new_tumormasks_subsampled/PTENX036-33/LAT-186_PTENX036-033-31_30412_5660_A.png
/bmt-data/bii/datasets/3D-histology/pieces_subsampled_masks/PTENX036-33/LAT-186_PTENX036-033-40_S2_A.png	/bmt-data/bii/datasets/3D-histology/pieces_subsampled/PTENX036-33/LAT-186_PTENX036-033-40_S2.jp2 596 3592	/bmt-data/bii/datasets/3D-histology/pieces_new_selected/PTENX036-33/LAT-186_PTENX036-033-40_4236_9884.tiff 4236 9884	16568 18344	/bmt-data/bii/datasets/3D-histology/pieces_new_tumormasks_subsampled/PTENX036-33/LAT-186_PTENX036-033-40_4236_9884_A.png
/bmt-data/bii/datasets/3D-histology/pieces_subsampled_masks/PTENX036-33/LAT-186_PTENX036-033-40_S2_B.png	/bmt-data/bii/datasets/3D-histology/pieces_subsampled/PTENX036-33/LAT-186_PTENX036-033-40_S2.jp2 596 3592	/bmt-data/bii/datasets/3D-histology/pieces_new_selected/PTENX036-33/LAT-186_PTENX036-033-40_4236_9884.tiff 4236 9884	16568 18344	/bmt-data/bii/datasets/3D-histology/pieces_new_tumormasks_subsampled/PTENX036-33/LAT-186_PTENX036-033-40_4236_9884_B.png
/bmt-data/bii/datasets/3D-histology/pieces_subsampled_masks/PTENX036-33/LAT-186_PTENX036-033-43_S2_A.png	/bmt-data/bii/datasets/3D-histology/pieces_subsampled/PTENX036-33/LAT-186_PTENX036-033-43_S2.jp2 978 3436	/bmt-data/bii/datasets/3D-histology/pieces_new_selected/PTENX036-33/LAT-186_PTENX036-033-43_33820_9276.tiff 33820 9276	14280 12488	/bmt-data/bii/datasets/3D-histology/pieces_new_tumormasks_subsampled/PTENX036-33/LAT-186_PTENX036-033-43_33820_9276_A.png
/bmt-data/bii/datasets/3D-histology/pieces_subsampled_masks/PTENX036-33/LAT-186_PTENX036-033-43_S2_B.png	/bmt-data/bii/datasets/3D-histology/pieces_subsampled/PTENX036-33/LAT-186_PTENX036-033-43_S2.jp2 978 3436	/bmt-data/bii/datasets/3D-histology/pieces_new_selected/PTENX036-33/LAT-186_PTENX036-033-43_33820_9276.tiff 33820 9276	14280 12488	/bmt-data/bii/datasets/3D-histology/pieces_new_tumormasks_subsampled/PTENX036-33/LAT-186_PTENX036-033-43_33820_9276_B.png
/bmt-data/bii/datasets/3D-histology/pieces_subsampled_masks/PTENX036-33/LAT-186_PTENX036-033-19_S3_A.png	/bmt-data/bii/datasets/3D-histology/pieces_subsampled/PTENX036-33/LAT-186_PTENX036-033-19_S3.jp2 966 5862	/bmt-data/bii/datasets/3D-histology/pieces_new_selected/PTENX036-33/LAT-186_PTENX036-033-19_58108_9148.tiff 58108 9148	19544 17688	/bmt-data/bii/datasets/3D-histology/pieces_new_tumormasks_subsampled/PTENX036-33/LAT-186_PTENX036-033-19_58108_9148_A.png
/bmt-data/bii/datasets/3D-histology/pieces_subsampled_masks/PTENX036-33/LAT-186_PTENX036-033-22_S1_A.png	/bmt-data/bii/datasets/3D-histology/pieces_subsampled/PTENX036-33/LAT-186_PTENX036-033-22_S1.jp2 444 496	/bmt-data/bii/datasets/3D-histology/pieces_new_selected/PTENX036-33/LAT-186_PTENX036-033-22_4412_3948.tiff 4412 3948	21480 14536	/bmt-data/bii/datasets/3D-histology/pieces_new_tumormasks_subsampled/PTENX036-33/LAT-186_PTENX036-033-22_4412_3948_A.png
/bmt-data/bii/datasets/3D-histology/pieces_subsampled_masks/PTENX036-33/LAT-186_PTENX036-033-25_S1_A.png	/bmt-data/bii/datasets/3D-histology/pieces_subsampled/PTENX036-33/LAT-186_PTENX036-033-25_S1.jp2 446 778	/bmt-data/bii/datasets/3D-histology/pieces_new_selected/PTENX036-33/LAT-186_PTENX036-033-25_7244_3948.tiff 7244 3948	18328 18088	/bmt-data/bii/datasets/3D-histology/pieces_new_tumormasks_subsampled/PTENX036-33/LAT-186_PTENX036-033-25_7244_3948_A.png
/bmt-data/bii/datasets/3D-histology/pieces_subsampled_masks/PTENX036-33/LAT-186_PTENX036-033-37_S1_A.png	/bmt-data/bii/datasets/3D-histology/pieces_subsampled/PTENX036-33/LAT-186_PTENX036-033-37_S1.jp2 446 722	/bmt-data/bii/datasets/3D-histology/pieces_new_selected/PTENX036-33/LAT-186_PTENX036-033-37_6716_3964.tiff 6716 3964	18616 16168	/bmt-data/bii/datasets/3D-histology/pieces_new_tumormasks_subsampled/PTENX036-33/LAT-186_PTENX036-033-37_6716_3964_A.png
/bmt-data/bii/datasets/3D-histology/pieces_subsampled_masks/PTENX036-33/LAT-186_PTENX036-033-46_S1_A.png	/bmt-data/bii/datasets/3D-histology/pieces_subsampled/PTENX036-33/LAT-186_PTENX036-033-46_S1.jp2 448 1034	/bmt-data/bii/datasets/3D-histology/pieces_new_selected/PTENX036-33/LAT-186_PTENX036-033-46_10124_3964.tiff 10124 3964	13512 12872	/bmt-data/bii/datasets/3D-histology/pieces_new_tumormasks_subsampled/PTENX036-33/LAT-186_PTENX036-033-46_10124_3964_A.png
/bmt-data/bii/datasets/3D-histology/pieces_subsampled_masks/PTENX036-33/LAT-186_PTENX036-033-46_S1_B.png	/bmt-data/bii/datasets/3D-histology/pieces_subsampled/PTENX036-33/LAT-186_PTENX036-033-46_S1.jp2 448 1034	/bmt-data/bii/datasets/3D-histology/pieces_new_selected/PTENX036-33/LAT-186_PTENX036-033-46_10124_3964.tiff 10124 3964	13512 12872	/bmt-data/bii/datasets/3D-histology/pieces_new_tumormasks_subsampled/PTENX036-33/LAT-186_PTENX036-033-46_10124_3964_B.png
/bmt-data/bii/datasets/3D-histology/pieces_subsampled_masks/PTENX036-33/LAT-186_PTENX036-033-49_S3_A.png	/bmt-data/bii/datasets/3D-histology/pieces_subsampled/PTENX036-33/LAT-186_PTENX036-033-49_S3.jp2 458 6592	/bmt-data/bii/datasets/3D-histology/pieces_new_selected/PTENX036-33/LAT-186_PTENX036-033-49_65228_4060.tiff 65228 4060	12680 14056	/bmt-data/bii/datasets/3D-histology/pieces_new_tumormasks_subsampled/PTENX036-33/LAT-186_PTENX036-033-49_65228_4060_A.png
/bmt-data/bii/datasets/3D-histology/pieces_subsampled_masks/PTENX036-33/LAT-186_PTENX036-033-49_S3_B.png	/bmt-data/bii/datasets/3D-histology/pieces_subsampled/PTENX036-33/LAT-186_PTENX036-033-49_S3.jp2 458 6592	/bmt-data/bii/datasets/3D-histology/pieces_new_selected/PTENX036-33/LAT-186_PTENX036-033-49_65228_4060.tiff 65228 4060	12680 14056	/bmt-data/bii/datasets/3D-histology/pieces_new_tumormasks_subsampled/PTENX036-33/LAT-186_PTENX036-033-49_65228_4060_B.png
/bmt-data/bii/datasets/3D-histology/pieces_subsampled_masks/PTENX036-33/LAT-186_PTENX036-033-16_S1_A.png	/bmt-data/bii/datasets/3D-histology/pieces_subsampled/PTENX036-33/LAT-186_PTENX036-033-16_S1.jp2 484 714	/bmt-data/bii/datasets/3D-histology/pieces_new_selected/PTENX036-33/LAT-186_PTENX036-033-16_6524_4268.tiff 6524 4268	18584 18408	/bmt-data/bii/datasets/3D-histology/pieces_new_tumormasks_subsampled/PTENX036-33/LAT-186_PTENX036-033-16_6524_4268_A.png
/bmt-data/bii/datasets/3D-histology/pieces_subsampled_masks/PTENX036-011/Lat-186_PtenX036-011-88_601_S3_G.png	/bmt-data/bii/datasets/3D-histology/pieces_subsampled/PTENX036-011/Lat-186_PtenX036-011-88_601_S3.jp2 2978 6492	/bmt-data/bii/datasets/3D-histology/pieces_new_selected/PTENX036-011/Lat-186_PtenX036-011-88_601_64492_29244.tiff 64492 29244	6728 10936	/bmt-data/bii/datasets/3D-histology/pieces_new_tumormasks_subsampled/PTENX036-011/Lat-186_PtenX036-011-88_601_64492_29244_G.png
/bmt-data/bii/datasets/3D-histology/pieces_subsampled_masks/PTENX036-011/Lat-186_PtenX036-011-79_31384_S3_F.png	/bmt-data/bii/datasets/3D-histology/pieces_subsampled/PTENX036-011/Lat-186_PtenX036-011-79_31384_S3.jp2 3189 7980	/bmt-data/bii/datasets/3D-histology/pieces_new_selected/PTENX036-011/Lat-186_PtenX036-011-79_31384_79292_31372.tiff 79292 31372	9192 11928	/bmt-data/bii/datasets/3D-histology/pieces_new_tumormasks_subsampled/PTENX036-011/Lat-186_PtenX036-011-79_31384_79292_31372_F.png
/bmt-data/bii/datasets/3D-histology/pieces_subsampled_masks/PTENX036-011/Lat-186_PtenX036-011-52_23961_S3_A.png	/bmt-data/bii/datasets/3D-histology/pieces_subsampled/PTENX036-011/Lat-186_PtenX036-011-52_23961_S3.jp2 2474 6479	/bmt-data/bii/datasets/3D-histology/pieces_new_selected/PTENX036-011/Lat-186_PtenX036-011-52_23961_64076_24220.tiff 64076 24220	12200 17576	/bmt-data/bii/datasets/3D-histology/pieces_new_tumormasks_subsampled/PTENX036-011/Lat-186_PtenX036-011-52_23961_64076_24220_A.png
/bmt-data/bii/datasets/3D-histology/pieces_subsampled_masks/PTENX036-011/Lat-186_PtenX036-011-52_23961_S3_B.png	/bmt-data/bii/datasets/3D-histology/pieces_subsampled/PTENX036-011/Lat-186_PtenX036-011-52_23961_S3.jp2 2474 6479	/bmt-data/bii/datasets/3D-histology/pieces_new_selected/PTENX036-011/Lat-186_PtenX036-011-52_23961_64076_24220.tiff 64076 24220	12200 17576	/bmt-data/bii/datasets/3D-histology/pieces_new_tumormasks_subsampled/PTENX036-011/Lat-186_PtenX036-011-52_23961_64076_24220_B.png
/bmt-data/bii/datasets/3D-histology/pieces_subsampled_masks/PTENX036-011/Lat-186_PtenX036-011-52_23961_S3_C.png	/bmt-data/bii/datasets/3D-histology/pieces_subsampled/PTENX036-011/Lat-186_PtenX036-011-52_23961_S3.jp2 2474 6479	/bmt-data/bii/datasets/3D-histology/pieces_new_selected/PTENX036-011/Lat-186_PtenX036-011-52_23961_64076_24220.tiff 64076 24220	12200 17576	/bmt-data/bii/datasets/3D-histology/pieces_new_tumormasks_subsampled/PTENX036-011/Lat-186_PtenX036-011-52_23961_64076_24220_C.png
/bmt-data/bii/datasets/3D-histology/pieces_subsampled_masks/PTENX036-011/Lat-186_PtenX036-011-55_15528_S2_A.png	/bmt-data/bii/datasets/3D-histology/pieces_subsampled/PTENX036-011/Lat-186_PtenX036-011-55_15528_S2.jp2 2842 3628	/bmt-data/bii/datasets/3D-histology/pieces_new_selected/PTENX036-011/Lat-186_PtenX036-011-55_15528_35708_27052.tiff 35708 27052	13112 16376	/bmt-data/bii/datasets/3D-histology/pieces_new_tumormasks_subsampled/PTENX036-011/Lat-186_PtenX036-011-55_15528_35708_27052_A.png
/bmt-data/bii/datasets/3D-histology/pieces_subsampled_masks/PTENX036-011/Lat-186_PtenX036-011-55_15528_S2_B.png	/bmt-data/bii/datasets/3D-histology/pieces_subsampled/PTENX036-011/Lat-186_PtenX036-011-55_15528_S2.jp2 2842 3628	/bmt-data/bii/datasets/3D-histology/pieces_new_selected/PTENX036-011/Lat-186_PtenX036-011-55_15528_35708_27052.tiff 35708 27052	13112 16376	/bmt-data/bii/datasets/3D-histology/pieces_new_tumormasks_subsampled/PTENX036-011/Lat-186_PtenX036-011-55_15528_35708_27052_B.png
/bmt-data/bii/datasets/3D-histology/pieces_subsampled_masks/PTENX036-011/Lat-186_PtenX036-011-55_15528_S2_C.png	/bmt-data/bii/datasets/3D-histology/pieces_subsampled/PTENX036-011/Lat-186_PtenX036-011-55_15528_S2.jp2 2842 3628	/bmt-data/bii/datasets/3D-histology/pieces_new_selected/PTENX036-011/Lat-186_PtenX036-011-55_15528_35708_27052.tiff 35708 27052	13112 16376	/bmt-data/bii/datasets/3D-histology/pieces_new_tumormasks_subsampled/PTENX036-011/Lat-186_PtenX036-011-55_15528_35708_27052_C.png
/bmt-data/bii/datasets/3D-histology/pieces_subsampled_masks/PTENX036-011/Lat-186_PtenX036-011-85_32765_S3_G.png	/bmt-data/bii/datasets/3D-histology/pieces_subsampled/PTENX036-011/Lat-186_PtenX036-011-85_32765_S3.jp2 2794 6998	/bmt-data/bii/datasets/3D-histology/pieces_new_selected/PTENX036-011/Lat-186_PtenX036-011-85_32765_69500_27404.tiff 69500 27404	7320 11480	/bmt-data/bii/datasets/3D-histology/pieces_new_tumormasks_subsampled/PTENX036-011/Lat-186_PtenX036-011-85_32765_69500_27404_G.png
/bmt-data/bii/datasets/3D-histology/pieces_subsampled_masks/PTENX036-011/Lat-186_PtenX036-011-58_25555_S3_A.png	/bmt-data/bii/datasets/3D-histology/pieces_subsampled/PTENX036-011/Lat-186_PtenX036-011-58_25555_S3.jp2 2444 7707	/bmt-data/bii/datasets/3D-histology/pieces_new_selected/PTENX036-011/Lat-186_PtenX036-011-58_25555_76572_24604.tiff 76572 24604	10936 14696	/bmt-data/bii/datasets/3D-histology/pieces_new_tumormasks_subsampled/PTENX036-011/Lat-186_PtenX036-011-58_25555_76572_24604_A.png
/bmt-data/bii/datasets/3D-histology/pieces_subsampled_masks/PTENX036-011/Lat-186_PtenX036-011-58_25555_S3_B.png	/bmt-data/bii/datasets/3D-histology/pieces_subsampled/PTENX036-011/Lat-186_PtenX036-011-58_25555_S3.jp2 2444 7707	/bmt-data/bii/datasets/3D-histology/pieces_new_selected/PTENX036-011/Lat-186_PtenX036-011-58_25555_76572_24604.tiff 76572 24604	10936 14696	/bmt-data/bii/datasets/3D-histology/pieces_new_tumormasks_subsampled/PTENX036-011/Lat-186_PtenX036-011-58_25555_76572_24604_B.png
/bmt-data/bii/datasets/3D-histology/pieces_subsampled_masks/PTENX036-011/Lat-186_PtenX036-011-61_26309_S1_A.png	/bmt-data/bii/datasets/3D-histology/pieces_subsampled/PTENX036-011/Lat-186_PtenX036-011-61_26309_S1.jp2 2448 1408	/bmt-data/bii/datasets/3D-histology/pieces_new_selected/PTENX036-011/Lat-186_PtenX036-011-61_26309_13580_23964.tiff 13580 23964	11864 14008	/bmt-data/bii/datasets/3D-histology/pieces_new_tumormasks_subsampled/PTENX036-011/Lat-186_PtenX036-011-61_26309_13580_23964_A.png
/bmt-data/bii/datasets/3D-histology/pieces_subsampled_masks/PTENX036-011/Lat-186_PtenX036-011-64_26949_S3_A.png	/bmt-data/bii/datasets/3D-histology/pieces_subsampled/PTENX036-011/Lat-186_PtenX036-011-64_26949_S3.jp2 2986 7387	/bmt-data/bii/datasets/3D-histology/pieces_new_selected/PTENX036-011/Lat-186_PtenX036-011-64_26949_73356_29340.tiff 73356 29340	11000 13320	/bmt-data/bii/datasets/3D-histology/pieces_new_tumormasks_subsampled/PTENX036-011/Lat-186_PtenX036-011-64_26949_73356_29340_A.png
/bmt-data/bii/datasets/3D-histology/pieces_subsampled_masks/PTENX036-011/Lat-186_PtenX036-011-70_28807_S3_E.png	/bmt-data/bii/datasets/3D-histology/pieces_subsampled/PTENX036-011/Lat-186_PtenX036-011-70_28807_S3.jp2 2776 6840	/bmt-data/bii/datasets/3D-histology/pieces_new_selected/PTENX036-011/Lat-186_PtenX036-011-70_28807_67884_27244.tiff 67884 27244	10184 12312	/bmt-data/bii/datasets/3D-histology/pieces_new_tumormasks_subsampled/PTENX036-011/Lat-186_PtenX036-011-70_28807_67884_27244_E.png
/bmt-data/bii/datasets/3D-histology/pieces_subsampled_masks/PTENX036-011/Lat-186_PtenX036-011-73_14646_S1_E.png	/bmt-data/bii/datasets/3D-histology/pieces_subsampled/PTENX036-011/Lat-186_PtenX036-011-73_14646_S1.jp2 2864 1414	/bmt-data/bii/datasets/3D-histology/pieces_new_selected/PTENX036-011/Lat-186_PtenX036-011-73_14646_13628_28124.tiff 13628 28124	10296 11896	/bmt-data/bii/datasets/3D-histology/pieces_new_tumormasks_subsampled/PTENX036-011/Lat-186_PtenX036-011-73_14646_13628_28124_E.png
/bmt-data/bii/datasets/3D-histology/pieces_subsampled_masks/PTENX036-011/Lat-186_PtenX036-011-73_14646_S1_F.png	/bmt-data/bii/datasets/3D-histology/pieces_subsampled/PTENX036-011/Lat-186_PtenX036-011-73_14646_S1.jp2 2864 1414	/bmt-data/bii/datasets/3D-histology/pieces_new_selected/PTENX036-011/Lat-186_PtenX036-011-73_14646_13628_28124.tiff 13628 28124	10296 11896	/bmt-data/bii/datasets/3D-histology/pieces_new_tumormasks_subsampled/PTENX036-011/Lat-186_PtenX036-011-73_14646_13628_28124_F.png
/bmt-data/bii/datasets/3D-histology/pieces_subsampled_masks/PTENX036-011/Lat-186_PtenX036-011-76_30659_S1_E.png	/bmt-data/bii/datasets/3D-histology/pieces_subsampled/PTENX036-011/Lat-186_PtenX036-011-76_30659_S1.jp2 3136 1834	/bmt-data/bii/datasets/3D-histology/pieces_new_selected/PTENX036-011/Lat-186_PtenX036-011-76_30659_17820_30844.tiff 17820 30844	9400 11624	/bmt-data/bii/datasets/3D-histology/pieces_new_tumormasks_subsampled/PTENX036-011/Lat-186_PtenX036-011-76_30659_17820_30844_E.png
/bmt-data/bii/datasets/3D-histology/pieces_subsampled_masks/PTENX036-011/Lat-186_PtenX036-011-91_1333_S1_G.png	/bmt-data/bii/datasets/3D-histology/pieces_subsampled/PTENX036-011/Lat-186_PtenX036-011-91_1333_S1.jp2 3773 2510	/bmt-data/bii/datasets/3D-histology/pieces_new_selected/PTENX036-011/Lat-186_PtenX036-011-91_1333_24492_37228.tiff 24492 37228	7480 10968	/bmt-data/bii/datasets/3D-histology/pieces_new_tumormasks_subsampled/PTENX036-011/Lat-186_PtenX036-011-91_1333_24492_37228_G.png
/bmt-data/bii/datasets/3D-histology/pieces_subsampled_masks/PTENX036-011/Lat-186_PtenX036-011-25_16940_S1_A.png	/bmt-data/bii/datasets/3D-histology/pieces_subsampled/PTENX036-011/Lat-186_PtenX036-011-25_16940_S1.jp2 2396 1088	/bmt-data/bii/datasets/3D-histology/pieces_new_selected/PTENX036-011/Lat-186_PtenX036-011-25_16940_10364_23436.tiff 10364 23436	13576 18968	/bmt-data/bii/datasets/3D-histology/pieces_new_tumormasks_subsampled/PTENX036-011/Lat-186_PtenX036-011-25_16940_10364_23436_A.png
/bmt-data/bii/datasets/3D-histology/pieces_subsampled_masks/PTENX036-011/Lat-186_PtenX036-011-28_17678_S1_A.png	/bmt-data/bii/datasets/3D-histology/pieces_subsampled/PTENX036-011/Lat-186_PtenX036-011-28_17678_S1.jp2 2506 2240	/bmt-data/bii/datasets/3D-histology/pieces_new_selected/PTENX036-011/Lat-186_PtenX036-011-28_17678_21900_24556.tiff 21900 24556	13416 18536	/bmt-data/bii/datasets/3D-histology/pieces_new_tumormasks_subsampled/PTENX036-011/Lat-186_PtenX036-011-28_17678_21900_24556_A.png
/bmt-data/bii/datasets/3D-histology/pieces_subsampled_masks/PTENX036-011/Lat-186_PtenX036-011-31_18563_S3_A.png	/bmt-data/bii/datasets/3D-histology/pieces_subsampled/PTENX036-011/Lat-186_PtenX036-011-31_18563_S3.jp2 2366 5080	/bmt-data/bii/datasets/3D-histology/pieces_new_selected/PTENX036-011/Lat-186_PtenX036-011-31_18563_50380_23148.tiff 50380 23148	14920 18312	/bmt-data/bii/datasets/3D-histology/pieces_new_tumormasks_subsampled/PTENX036-011/Lat-186_PtenX036-011-31_18563_50380_23148_A.png
/bmt-data/bii/datasets/3D-histology/pieces_subsampled_masks/PTENX036-011/Lat-186_PtenX036-011-34_19298_S1_A.png	/bmt-data/bii/datasets/3D-histology/pieces_subsampled/PTENX036-011/Lat-186_PtenX036-011-34_19298_S1.jp2 2442 2144	/bmt-data/bii/datasets/3D-histology/pieces_new_selected/PTENX036-011/Lat-186_PtenX036-011-34_19298_20924_23900.tiff 20924 23900	12872 19576	/bmt-data/bii/datasets/3D-histology/pieces_new_tumormasks_subsampled/PTENX036-011/Lat-186_PtenX036-011-34_19298_20924_23900_A.png
/bmt-data/bii/datasets/3D-histology/pieces_subsampled_masks/PTENX036-011/Lat-186_PtenX036-011-34_19298_S1_B.png	/bmt-data/bii/datasets/3D-histology/pieces_subsampled/PTENX036-011/Lat-186_PtenX036-011-34_19298_S1.jp2 2442 2144	/bmt-data/bii/datasets/3D-histology/pieces_new_selected/PTENX036-011/Lat-186_PtenX036-011-34_19298_20924_23900.tiff 20924 23900	12872 19576	/bmt-data/bii/datasets/3D-histology/pieces_new_tumormasks_subsampled/PTENX036-011/Lat-186_PtenX036-011-34_19298_20924_23900_B.png
/bmt-data/bii/datasets/3D-histology/pieces_subsampled_masks/PTENX036-011/Lat-186_PtenX036-011-37_16880_S1_A.png	/bmt-data/bii/datasets/3D-histology/pieces_subsampled/PTENX036-011/Lat-186_PtenX036-011-37_16880_S1.jp2 2678 1420	/bmt-data/bii/datasets/3D-histology/pieces_new_selected/PTENX036-011/Lat-186_PtenX036-011-37_16880_13804_26268.tiff 13804 26268	12792 19048	/bmt-data/bii/datasets/3D-histology/pieces_new_tumormasks_subsampled/PTENX036-011/Lat-186_PtenX036-011-37_16880_13804_26268_A.png
/bmt-data/bii/datasets/3D-histology/pieces_subsampled_masks/PTENX036-011/Lat-186_PtenX036-011-37_16880_S1_B.png	/bmt-data/bii/datasets/3D-histology/pieces_subsampled/PTENX036-011/Lat-186_PtenX036-011-37_16880_S1.jp2 2678 1420	/bmt-data/bii/datasets/3D-histology/pieces_new_selected/PTENX036-011/Lat-186_PtenX036-011-37_16880_13804_26268.tiff 13804 26268	12792 19048	/bmt-data/bii/datasets/3D-histology/pieces_new_tumormasks_subsampled/PTENX036-011/Lat-186_PtenX036-011-37_16880_13804_26268_B.png
/bmt-data/bii/datasets/3D-histology/pieces_subsampled_masks/PTENX036-011/Lat-186_PtenX036-011-40_20434_S1_A.png	/bmt-data/bii/datasets/3D-histology/pieces_subsampled/PTENX036-011/Lat-186_PtenX036-011-40_20434_S1.jp2 2598 1266	/bmt-data/bii/datasets/3D-histology/pieces_new_selected/PTENX036-011/Lat-186_PtenX036-011-40_20434_12140_25452.tiff 12140 25452	13112 19160	/bmt-data/bii/datasets/3D-histology/pieces_new_tumormasks_subsampled/PTENX036-011/Lat-186_PtenX036-011-40_20434_12140_25452_A.png
/bmt-data/bii/datasets/3D-histology/pieces_subsampled_masks/PTENX036-011/Lat-186_PtenX036-011-40_20434_S1_B.png	/bmt-data/bii/datasets/3D-histology/pieces_subsampled/PTENX036-011/Lat-186_PtenX036-011-40_20434_S1.jp2 2598 1266	/bmt-data/bii/datasets/3D-histology/pieces_new_selected/PTENX036-011/Lat-186_PtenX036-011-40_20434_12140_25452.tiff 12140 25452	13112 19160	/bmt-data/bii/datasets/3D-histology/pieces_new_tumormasks_subsampled/PTENX036-011/Lat-186_PtenX036-011-40_20434_12140_25452_B.png
/bmt-data/bii/datasets/3D-histology/pieces_subsampled_masks/PTENX036-011/Lat-186_PtenX036-011-43_21192_S1_A.png	/bmt-data/bii/datasets/3D-histology/pieces_subsampled/PTENX036-011/Lat-186_PtenX036-011-43_21192_S1.jp2 1862 2028	/bmt-data/bii/datasets/3D-histology/pieces_new_selected/PTENX036-011/Lat-186_PtenX036-011-43_21192_19628_18108.tiff 19628 18108	12888 19800	/bmt-data/bii/datasets/3D-histology/pieces_new_tumormasks_subsampled/PTENX036-011/Lat-186_PtenX036-011-43_21192_19628_18108_A.png
/bmt-data/bii/datasets/3D-histology/pieces_subsampled_masks/PTENX036-011/Lat-186_PtenX036-011-43_21192_S1_B.png	/bmt-data/bii/datasets/3D-histology/pieces_subsampled/PTENX036-011/Lat-186_PtenX036-011-43_21192_S1.jp2 1862 2028	/bmt-data/bii/datasets/3D-histology/pieces_new_selected/PTENX036-011/Lat-186_PtenX036-011-43_21192_19628_18108.tiff 19628 18108	12888 19800	/bmt-data/bii/datasets/3D-histology/pieces_new_tumormasks_subsampled/PTENX036-011/Lat-186_PtenX036-011-43_21192_19628_18108_B.png
/bmt-data/bii/datasets/3D-histology/pieces_subsampled_masks/PTENX036-011/Lat-186_PtenX036-011-46_21946_S1_A.png	/bmt-data/bii/datasets/3D-histology/pieces_subsampled/PTENX036-011/Lat-186_PtenX036-011-46_21946_S1.jp2 2558 1482	/bmt-data/bii/datasets/3D-histology/pieces_new_selected/PTENX036-011/Lat-186_PtenX036-011-46_21946_14316_25068.tiff 14316 25068	12568 18552	/bmt-data/bii/datasets/3D-histology/pieces_new_tumormasks_subsampled/PTENX036-011/Lat-186_PtenX036-011-46_21946_14316_25068_A.png
/bmt-data/bii/datasets/3D-histology/pieces_subsampled_masks/PTENX036-011/Lat-186_PtenX036-011-46_21946_S1_B.png	/bmt-data/bii/datasets/3D-histology/pieces_subsampled/PTENX036-011/Lat-186_PtenX036-011-46_21946_S1.jp2 2558 1482	/bmt-data/bii/datasets/3D-histology/pieces_new_selected/PTENX036-011/Lat-186_PtenX036-011-46_21946_14316_25068.tiff 14316 25068	12568 18552	/bmt-data/bii/datasets/3D-histology/pieces_new_tumormasks_subsampled/PTENX036-011/Lat-186_PtenX036-011-46_21946_14316_25068_B.png
/bmt-data/bii/datasets/3D-histology/pieces_subsampled_masks/PTENX036-011/Lat-186_PtenX036-011-49_22818_S1_A.png	/bmt-data/bii/datasets/3D-histology/pieces_subsampled/PTENX036-011/Lat-186_PtenX036-011-49_22818_S1.jp2 2612 1178	/bmt-data/bii/datasets/3D-histology/pieces_new_selected/PTENX036-011/Lat-186_PtenX036-011-49_22818_11260_25596.tiff 11260 25596	12648 18280	/bmt-data/bii/datasets/3D-histology/pieces_new_tumormasks_subsampled/PTENX036-011/Lat-186_PtenX036-011-49_22818_11260_25596_A.png
/bmt-data/bii/datasets/3D-histology/pieces_subsampled_masks/PTENX036-011/Lat-186_PtenX036-011-49_22818_S1_B.png	/bmt-data/bii/datasets/3D-histology/pieces_subsampled/PTENX036-011/Lat-186_PtenX036-011-49_22818_S1.jp2 2612 1178	/bmt-data/bii/datasets/3D-histology/pieces_new_selected/PTENX036-011/Lat-186_PtenX036-011-49_22818_11260_25596.tiff 11260 25596	12648 18280	/bmt-data/bii/datasets/3D-histology/pieces_new_tumormasks_subsampled/PTENX036-011/Lat-186_PtenX036-011-49_22818_11260_25596_B.png
/bmt-data/bii/datasets/3D-histology/pieces_subsampled_masks/PTENX036-011/Lat-186_PtenX036-011-49_22818_S1_C.png	/bmt-data/bii/datasets/3D-histology/pieces_subsampled/PTENX036-011/Lat-186_PtenX036-011-49_22818_S1.jp2 2612 1178	/bmt-data/bii/datasets/3D-histology/pieces_new_selected/PTENX036-011/Lat-186_PtenX036-011-49_22818_11260_25596.tiff 11260 25596	12648 18280	/bmt-data/bii/datasets/3D-histology/pieces_new_tumormasks_subsampled/PTENX036-011/Lat-186_PtenX036-011-49_22818_11260_25596_C.png
/bmt-data/bii/datasets/3D-histology/pieces_subsampled_masks/PTENX036-011/Lat-186_PtenX036-011-76_30659_S1_F.png	/bmt-data/bii/datasets/3D-histology/pieces_subsampled/PTENX036-011/Lat-186_PtenX036-011-76_30659_S1.jp2 3136 1834	/bmt-data/bii/datasets/3D-histology/pieces_new_selected/PTENX036-011/Lat-186_PtenX036-011-76_30659_17820_30844.tiff 17820 30844	9400 11624	/bmt-data/bii/datasets/3D-histology/pieces_new_tumormasks_subsampled/PTENX036-011/Lat-186_PtenX036-011-76_30659_17820_30844_F.png
