stack_eval_4316086.log:INFO:root:/bmt-data/bii/projects/3D-histology/output_GRID_SEARCH/PTENX036-011/1/full_res_subsampled6 : 0.10445433468975215
stack_eval_4316208.log:INFO:root:/bmt-data/bii/projects/3D-histology/output_GRID_SEARCH/PTENX036-14/51/full_res_subsampled6 : 0.10180537961535754
stack_eval_4316281.log:INFO:root:/bmt-data/bii/projects/3D-histology/output_GRID_SEARCH/PTENX036-15/51/full_res_subsampled6 : 0.09228108623362277
stack_eval_4316355.log:INFO:root:/bmt-data/bii/projects/3D-histology/output_GRID_SEARCH/PTENX036-20/52/full_res_subsampled6 : 0.11015272364897859
stack_eval_4316424.log:INFO:root:/bmt-data/bii/projects/3D-histology/output_GRID_SEARCH/PTENX036-21/48/full_res_subsampled6 : 0.10061368602280779
stack_eval_4316497.log:INFO:root:/bmt-data/bii/projects/3D-histology/output_GRID_SEARCH/PTENX036-32/48/full_res_subsampled6 : 0.10594370510319306
stack_eval_4316563.log:INFO:root:/bmt-data/bii/projects/3D-histology/output_GRID_SEARCH/PTENX036-33/42/full_res_subsampled6 : 0.07959607730693159
stack_eval_4316612.log:INFO:root:/bmt-data/bii/projects/3D-histology/output_GRID_SEARCH/PTENX036-34/19/full_res_subsampled6 : 0.08125435599834735
stack_eval_4316706.log:INFO:root:/bmt-data/bii/projects/3D-histology/output_GRID_SEARCH/PTENX036-39/40/full_res_subsampled6 : 0.07711114882200439
stack_eval_4316792.log:INFO:root:/bmt-data/bii/projects/3D-histology/output_GRID_SEARCH/PTENX036-40/54/full_res_subsampled6 : 0.06382637301467632
stack_eval_4316822.log:INFO:root:/bmt-data/bii/projects/3D-histology/output_GRID_SEARCH/PTENX036-42/12/full_res_subsampled6 : 0.0586299022161088
stack_eval_4316940.log:INFO:root:/bmt-data/bii/projects/3D-histology/output_GRID_SEARCH/PTENX036-68/58/full_res_subsampled6 : 0.06718298727802875
stack_eval_4317024.log:INFO:root:/bmt-data/bii/projects/3D-histology/output_GRID_SEARCH/UTU186-xhiMyc-003/70/full_res_subsampled6 : 0.09421756365808141
stack_eval_4317029.log:INFO:root:/bmt-data/bii/projects/3D-histology/output_GRID_SEARCH/UTU186-xhiMyc-006/3/full_res_subsampled6 : 0.0943772006260915
stack_eval_4317101.log:INFO:root:/bmt-data/bii/projects/3D-histology/output_GRID_SEARCH/UTU186-xhiMyc-007/3/full_res_subsampled6 : 0.10403660805030723
stack_eval_4317212.log:INFO:root:/bmt-data/bii/projects/3D-histology/output_GRID_SEARCH/UTU186-xhiMyc-008/42/full_res_subsampled6 : 0.08197534915576493
stack_eval_4317285.log:INFO:root:/bmt-data/bii/projects/3D-histology/output_GRID_SEARCH/UTU186-xhiMyc-022/43/full_res_subsampled6 : 0.09249920591003681
stack_eval_4317356.log:INFO:root:/bmt-data/bii/projects/3D-histology/output_GRID_SEARCH/UTU186-xhiMyc-045/42/full_res_subsampled6 : 0.10489975250602616
stack_eval_4317794.log:INFO:root:/bmt-data/bii/projects/3D-histology/output_GRID_SEARCH/UTU186-xhiMyc-1387/48/full_res_subsampled6 : 0.12809467517978634
stack_eval_4317434.log:INFO:root:/bmt-data/bii/projects/3D-histology/output_GRID_SEARCH/UTU186-xhiMyc-199/48/full_res_subsampled6 : 0.07360196812477225
stack_eval_4317497.log:INFO:root:/bmt-data/bii/projects/3D-histology/output_GRID_SEARCH/UTU186-xhiMyc-211/39/full_res_subsampled6 : 0.12381899707688965
stack_eval_4317572.log:INFO:root:/bmt-data/bii/projects/3D-histology/output_GRID_SEARCH/UTU186-xhiMyc-223/42/full_res_subsampled6 : 0.11101816197072534
stack_eval_4317641.log:INFO:root:/bmt-data/bii/projects/3D-histology/output_GRID_SEARCH/UTU186-xhiMyc-355/39/full_res_subsampled6 : 0.07071014346733734
stack_eval_4317713.log:INFO:root:/bmt-data/bii/projects/3D-histology/output_GRID_SEARCH/UTU186-xhiMyc-356/39/full_res_subsampled6 : 0.06562502238569756
